<?xml version="1.0" encoding="utf-8"?>
<!DOCTYPE eagle SYSTEM "eagle.dtd">
<eagle version="9.4.2">
<drawing>
<settings>
<setting alwaysvectorfont="no"/>
<setting verticaltext="up"/>
</settings>
<grid distance="0.1" unitdist="inch" unit="inch" style="lines" multiple="1" display="no" altdistance="0.01" altunitdist="inch" altunit="inch"/>
<layers>
<layer number="1" name="Top" color="4" fill="1" visible="yes" active="yes"/>
<layer number="2" name="Route2" color="16" fill="1" visible="no" active="yes"/>
<layer number="3" name="Route3" color="17" fill="1" visible="no" active="yes"/>
<layer number="4" name="Route4" color="18" fill="1" visible="no" active="yes"/>
<layer number="5" name="Route5" color="19" fill="1" visible="no" active="yes"/>
<layer number="6" name="Route6" color="25" fill="1" visible="no" active="yes"/>
<layer number="7" name="Route7" color="26" fill="1" visible="no" active="yes"/>
<layer number="8" name="Route8" color="27" fill="1" visible="no" active="yes"/>
<layer number="9" name="Route9" color="28" fill="1" visible="no" active="yes"/>
<layer number="10" name="Route10" color="29" fill="1" visible="no" active="yes"/>
<layer number="11" name="Route11" color="30" fill="1" visible="no" active="yes"/>
<layer number="12" name="Route12" color="20" fill="1" visible="no" active="yes"/>
<layer number="13" name="Route13" color="21" fill="1" visible="no" active="yes"/>
<layer number="14" name="Route14" color="22" fill="1" visible="no" active="yes"/>
<layer number="15" name="Route15" color="23" fill="1" visible="no" active="yes"/>
<layer number="16" name="Bottom" color="1" fill="1" visible="yes" active="yes"/>
<layer number="17" name="Pads" color="2" fill="1" visible="yes" active="yes"/>
<layer number="18" name="Vias" color="2" fill="1" visible="yes" active="yes"/>
<layer number="19" name="Unrouted" color="6" fill="1" visible="yes" active="yes"/>
<layer number="20" name="Dimension" color="24" fill="1" visible="yes" active="yes"/>
<layer number="21" name="tPlace" color="7" fill="1" visible="yes" active="yes"/>
<layer number="22" name="bPlace" color="7" fill="1" visible="yes" active="yes"/>
<layer number="23" name="tOrigins" color="15" fill="1" visible="yes" active="yes"/>
<layer number="24" name="bOrigins" color="15" fill="1" visible="yes" active="yes"/>
<layer number="25" name="tNames" color="7" fill="1" visible="yes" active="yes"/>
<layer number="26" name="bNames" color="7" fill="1" visible="yes" active="yes"/>
<layer number="27" name="tValues" color="7" fill="1" visible="yes" active="yes"/>
<layer number="28" name="bValues" color="7" fill="1" visible="yes" active="yes"/>
<layer number="29" name="tStop" color="7" fill="3" visible="no" active="yes"/>
<layer number="30" name="bStop" color="7" fill="6" visible="no" active="yes"/>
<layer number="31" name="tCream" color="7" fill="4" visible="no" active="yes"/>
<layer number="32" name="bCream" color="7" fill="5" visible="no" active="yes"/>
<layer number="33" name="tFinish" color="6" fill="3" visible="no" active="yes"/>
<layer number="34" name="bFinish" color="6" fill="6" visible="no" active="yes"/>
<layer number="35" name="tGlue" color="7" fill="4" visible="no" active="yes"/>
<layer number="36" name="bGlue" color="7" fill="5" visible="no" active="yes"/>
<layer number="37" name="tTest" color="7" fill="1" visible="no" active="yes"/>
<layer number="38" name="bTest" color="7" fill="1" visible="no" active="yes"/>
<layer number="39" name="tKeepout" color="4" fill="11" visible="yes" active="yes"/>
<layer number="40" name="bKeepout" color="1" fill="11" visible="yes" active="yes"/>
<layer number="41" name="tRestrict" color="4" fill="10" visible="yes" active="yes"/>
<layer number="42" name="bRestrict" color="1" fill="10" visible="yes" active="yes"/>
<layer number="43" name="vRestrict" color="2" fill="10" visible="yes" active="yes"/>
<layer number="44" name="Drills" color="7" fill="1" visible="no" active="yes"/>
<layer number="45" name="Holes" color="7" fill="1" visible="no" active="yes"/>
<layer number="46" name="Milling" color="3" fill="1" visible="no" active="yes"/>
<layer number="47" name="Measures" color="7" fill="1" visible="no" active="yes"/>
<layer number="48" name="Document" color="7" fill="1" visible="yes" active="yes"/>
<layer number="49" name="Reference" color="7" fill="1" visible="yes" active="yes"/>
<layer number="51" name="tDocu" color="7" fill="1" visible="yes" active="yes"/>
<layer number="52" name="bDocu" color="7" fill="1" visible="yes" active="yes"/>
<layer number="88" name="SimResults" color="9" fill="1" visible="yes" active="yes"/>
<layer number="89" name="SimProbes" color="9" fill="1" visible="yes" active="yes"/>
<layer number="90" name="Modules" color="5" fill="1" visible="yes" active="yes"/>
<layer number="91" name="Nets" color="2" fill="1" visible="yes" active="yes"/>
<layer number="92" name="Busses" color="1" fill="1" visible="yes" active="yes"/>
<layer number="93" name="Pins" color="2" fill="1" visible="no" active="yes"/>
<layer number="94" name="Symbols" color="4" fill="1" visible="yes" active="yes"/>
<layer number="95" name="Names" color="7" fill="1" visible="yes" active="yes"/>
<layer number="96" name="Values" color="7" fill="1" visible="yes" active="yes"/>
<layer number="97" name="Info" color="7" fill="1" visible="yes" active="yes"/>
<layer number="98" name="Guide" color="6" fill="1" visible="yes" active="yes"/>
</layers>
<library>
<packages>
<package name="21-0190D">
<smd name="1" x="-0.2667" y="0.5" dx="0.3556" dy="0.254" layer="1"/>
<smd name="2" x="-0.2667" y="0" dx="0.3556" dy="0.254" layer="1"/>
<smd name="3" x="-0.2667" y="-0.5" dx="0.3556" dy="0.254" layer="1"/>
<smd name="4" x="0.2667" y="-0.5" dx="0.3556" dy="0.254" layer="1"/>
<smd name="5" x="0.2667" y="0" dx="0.3556" dy="0.254" layer="1"/>
<smd name="6" x="0.2667" y="0.5" dx="0.3556" dy="0.254" layer="1"/>
<wire x1="-0.7874" y1="0.4318" x2="-0.7874" y2="0.5842" width="0.1524" layer="21" curve="-208"/>
<wire x1="-0.508" y1="-0.762" x2="0.508" y2="-0.762" width="0.1524" layer="51"/>
<wire x1="0.508" y1="-0.762" x2="0.508" y2="0.762" width="0.1524" layer="51"/>
<wire x1="0.508" y1="0.762" x2="-0.508" y2="0.762" width="0.1524" layer="51"/>
<wire x1="-0.508" y1="0.762" x2="-0.508" y2="-0.762" width="0.1524" layer="51"/>
<text x="-3.2766" y="-0.635" size="1.27" layer="25" ratio="6" rot="SR0">&gt;Name</text>
</package>
<package name="21-0190D-M">
<smd name="1" x="-0.2667" y="0.5" dx="0.4572" dy="0.3556" layer="1"/>
<smd name="2" x="-0.2667" y="0" dx="0.4572" dy="0.3556" layer="1"/>
<smd name="3" x="-0.2667" y="-0.5" dx="0.4572" dy="0.3556" layer="1"/>
<smd name="4" x="0.2667" y="-0.5" dx="0.4572" dy="0.3556" layer="1"/>
<smd name="5" x="0.2667" y="0" dx="0.4572" dy="0.3556" layer="1"/>
<smd name="6" x="0.2667" y="0.5" dx="0.4572" dy="0.3556" layer="1"/>
<wire x1="-0.8382" y1="0.4318" x2="-0.8382" y2="0.5842" width="0.1524" layer="21" curve="-208"/>
<wire x1="-0.508" y1="-0.762" x2="0.508" y2="-0.762" width="0.1524" layer="51"/>
<wire x1="0.508" y1="-0.762" x2="0.508" y2="0.762" width="0.1524" layer="51"/>
<wire x1="0.508" y1="0.762" x2="-0.508" y2="0.762" width="0.1524" layer="51"/>
<wire x1="-0.508" y1="0.762" x2="-0.508" y2="-0.762" width="0.1524" layer="51"/>
<text x="-3.2766" y="-0.635" size="1.27" layer="25" ratio="6" rot="SR0">&gt;Name</text>
</package>
<package name="21-0190D-L">
<smd name="1" x="-0.2667" y="0.5" dx="0.3556" dy="0.254" layer="1"/>
<smd name="2" x="-0.2667" y="0" dx="0.3556" dy="0.254" layer="1"/>
<smd name="3" x="-0.2667" y="-0.5" dx="0.3556" dy="0.254" layer="1"/>
<smd name="4" x="0.2667" y="-0.5" dx="0.3556" dy="0.254" layer="1"/>
<smd name="5" x="0.2667" y="0" dx="0.3556" dy="0.254" layer="1"/>
<smd name="6" x="0.2667" y="0.5" dx="0.3556" dy="0.254" layer="1"/>
<wire x1="-0.7874" y1="0.4318" x2="-0.7874" y2="0.5842" width="0.1524" layer="21" curve="-208"/>
<wire x1="-0.508" y1="-0.762" x2="0.508" y2="-0.762" width="0.1524" layer="51"/>
<wire x1="0.508" y1="-0.762" x2="0.508" y2="0.762" width="0.1524" layer="51"/>
<wire x1="0.508" y1="0.762" x2="-0.508" y2="0.762" width="0.1524" layer="51"/>
<wire x1="-0.508" y1="0.762" x2="-0.508" y2="-0.762" width="0.1524" layer="51"/>
<text x="-3.2766" y="-0.635" size="1.27" layer="25" ratio="6" rot="SR0">&gt;Name</text>
</package>
<package name="MAX44260AYTT">
<description>&lt;b&gt;21-0190/90-0233&lt;/b&gt;&lt;br&gt;
</description>
<smd name="1" x="-0.38" y="0.5" dx="0.71" dy="0.25" layer="1"/>
<smd name="2" x="-0.43" y="0" dx="0.61" dy="0.25" layer="1"/>
<smd name="3" x="-0.43" y="-0.5" dx="0.61" dy="0.25" layer="1"/>
<smd name="4" x="0.43" y="-0.5" dx="0.61" dy="0.25" layer="1"/>
<smd name="5" x="0.43" y="0" dx="0.61" dy="0.25" layer="1"/>
<smd name="6" x="0.43" y="0.5" dx="0.61" dy="0.25" layer="1"/>
<text x="-0.182" y="0" size="1.27" layer="25" align="center">&gt;NAME</text>
<text x="-0.182" y="0" size="1.27" layer="27" align="center">&gt;VALUE</text>
<wire x1="-0.5" y1="0.75" x2="0.5" y2="0.75" width="0.2" layer="51"/>
<wire x1="0.5" y1="0.75" x2="0.5" y2="-0.75" width="0.2" layer="51"/>
<wire x1="0.5" y1="-0.75" x2="-0.5" y2="-0.75" width="0.2" layer="51"/>
<wire x1="-0.5" y1="-0.75" x2="-0.5" y2="0.75" width="0.2" layer="51"/>
<wire x1="-2.1" y1="1.75" x2="1.735" y2="1.75" width="0.1" layer="51"/>
<wire x1="1.735" y1="1.75" x2="1.735" y2="-1.75" width="0.1" layer="51"/>
<wire x1="1.735" y1="-1.75" x2="-2.1" y2="-1.75" width="0.1" layer="51"/>
<wire x1="-2.1" y1="-1.75" x2="-2.1" y2="1.75" width="0.1" layer="51"/>
<wire x1="-1.1" y1="0.5" x2="-1.1" y2="0.5" width="0.1" layer="21"/>
<wire x1="-1.1" y1="0.5" x2="-1" y2="0.5" width="0.1" layer="21" curve="180"/>
<wire x1="-1" y1="0.5" x2="-1" y2="0.5" width="0.1" layer="21"/>
<wire x1="-1" y1="0.5" x2="-1.1" y2="0.5" width="0.1" layer="21" curve="180"/>
</package>
<package name="SOP50P210X110-8N">
<description>&lt;b&gt;SC70&lt;/b&gt;&lt;br&gt;
</description>
<smd name="1" x="-1.1" y="0.75" dx="0.95" dy="0.3" layer="1"/>
<smd name="2" x="-1.1" y="0.25" dx="0.95" dy="0.3" layer="1"/>
<smd name="3" x="-1.1" y="-0.25" dx="0.95" dy="0.3" layer="1"/>
<smd name="4" x="-1.1" y="-0.75" dx="0.95" dy="0.3" layer="1"/>
<smd name="5" x="1.1" y="-0.75" dx="0.95" dy="0.3" layer="1"/>
<smd name="6" x="1.1" y="-0.25" dx="0.95" dy="0.3" layer="1"/>
<smd name="7" x="1.1" y="0.25" dx="0.95" dy="0.3" layer="1"/>
<smd name="8" x="1.1" y="0.75" dx="0.95" dy="0.3" layer="1"/>
<text x="0" y="0" size="1.27" layer="25" align="center">&gt;NAME</text>
<text x="0" y="0" size="1.27" layer="27" align="center">&gt;VALUE</text>
<wire x1="-1.825" y1="1.35" x2="1.825" y2="1.35" width="0.05" layer="51"/>
<wire x1="1.825" y1="1.35" x2="1.825" y2="-1.35" width="0.05" layer="51"/>
<wire x1="1.825" y1="-1.35" x2="-1.825" y2="-1.35" width="0.05" layer="51"/>
<wire x1="-1.825" y1="-1.35" x2="-1.825" y2="1.35" width="0.05" layer="51"/>
<wire x1="-0.625" y1="1" x2="0.625" y2="1" width="0.1" layer="51"/>
<wire x1="0.625" y1="1" x2="0.625" y2="-1" width="0.1" layer="51"/>
<wire x1="0.625" y1="-1" x2="-0.625" y2="-1" width="0.1" layer="51"/>
<wire x1="-0.625" y1="-1" x2="-0.625" y2="1" width="0.1" layer="51"/>
<wire x1="-0.625" y1="0.5" x2="-0.125" y2="1" width="0.1" layer="51"/>
<wire x1="-0.275" y1="1" x2="0.275" y2="1" width="0.2" layer="21"/>
<wire x1="0.275" y1="1" x2="0.275" y2="-1" width="0.2" layer="21"/>
<wire x1="0.275" y1="-1" x2="-0.275" y2="-1" width="0.2" layer="21"/>
<wire x1="-0.275" y1="-1" x2="-0.275" y2="1" width="0.2" layer="21"/>
<wire x1="-1.575" y1="1.25" x2="-0.625" y2="1.25" width="0.2" layer="21"/>
</package>
<package name="QFN65P400X400X100-17N">
<description>&lt;b&gt;QFN-16&lt;/b&gt;&lt;br&gt;
&lt;author&gt;From layout created using SamacSys tool&lt;/author&gt;</description>
<smd name="1" x="-2" y="0.975" dx="0.8" dy="0.35" layer="1"/>
<smd name="2" x="-2" y="0.325" dx="0.8" dy="0.35" layer="1"/>
<smd name="3" x="-2" y="-0.325" dx="0.8" dy="0.35" layer="1"/>
<smd name="4" x="-2" y="-0.975" dx="0.8" dy="0.35" layer="1"/>
<smd name="5" x="-0.975" y="-2" dx="0.8" dy="0.35" layer="1" rot="R90"/>
<smd name="6" x="-0.325" y="-2" dx="0.8" dy="0.35" layer="1" rot="R90"/>
<smd name="7" x="0.325" y="-2" dx="0.8" dy="0.35" layer="1" rot="R90"/>
<smd name="8" x="0.975" y="-2" dx="0.8" dy="0.35" layer="1" rot="R90"/>
<smd name="9" x="2" y="-0.975" dx="0.8" dy="0.35" layer="1"/>
<smd name="10" x="2" y="-0.325" dx="0.8" dy="0.35" layer="1"/>
<smd name="11" x="2" y="0.325" dx="0.8" dy="0.35" layer="1"/>
<smd name="12" x="2" y="0.975" dx="0.8" dy="0.35" layer="1"/>
<smd name="13" x="0.975" y="2" dx="0.8" dy="0.35" layer="1" rot="R90"/>
<smd name="14" x="0.325" y="2" dx="0.8" dy="0.35" layer="1" rot="R90"/>
<smd name="15" x="-0.325" y="2" dx="0.8" dy="0.35" layer="1" rot="R90"/>
<smd name="16" x="-0.975" y="2" dx="0.8" dy="0.35" layer="1" rot="R90"/>
<smd name="17" x="0" y="0" dx="2.8" dy="2.8" layer="1" rot="R90"/>
<text x="0" y="0" size="1.27" layer="25" align="center">&gt;NAME</text>
<text x="0" y="0" size="1.27" layer="27" align="center">&gt;VALUE</text>
<wire x1="-2.625" y1="2.625" x2="2.625" y2="2.625" width="0.05" layer="51"/>
<wire x1="2.625" y1="2.625" x2="2.625" y2="-2.625" width="0.05" layer="51"/>
<wire x1="2.625" y1="-2.625" x2="-2.625" y2="-2.625" width="0.05" layer="51"/>
<wire x1="-2.625" y1="-2.625" x2="-2.625" y2="2.625" width="0.05" layer="51"/>
<wire x1="-2" y1="2" x2="2" y2="2" width="0.1" layer="51"/>
<wire x1="2" y1="2" x2="2" y2="-2" width="0.1" layer="51"/>
<wire x1="2" y1="-2" x2="-2" y2="-2" width="0.1" layer="51"/>
<wire x1="-2" y1="-2" x2="-2" y2="2" width="0.1" layer="51"/>
<wire x1="-2" y1="1.35" x2="-1.35" y2="2" width="0.1" layer="51"/>
<circle x="-2.4005" y="1.95" radius="0.1625" width="0.325" layer="25"/>
</package>
<package name="SOP65P490X110-8N">
<description>&lt;b&gt;8 Lead MS MSOP&lt;/b&gt;&lt;br&gt;
</description>
<smd name="1" x="-2.2" y="0.975" dx="1.4" dy="0.45" layer="1"/>
<smd name="2" x="-2.2" y="0.325" dx="1.4" dy="0.45" layer="1"/>
<smd name="3" x="-2.2" y="-0.325" dx="1.4" dy="0.45" layer="1"/>
<smd name="4" x="-2.2" y="-0.975" dx="1.4" dy="0.45" layer="1"/>
<smd name="5" x="2.2" y="-0.975" dx="1.4" dy="0.45" layer="1"/>
<smd name="6" x="2.2" y="-0.325" dx="1.4" dy="0.45" layer="1"/>
<smd name="7" x="2.2" y="0.325" dx="1.4" dy="0.45" layer="1"/>
<smd name="8" x="2.2" y="0.975" dx="1.4" dy="0.45" layer="1"/>
<text x="0" y="0" size="1.27" layer="25" align="center">&gt;NAME</text>
<text x="0" y="0" size="1.27" layer="27" align="center">&gt;VALUE</text>
<wire x1="-3.15" y1="1.75" x2="3.15" y2="1.75" width="0.05" layer="51"/>
<wire x1="3.15" y1="1.75" x2="3.15" y2="-1.75" width="0.05" layer="51"/>
<wire x1="3.15" y1="-1.75" x2="-3.15" y2="-1.75" width="0.05" layer="51"/>
<wire x1="-3.15" y1="-1.75" x2="-3.15" y2="1.75" width="0.05" layer="51"/>
<wire x1="-1.5" y1="1.5" x2="1.5" y2="1.5" width="0.1" layer="51"/>
<wire x1="1.5" y1="1.5" x2="1.5" y2="-1.5" width="0.1" layer="51"/>
<wire x1="1.5" y1="-1.5" x2="-1.5" y2="-1.5" width="0.1" layer="51"/>
<wire x1="-1.5" y1="-1.5" x2="-1.5" y2="1.5" width="0.1" layer="51"/>
<wire x1="-1.5" y1="0.85" x2="-0.85" y2="1.5" width="0.1" layer="51"/>
<wire x1="-1.15" y1="1.5" x2="1.15" y2="1.5" width="0.2" layer="21"/>
<wire x1="1.15" y1="1.5" x2="1.15" y2="-1.5" width="0.2" layer="21"/>
<wire x1="1.15" y1="-1.5" x2="-1.15" y2="-1.5" width="0.2" layer="21"/>
<wire x1="-1.15" y1="-1.5" x2="-1.15" y2="1.5" width="0.2" layer="21"/>
<wire x1="-2.9" y1="1.55" x2="-1.5" y2="1.55" width="0.2" layer="21"/>
</package>
<package name="D8">
<smd name="1" x="-2.4638" y="1.905" dx="1.9812" dy="0.5588" layer="1"/>
<smd name="2" x="-2.4638" y="0.635" dx="1.9812" dy="0.5588" layer="1"/>
<smd name="3" x="-2.4638" y="-0.635" dx="1.9812" dy="0.5588" layer="1"/>
<smd name="4" x="-2.4638" y="-1.905" dx="1.9812" dy="0.5588" layer="1"/>
<smd name="5" x="2.4638" y="-1.905" dx="1.9812" dy="0.5588" layer="1"/>
<smd name="6" x="2.4638" y="-0.635" dx="1.9812" dy="0.5588" layer="1"/>
<smd name="7" x="2.4638" y="0.635" dx="1.9812" dy="0.5588" layer="1"/>
<smd name="8" x="2.4638" y="1.905" dx="1.9812" dy="0.5588" layer="1"/>
<wire x1="-1.9812" y1="1.651" x2="-2.0066" y2="2.159" width="0.1524" layer="51"/>
<wire x1="-2.0066" y1="2.159" x2="-3.0988" y2="2.159" width="0.1524" layer="51"/>
<wire x1="-3.0988" y1="2.159" x2="-3.0988" y2="1.651" width="0.1524" layer="51"/>
<wire x1="-3.0988" y1="1.651" x2="-1.9812" y2="1.651" width="0.1524" layer="51"/>
<wire x1="-1.9812" y1="0.381" x2="-2.0066" y2="0.889" width="0.1524" layer="51"/>
<wire x1="-2.0066" y1="0.889" x2="-3.0988" y2="0.889" width="0.1524" layer="51"/>
<wire x1="-3.0988" y1="0.889" x2="-3.0988" y2="0.381" width="0.1524" layer="51"/>
<wire x1="-3.0988" y1="0.381" x2="-1.9812" y2="0.381" width="0.1524" layer="51"/>
<wire x1="-1.9812" y1="-0.889" x2="-1.9812" y2="-0.381" width="0.1524" layer="51"/>
<wire x1="-1.9812" y1="-0.381" x2="-3.0988" y2="-0.381" width="0.1524" layer="51"/>
<wire x1="-3.0988" y1="-0.381" x2="-3.0988" y2="-0.889" width="0.1524" layer="51"/>
<wire x1="-3.0988" y1="-0.889" x2="-1.9812" y2="-0.889" width="0.1524" layer="51"/>
<wire x1="-1.9812" y1="-2.159" x2="-1.9812" y2="-1.651" width="0.1524" layer="51"/>
<wire x1="-1.9812" y1="-1.651" x2="-3.0988" y2="-1.651" width="0.1524" layer="51"/>
<wire x1="-3.0988" y1="-1.651" x2="-3.0988" y2="-2.159" width="0.1524" layer="51"/>
<wire x1="-3.0988" y1="-2.159" x2="-1.9812" y2="-2.159" width="0.1524" layer="51"/>
<wire x1="1.9812" y1="-1.651" x2="2.0066" y2="-2.159" width="0.1524" layer="51"/>
<wire x1="2.0066" y1="-2.159" x2="3.0988" y2="-2.159" width="0.1524" layer="51"/>
<wire x1="3.0988" y1="-2.159" x2="3.0988" y2="-1.651" width="0.1524" layer="51"/>
<wire x1="3.0988" y1="-1.651" x2="1.9812" y2="-1.651" width="0.1524" layer="51"/>
<wire x1="1.9812" y1="-0.381" x2="1.9812" y2="-0.889" width="0.1524" layer="51"/>
<wire x1="1.9812" y1="-0.889" x2="3.0988" y2="-0.889" width="0.1524" layer="51"/>
<wire x1="3.0988" y1="-0.889" x2="3.0988" y2="-0.381" width="0.1524" layer="51"/>
<wire x1="3.0988" y1="-0.381" x2="1.9812" y2="-0.381" width="0.1524" layer="51"/>
<wire x1="1.9812" y1="0.889" x2="1.9812" y2="0.381" width="0.1524" layer="51"/>
<wire x1="1.9812" y1="0.381" x2="3.0988" y2="0.381" width="0.1524" layer="51"/>
<wire x1="3.0988" y1="0.381" x2="3.0988" y2="0.889" width="0.1524" layer="51"/>
<wire x1="3.0988" y1="0.889" x2="1.9812" y2="0.889" width="0.1524" layer="51"/>
<wire x1="1.9812" y1="2.159" x2="1.9812" y2="1.651" width="0.1524" layer="51"/>
<wire x1="1.9812" y1="1.651" x2="3.0988" y2="1.651" width="0.1524" layer="51"/>
<wire x1="3.0988" y1="1.651" x2="3.0988" y2="2.159" width="0.1524" layer="51"/>
<wire x1="3.0988" y1="2.159" x2="1.9812" y2="2.159" width="0.1524" layer="51"/>
<wire x1="-1.9812" y1="-2.4892" x2="1.9812" y2="-2.4892" width="0.1524" layer="51"/>
<wire x1="1.9812" y1="-2.4892" x2="1.9812" y2="2.4892" width="0.1524" layer="51"/>
<wire x1="1.9812" y1="2.4892" x2="-0.3048" y2="2.4892" width="0.1524" layer="51"/>
<wire x1="-0.3048" y1="2.4892" x2="-1.9812" y2="2.4892" width="0.1524" layer="51"/>
<wire x1="-1.9812" y1="2.4892" x2="-1.9812" y2="-2.4892" width="0.1524" layer="51"/>
<wire x1="0.3048" y1="2.5146" x2="-0.3048" y2="2.4892" width="0.1524" layer="51" curve="-180"/>
<text x="-2.1844" y="1.1684" size="1.27" layer="51" ratio="6" rot="SR0">*</text>
<wire x1="-2.1336" y1="-2.6416" x2="2.1336" y2="-2.6416" width="0.1524" layer="21"/>
<wire x1="2.1336" y1="2.6416" x2="-2.1336" y2="2.6416" width="0.1524" layer="21"/>
<text x="-3.302" y="2.3368" size="1.27" layer="21" ratio="6" rot="SR0">*</text>
<text x="-3.2766" y="-0.635" size="1.27" layer="25" ratio="6" rot="SR0">&gt;Name</text>
</package>
<package name="D8-M">
<smd name="1" x="-2.5146" y="1.905" dx="2.286" dy="0.6096" layer="1"/>
<smd name="2" x="-2.5146" y="0.635" dx="2.286" dy="0.6096" layer="1"/>
<smd name="3" x="-2.5146" y="-0.635" dx="2.286" dy="0.6096" layer="1"/>
<smd name="4" x="-2.5146" y="-1.905" dx="2.286" dy="0.6096" layer="1"/>
<smd name="5" x="2.5146" y="-1.905" dx="2.286" dy="0.6096" layer="1"/>
<smd name="6" x="2.5146" y="-0.635" dx="2.286" dy="0.6096" layer="1"/>
<smd name="7" x="2.5146" y="0.635" dx="2.286" dy="0.6096" layer="1"/>
<smd name="8" x="2.5146" y="1.905" dx="2.286" dy="0.6096" layer="1"/>
<wire x1="-1.9812" y1="1.651" x2="-2.0066" y2="2.159" width="0.1524" layer="51"/>
<wire x1="-2.0066" y1="2.159" x2="-3.0988" y2="2.159" width="0.1524" layer="51"/>
<wire x1="-3.0988" y1="2.159" x2="-3.0988" y2="1.651" width="0.1524" layer="51"/>
<wire x1="-3.0988" y1="1.651" x2="-1.9812" y2="1.651" width="0.1524" layer="51"/>
<wire x1="-1.9812" y1="0.381" x2="-2.0066" y2="0.889" width="0.1524" layer="51"/>
<wire x1="-2.0066" y1="0.889" x2="-3.0988" y2="0.889" width="0.1524" layer="51"/>
<wire x1="-3.0988" y1="0.889" x2="-3.0988" y2="0.381" width="0.1524" layer="51"/>
<wire x1="-3.0988" y1="0.381" x2="-1.9812" y2="0.381" width="0.1524" layer="51"/>
<wire x1="-1.9812" y1="-0.889" x2="-1.9812" y2="-0.381" width="0.1524" layer="51"/>
<wire x1="-1.9812" y1="-0.381" x2="-3.0988" y2="-0.381" width="0.1524" layer="51"/>
<wire x1="-3.0988" y1="-0.381" x2="-3.0988" y2="-0.889" width="0.1524" layer="51"/>
<wire x1="-3.0988" y1="-0.889" x2="-1.9812" y2="-0.889" width="0.1524" layer="51"/>
<wire x1="-1.9812" y1="-2.159" x2="-1.9812" y2="-1.651" width="0.1524" layer="51"/>
<wire x1="-1.9812" y1="-1.651" x2="-3.0988" y2="-1.651" width="0.1524" layer="51"/>
<wire x1="-3.0988" y1="-1.651" x2="-3.0988" y2="-2.159" width="0.1524" layer="51"/>
<wire x1="-3.0988" y1="-2.159" x2="-1.9812" y2="-2.159" width="0.1524" layer="51"/>
<wire x1="1.9812" y1="-1.651" x2="2.0066" y2="-2.159" width="0.1524" layer="51"/>
<wire x1="2.0066" y1="-2.159" x2="3.0988" y2="-2.159" width="0.1524" layer="51"/>
<wire x1="3.0988" y1="-2.159" x2="3.0988" y2="-1.651" width="0.1524" layer="51"/>
<wire x1="3.0988" y1="-1.651" x2="1.9812" y2="-1.651" width="0.1524" layer="51"/>
<wire x1="1.9812" y1="-0.381" x2="1.9812" y2="-0.889" width="0.1524" layer="51"/>
<wire x1="1.9812" y1="-0.889" x2="3.0988" y2="-0.889" width="0.1524" layer="51"/>
<wire x1="3.0988" y1="-0.889" x2="3.0988" y2="-0.381" width="0.1524" layer="51"/>
<wire x1="3.0988" y1="-0.381" x2="1.9812" y2="-0.381" width="0.1524" layer="51"/>
<wire x1="1.9812" y1="0.889" x2="1.9812" y2="0.381" width="0.1524" layer="51"/>
<wire x1="1.9812" y1="0.381" x2="3.0988" y2="0.381" width="0.1524" layer="51"/>
<wire x1="3.0988" y1="0.381" x2="3.0988" y2="0.889" width="0.1524" layer="51"/>
<wire x1="3.0988" y1="0.889" x2="1.9812" y2="0.889" width="0.1524" layer="51"/>
<wire x1="1.9812" y1="2.159" x2="1.9812" y2="1.651" width="0.1524" layer="51"/>
<wire x1="1.9812" y1="1.651" x2="3.0988" y2="1.651" width="0.1524" layer="51"/>
<wire x1="3.0988" y1="1.651" x2="3.0988" y2="2.159" width="0.1524" layer="51"/>
<wire x1="3.0988" y1="2.159" x2="1.9812" y2="2.159" width="0.1524" layer="51"/>
<wire x1="-1.9812" y1="-2.4892" x2="1.9812" y2="-2.4892" width="0.1524" layer="51"/>
<wire x1="1.9812" y1="-2.4892" x2="1.9812" y2="2.4892" width="0.1524" layer="51"/>
<wire x1="1.9812" y1="2.4892" x2="-0.3048" y2="2.4892" width="0.1524" layer="51"/>
<wire x1="-0.3048" y1="2.4892" x2="-1.9812" y2="2.4892" width="0.1524" layer="51"/>
<wire x1="-1.9812" y1="2.4892" x2="-1.9812" y2="-2.4892" width="0.1524" layer="51"/>
<wire x1="0.3048" y1="2.5146" x2="-0.3048" y2="2.4892" width="0.1524" layer="51" curve="-180"/>
<text x="-2.1844" y="1.1684" size="1.27" layer="51" ratio="6" rot="SR0">*</text>
<wire x1="-2.1336" y1="-2.6416" x2="2.1336" y2="-2.6416" width="0.1524" layer="21"/>
<wire x1="2.1336" y1="2.6416" x2="-2.1336" y2="2.6416" width="0.1524" layer="21"/>
<text x="-3.3528" y="2.3876" size="1.27" layer="21" ratio="6" rot="SR0">*</text>
<text x="-3.2766" y="-0.635" size="1.27" layer="25" ratio="6" rot="SR0">&gt;Name</text>
</package>
<package name="D8-L">
<smd name="1" x="-2.413" y="1.905" dx="1.6764" dy="0.508" layer="1"/>
<smd name="2" x="-2.413" y="0.635" dx="1.6764" dy="0.508" layer="1"/>
<smd name="3" x="-2.413" y="-0.635" dx="1.6764" dy="0.508" layer="1"/>
<smd name="4" x="-2.413" y="-1.905" dx="1.6764" dy="0.508" layer="1"/>
<smd name="5" x="2.413" y="-1.905" dx="1.6764" dy="0.508" layer="1"/>
<smd name="6" x="2.413" y="-0.635" dx="1.6764" dy="0.508" layer="1"/>
<smd name="7" x="2.413" y="0.635" dx="1.6764" dy="0.508" layer="1"/>
<smd name="8" x="2.413" y="1.905" dx="1.6764" dy="0.508" layer="1"/>
<wire x1="-1.9812" y1="1.651" x2="-2.0066" y2="2.159" width="0.1524" layer="51"/>
<wire x1="-2.0066" y1="2.159" x2="-3.0988" y2="2.159" width="0.1524" layer="51"/>
<wire x1="-3.0988" y1="2.159" x2="-3.0988" y2="1.651" width="0.1524" layer="51"/>
<wire x1="-3.0988" y1="1.651" x2="-1.9812" y2="1.651" width="0.1524" layer="51"/>
<wire x1="-1.9812" y1="0.381" x2="-2.0066" y2="0.889" width="0.1524" layer="51"/>
<wire x1="-2.0066" y1="0.889" x2="-3.0988" y2="0.889" width="0.1524" layer="51"/>
<wire x1="-3.0988" y1="0.889" x2="-3.0988" y2="0.381" width="0.1524" layer="51"/>
<wire x1="-3.0988" y1="0.381" x2="-1.9812" y2="0.381" width="0.1524" layer="51"/>
<wire x1="-1.9812" y1="-0.889" x2="-1.9812" y2="-0.381" width="0.1524" layer="51"/>
<wire x1="-1.9812" y1="-0.381" x2="-3.0988" y2="-0.381" width="0.1524" layer="51"/>
<wire x1="-3.0988" y1="-0.381" x2="-3.0988" y2="-0.889" width="0.1524" layer="51"/>
<wire x1="-3.0988" y1="-0.889" x2="-1.9812" y2="-0.889" width="0.1524" layer="51"/>
<wire x1="-1.9812" y1="-2.159" x2="-1.9812" y2="-1.651" width="0.1524" layer="51"/>
<wire x1="-1.9812" y1="-1.651" x2="-3.0988" y2="-1.651" width="0.1524" layer="51"/>
<wire x1="-3.0988" y1="-1.651" x2="-3.0988" y2="-2.159" width="0.1524" layer="51"/>
<wire x1="-3.0988" y1="-2.159" x2="-1.9812" y2="-2.159" width="0.1524" layer="51"/>
<wire x1="1.9812" y1="-1.651" x2="2.0066" y2="-2.159" width="0.1524" layer="51"/>
<wire x1="2.0066" y1="-2.159" x2="3.0988" y2="-2.159" width="0.1524" layer="51"/>
<wire x1="3.0988" y1="-2.159" x2="3.0988" y2="-1.651" width="0.1524" layer="51"/>
<wire x1="3.0988" y1="-1.651" x2="1.9812" y2="-1.651" width="0.1524" layer="51"/>
<wire x1="1.9812" y1="-0.381" x2="1.9812" y2="-0.889" width="0.1524" layer="51"/>
<wire x1="1.9812" y1="-0.889" x2="3.0988" y2="-0.889" width="0.1524" layer="51"/>
<wire x1="3.0988" y1="-0.889" x2="3.0988" y2="-0.381" width="0.1524" layer="51"/>
<wire x1="3.0988" y1="-0.381" x2="1.9812" y2="-0.381" width="0.1524" layer="51"/>
<wire x1="1.9812" y1="0.889" x2="1.9812" y2="0.381" width="0.1524" layer="51"/>
<wire x1="1.9812" y1="0.381" x2="3.0988" y2="0.381" width="0.1524" layer="51"/>
<wire x1="3.0988" y1="0.381" x2="3.0988" y2="0.889" width="0.1524" layer="51"/>
<wire x1="3.0988" y1="0.889" x2="1.9812" y2="0.889" width="0.1524" layer="51"/>
<wire x1="1.9812" y1="2.159" x2="1.9812" y2="1.651" width="0.1524" layer="51"/>
<wire x1="1.9812" y1="1.651" x2="3.0988" y2="1.651" width="0.1524" layer="51"/>
<wire x1="3.0988" y1="1.651" x2="3.0988" y2="2.159" width="0.1524" layer="51"/>
<wire x1="3.0988" y1="2.159" x2="1.9812" y2="2.159" width="0.1524" layer="51"/>
<wire x1="-1.9812" y1="-2.4892" x2="1.9812" y2="-2.4892" width="0.1524" layer="51"/>
<wire x1="1.9812" y1="-2.4892" x2="1.9812" y2="2.4892" width="0.1524" layer="51"/>
<wire x1="1.9812" y1="2.4892" x2="-0.3048" y2="2.4892" width="0.1524" layer="51"/>
<wire x1="-0.3048" y1="2.4892" x2="-1.9812" y2="2.4892" width="0.1524" layer="51"/>
<wire x1="-1.9812" y1="2.4892" x2="-1.9812" y2="-2.4892" width="0.1524" layer="51"/>
<wire x1="0.3048" y1="2.5146" x2="-0.3048" y2="2.4892" width="0.1524" layer="51" curve="-180"/>
<text x="-2.1844" y="1.1684" size="1.27" layer="51" ratio="6" rot="SR0">*</text>
<wire x1="-2.1336" y1="-2.6416" x2="2.1336" y2="-2.6416" width="0.1524" layer="21"/>
<wire x1="2.1336" y1="2.6416" x2="-2.1336" y2="2.6416" width="0.1524" layer="21"/>
<text x="-3.2512" y="2.286" size="1.27" layer="21" ratio="6" rot="SR0">*</text>
<text x="-3.2766" y="-0.635" size="1.27" layer="25" ratio="6" rot="SR0">&gt;Name</text>
</package>
<package name="MCP6292IDGKT">
<smd name="1" x="0.8" y="4.18" dx="1.55" dy="0.6" layer="1"/>
<smd name="2" x="0.8" y="2.91" dx="1.55" dy="0.6" layer="1"/>
<smd name="3" x="0.79" y="1.64" dx="1.55" dy="0.6" layer="1"/>
<smd name="4" x="0.79" y="0.33" dx="1.55" dy="0.6" layer="1"/>
<smd name="8" x="6.17" y="4.18" dx="1.55" dy="0.6" layer="1"/>
<smd name="7" x="6.17" y="2.91" dx="1.55" dy="0.6" layer="1"/>
<smd name="6" x="6.17" y="1.64" dx="1.55" dy="0.6" layer="1"/>
<smd name="5" x="6.19" y="0.33" dx="1.55" dy="0.6" layer="1"/>
<wire x1="1.5" y1="-0.3" x2="1.5" y2="4.7" width="0.127" layer="21"/>
<wire x1="5.5" y1="-0.3" x2="5.5" y2="4.7" width="0.127" layer="21"/>
<wire x1="1.5" y1="-0.3" x2="5.48" y2="-0.3" width="0.127" layer="21"/>
<wire x1="1.5" y1="4.7" x2="5.48" y2="4.7" width="0.127" layer="21"/>
</package>
</packages>
<symbols>
<symbol name="MAX44260AYT+T">
<pin name="IN+" x="-10.16" y="-2.54" visible="off" length="middle" direction="in"/>
<pin name="VSS" x="0" y="-10.16" visible="off" length="middle" direction="pwr" rot="R90"/>
<pin name="IN-" x="-10.16" y="2.54" visible="off" length="middle" direction="in"/>
<pin name="OUT" x="12.7" y="0" visible="off" length="middle" direction="out" rot="R180"/>
<pin name="!SHDN" x="5.08" y="7.62" visible="off" length="middle" direction="pas" rot="R270"/>
<pin name="VDD" x="0" y="10.16" visible="off" length="middle" direction="pwr" rot="R270"/>
<wire x1="-5.08" y1="7.62" x2="-5.08" y2="-7.62" width="0.1524" layer="94"/>
<text x="13.0556" y="11.6586" size="2.0828" layer="95" ratio="6" rot="SR0">&gt;Name</text>
<text x="12.4206" y="9.1186" size="2.0828" layer="96" ratio="6" rot="SR0">&gt;Value</text>
<wire x1="-2.54" y1="-3.81" x2="-2.54" y2="-1.27" width="0.254" layer="94"/>
<wire x1="-3.81" y1="-2.54" x2="-1.27" y2="-2.54" width="0.254" layer="94"/>
<wire x1="-3.81" y1="2.54" x2="-1.27" y2="2.54" width="0.254" layer="94"/>
<wire x1="-5.08" y1="-7.62" x2="7.62" y2="0" width="0.254" layer="94"/>
<wire x1="7.62" y1="0" x2="5.08" y2="1.524" width="0.254" layer="94"/>
<text x="0.508" y="6.604" size="2.0828" layer="94" ratio="6">vdd</text>
<text x="0.762" y="-8.382" size="2.0828" layer="94" ratio="6">vss</text>
<text x="5.08" y="2.54" size="2.0828" layer="94" ratio="6">!shdn</text>
<wire x1="5.08" y1="1.524" x2="0" y2="4.572" width="0.254" layer="94"/>
<wire x1="0" y1="4.572" x2="-5.08" y2="7.62" width="0.254" layer="94"/>
<wire x1="5.08" y1="2.54" x2="5.08" y2="1.524" width="0.254" layer="94"/>
<wire x1="0" y1="5.08" x2="0" y2="4.572" width="0.254" layer="94"/>
</symbol>
<symbol name="MAX44260AYT">
<pin name="IN+" x="-10.16" y="-2.54" visible="off" length="middle" direction="in"/>
<pin name="VSS" x="0" y="-10.16" visible="off" length="middle" direction="pwr" rot="R90"/>
<pin name="IN-" x="-10.16" y="2.54" visible="off" length="middle" direction="in"/>
<pin name="OUT" x="12.7" y="0" visible="off" length="middle" direction="out" rot="R180"/>
<pin name="!SHDN" x="5.08" y="7.62" visible="off" length="middle" direction="pas" rot="R270"/>
<pin name="VDD" x="0" y="10.16" visible="off" length="middle" direction="pwr" rot="R270"/>
<wire x1="-5.08" y1="7.62" x2="-5.08" y2="-7.62" width="0.1524" layer="94"/>
<text x="13.0556" y="11.6586" size="2.0828" layer="95" ratio="6" rot="SR0">&gt;Name</text>
<text x="12.4206" y="9.1186" size="2.0828" layer="96" ratio="6" rot="SR0">&gt;Value</text>
<wire x1="-2.54" y1="-3.81" x2="-2.54" y2="-1.27" width="0.254" layer="94"/>
<wire x1="-3.81" y1="-2.54" x2="-1.27" y2="-2.54" width="0.254" layer="94"/>
<wire x1="-3.81" y1="2.54" x2="-1.27" y2="2.54" width="0.254" layer="94"/>
<wire x1="-5.08" y1="-7.62" x2="7.62" y2="0" width="0.254" layer="94"/>
<wire x1="7.62" y1="0" x2="5.08" y2="1.524" width="0.254" layer="94"/>
<text x="0.508" y="6.604" size="2.0828" layer="94" ratio="6">vdd</text>
<text x="0.762" y="-8.382" size="2.0828" layer="94" ratio="6">vss</text>
<text x="5.08" y="2.54" size="2.0828" layer="94" ratio="6">!shdn</text>
<wire x1="5.08" y1="1.524" x2="0" y2="4.572" width="0.254" layer="94"/>
<wire x1="0" y1="4.572" x2="-5.08" y2="7.62" width="0.254" layer="94"/>
<wire x1="5.08" y1="2.54" x2="5.08" y2="1.524" width="0.254" layer="94"/>
<wire x1="0" y1="5.08" x2="0" y2="4.572" width="0.254" layer="94"/>
</symbol>
<symbol name="MAX44260AYT+T-1">
<wire x1="5.08" y1="2.54" x2="22.86" y2="2.54" width="0.254" layer="94"/>
<wire x1="22.86" y1="-7.62" x2="22.86" y2="2.54" width="0.254" layer="94"/>
<wire x1="22.86" y1="-7.62" x2="5.08" y2="-7.62" width="0.254" layer="94"/>
<wire x1="5.08" y1="2.54" x2="5.08" y2="-7.62" width="0.254" layer="94"/>
<text x="24.13" y="7.62" size="1.778" layer="95" align="center-left">&gt;NAME</text>
<text x="24.13" y="5.08" size="1.778" layer="96" align="center-left">&gt;VALUE</text>
<pin name="IN+" x="0" y="0" length="middle"/>
<pin name="VSS" x="0" y="-2.54" length="middle"/>
<pin name="IN-" x="0" y="-5.08" length="middle"/>
<pin name="OUT" x="27.94" y="0" length="middle" rot="R180"/>
<pin name="!SHDN" x="27.94" y="-2.54" length="middle" rot="R180"/>
<pin name="VDD" x="27.94" y="-5.08" length="middle" rot="R180"/>
</symbol>
<symbol name="MAX44263AXA+T">
<wire x1="5.08" y1="2.54" x2="22.86" y2="2.54" width="0.254" layer="94"/>
<wire x1="22.86" y1="-10.16" x2="22.86" y2="2.54" width="0.254" layer="94"/>
<wire x1="22.86" y1="-10.16" x2="5.08" y2="-10.16" width="0.254" layer="94"/>
<wire x1="5.08" y1="2.54" x2="5.08" y2="-10.16" width="0.254" layer="94"/>
<text x="24.13" y="7.62" size="1.778" layer="95" align="center-left">&gt;NAME</text>
<text x="24.13" y="5.08" size="1.778" layer="96" align="center-left">&gt;VALUE</text>
<pin name="OUTA" x="0" y="0" length="middle" direction="out"/>
<pin name="INA-" x="0" y="-2.54" length="middle" direction="in"/>
<pin name="INA+" x="0" y="-5.08" length="middle" direction="in"/>
<pin name="VSS" x="0" y="-7.62" length="middle" direction="pwr"/>
<pin name="VDD" x="27.94" y="0" length="middle" direction="pwr" rot="R180"/>
<pin name="OUTB" x="27.94" y="-2.54" length="middle" direction="out" rot="R180"/>
<pin name="INB-" x="27.94" y="-5.08" length="middle" direction="in" rot="R180"/>
<pin name="INB+" x="27.94" y="-7.62" length="middle" direction="in" rot="R180"/>
</symbol>
<symbol name="MAX44263AXA-POW">
<wire x1="0" y1="5.08" x2="5.08" y2="5.08" width="0.254" layer="94"/>
<wire x1="5.08" y1="-10.16" x2="5.08" y2="5.08" width="0.254" layer="94"/>
<wire x1="5.08" y1="-10.16" x2="0" y2="-10.16" width="0.254" layer="94"/>
<wire x1="0" y1="5.08" x2="0" y2="-10.16" width="0.254" layer="94"/>
<text x="6.35" y="7.62" size="1.778" layer="95" align="center-left">&gt;NAME</text>
<text x="6.35" y="5.08" size="1.778" layer="96" align="center-left">&gt;VALUE</text>
<pin name="VSS" x="2.54" y="-15.24" length="middle" direction="pwr" rot="R90"/>
<pin name="VDD" x="2.54" y="10.16" length="middle" direction="pwr" rot="R270"/>
</symbol>
<symbol name="MAX44263AXA-AMP1">
<wire x1="5.08" y1="2.54" x2="22.86" y2="-2.54" width="0.254" layer="94"/>
<wire x1="22.86" y1="-2.54" x2="5.08" y2="-10.16" width="0.254" layer="94"/>
<text x="24.13" y="7.62" size="1.778" layer="95" align="center-left">&gt;NAME</text>
<text x="24.13" y="5.08" size="1.778" layer="96" align="center-left">&gt;VALUE</text>
<pin name="OUTA" x="27.94" y="-2.54" visible="pad" length="middle" direction="out" rot="R180"/>
<pin name="INA-" x="0" y="0" visible="pad" length="middle" direction="in"/>
<pin name="INA+" x="0" y="-7.62" visible="pad" length="middle" direction="in"/>
<wire x1="5.08" y1="2.54" x2="5.08" y2="-10.16" width="0.254" layer="94"/>
<wire x1="6.35" y1="0" x2="8.89" y2="0" width="0.254" layer="94"/>
<wire x1="6.35" y1="-6.604" x2="8.89" y2="-6.604" width="0.254" layer="94"/>
<wire x1="7.62" y1="-7.874" x2="7.62" y2="-5.334" width="0.254" layer="94"/>
</symbol>
<symbol name="MAX44263AXA-AMP2">
<wire x1="5.08" y1="2.54" x2="22.86" y2="-2.54" width="0.254" layer="94"/>
<wire x1="22.86" y1="-2.54" x2="5.08" y2="-10.16" width="0.254" layer="94"/>
<text x="24.13" y="7.62" size="1.778" layer="95" align="center-left">&gt;NAME</text>
<text x="24.13" y="5.08" size="1.778" layer="96" align="center-left">&gt;VALUE</text>
<pin name="OUTB" x="27.94" y="-2.54" visible="pad" length="middle" direction="out" rot="R180"/>
<pin name="INB-" x="0" y="0" visible="pad" length="middle" direction="in"/>
<pin name="INB+" x="0" y="-7.62" visible="pad" length="middle" direction="in"/>
<wire x1="5.08" y1="2.54" x2="5.08" y2="-10.16" width="0.254" layer="94"/>
<wire x1="6.35" y1="0" x2="8.89" y2="0" width="0.254" layer="94"/>
<wire x1="6.35" y1="-6.604" x2="8.89" y2="-6.604" width="0.254" layer="94"/>
<wire x1="7.62" y1="-7.874" x2="7.62" y2="-5.334" width="0.254" layer="94"/>
</symbol>
<symbol name="MCP629T-E_ML">
<wire x1="2.54" y1="27.94" x2="25.4" y2="27.94" width="0.254" layer="94"/>
<wire x1="25.4" y1="-27.94" x2="25.4" y2="27.94" width="0.254" layer="94"/>
<wire x1="25.4" y1="-27.94" x2="2.54" y2="-27.94" width="0.254" layer="94"/>
<wire x1="2.54" y1="27.94" x2="2.54" y2="-27.94" width="0.254" layer="94"/>
<text x="26.67" y="25.4" size="1.778" layer="95" align="center-left">&gt;NAME</text>
<text x="26.67" y="22.86" size="1.778" layer="96" align="center-left">&gt;VALUE</text>
<pin name="VINA-" x="-2.54" y="17.78" length="middle" direction="in"/>
<pin name="VINA+" x="-2.54" y="12.7" length="middle" direction="in"/>
<pin name="VDD" x="7.62" y="33.02" length="middle" direction="pwr" rot="R270"/>
<pin name="VINB+" x="-2.54" y="2.54" length="middle" direction="in"/>
<pin name="VINB-" x="-2.54" y="7.62" length="middle" direction="in"/>
<pin name="VOUTB" x="30.48" y="7.62" length="middle" direction="out" rot="R180"/>
<pin name="CALBC/!CSBC" x="30.48" y="-22.86" length="middle" direction="in" rot="R180"/>
<pin name="VOUTC" x="30.48" y="-2.54" length="middle" direction="out" rot="R180"/>
<pin name="VIND+" x="-2.54" y="-17.78" length="middle" direction="in"/>
<pin name="VSS1" x="5.08" y="-33.02" length="middle" direction="pwr" rot="R90"/>
<pin name="VINC+" x="-2.54" y="-7.62" length="middle" direction="in"/>
<pin name="VINC-" x="-2.54" y="-2.54" length="middle" direction="in"/>
<pin name="VSS2" x="7.62" y="-33.02" length="middle" direction="pwr" rot="R90"/>
<pin name="VOUTA" x="30.48" y="17.78" length="middle" direction="out" rot="R180"/>
<pin name="CALAD/!CSAD" x="30.48" y="-25.4" length="middle" direction="in" rot="R180"/>
<pin name="VOUTD" x="30.48" y="-12.7" length="middle" direction="out" rot="R180"/>
<pin name="VIND-" x="-2.54" y="-12.7" length="middle" direction="in"/>
</symbol>
<symbol name="MCP629-E_ML-A">
<description>One of the four op amps in the package</description>
<pin name="VINA-" x="-12.7" y="7.62" visible="off" length="middle"/>
<pin name="VINA+" x="-12.7" y="2.54" visible="off" length="middle"/>
<pin name="VOUTA" x="5.08" y="5.08" visible="off" length="middle" rot="R180"/>
<wire x1="-7.62" y1="0" x2="-7.62" y2="10.16" width="0.254" layer="94"/>
<wire x1="-7.62" y1="10.16" x2="0" y2="5.08" width="0.254" layer="94"/>
<wire x1="0" y1="5.08" x2="-7.62" y2="0" width="0.254" layer="94"/>
<text x="-6.858" y="6.858" size="1.778" layer="94">-</text>
<text x="-7.112" y="1.778" size="1.778" layer="94">+</text>
<text x="-5.08" y="4.318" size="1.778" layer="94">A</text>
<text x="0" y="10.16" size="1.778" layer="94">&gt;NAME</text>
</symbol>
<symbol name="MCP629-E_ML-B">
<description>One of the four op amps in the package</description>
<wire x1="-7.62" y1="0" x2="-7.62" y2="10.16" width="0.254" layer="94"/>
<wire x1="-7.62" y1="10.16" x2="0" y2="5.08" width="0.254" layer="94"/>
<wire x1="0" y1="5.08" x2="-7.62" y2="0" width="0.254" layer="94"/>
<text x="-6.858" y="6.858" size="1.778" layer="94">-</text>
<text x="-7.112" y="1.778" size="1.778" layer="94">+</text>
<text x="-5.334" y="4.318" size="1.778" layer="94">B</text>
<pin name="VINB-" x="-12.7" y="7.62" visible="off" length="middle"/>
<pin name="VINB+" x="-12.7" y="2.54" visible="off" length="middle"/>
<pin name="VOUTB" x="5.08" y="5.08" visible="off" length="middle" rot="R180"/>
<text x="0" y="7.62" size="1.778" layer="94">&gt;NAME</text>
</symbol>
<symbol name="MCP629-E_ML-C">
<description>One of the four op amps in the package</description>
<wire x1="-7.62" y1="0" x2="-7.62" y2="10.16" width="0.254" layer="94"/>
<wire x1="-7.62" y1="10.16" x2="0" y2="5.08" width="0.254" layer="94"/>
<wire x1="0" y1="5.08" x2="-7.62" y2="0" width="0.254" layer="94"/>
<text x="-6.858" y="6.858" size="1.778" layer="94">-</text>
<text x="-7.112" y="1.778" size="1.778" layer="94">+</text>
<text x="-5.334" y="4.318" size="1.778" layer="94">C</text>
<pin name="VINC-" x="-12.7" y="7.62" visible="off" length="middle"/>
<pin name="VINC+" x="-12.7" y="2.54" visible="off" length="middle"/>
<pin name="VOUTC" x="5.08" y="5.08" visible="off" length="middle" rot="R180"/>
<text x="0" y="7.62" size="1.778" layer="94">&gt;NAME</text>
</symbol>
<symbol name="MCP629-E_ML-D">
<description>One of the four op amps in the package</description>
<wire x1="-7.62" y1="0" x2="-7.62" y2="10.16" width="0.254" layer="94"/>
<wire x1="-7.62" y1="10.16" x2="0" y2="5.08" width="0.254" layer="94"/>
<wire x1="0" y1="5.08" x2="-7.62" y2="0" width="0.254" layer="94"/>
<text x="-6.858" y="6.858" size="1.778" layer="94">-</text>
<text x="-7.112" y="1.778" size="1.778" layer="94">+</text>
<text x="-5.334" y="4.318" size="1.778" layer="94">D</text>
<pin name="VIND-" x="-12.7" y="7.62" visible="off" length="middle"/>
<pin name="VIND+" x="-12.7" y="2.54" visible="off" length="middle"/>
<pin name="VOUTD" x="5.08" y="5.08" visible="off" length="middle" rot="R180"/>
<text x="0" y="7.62" size="1.778" layer="94">&gt;NAME</text>
</symbol>
<symbol name="MCP629-E_ML-COM">
<description>Contains all the common pins for this quad op amp chip.</description>
<wire x1="-25.4" y1="17.78" x2="-2.54" y2="17.78" width="0.254" layer="94"/>
<wire x1="-2.54" y1="2.54" x2="-2.54" y2="17.78" width="0.254" layer="94"/>
<wire x1="-2.54" y1="2.54" x2="-25.4" y2="2.54" width="0.254" layer="94"/>
<wire x1="-25.4" y1="17.78" x2="-25.4" y2="2.54" width="0.254" layer="94"/>
<text x="-1.27" y="20.32" size="1.778" layer="95" align="center-left">MCP629</text>
<text x="-1.27" y="17.78" size="1.778" layer="96" align="center-left">&gt;VALUE</text>
<pin name="VDD" x="-22.86" y="22.86" length="middle" direction="pwr" rot="R270"/>
<pin name="CALBC/!CSBC" x="2.54" y="12.7" length="middle" direction="in" rot="R180"/>
<pin name="VSS1" x="-22.86" y="-2.54" length="middle" direction="pwr" rot="R90"/>
<pin name="VSS2" x="-20.32" y="-2.54" length="middle" direction="pwr" rot="R90"/>
<pin name="CALAD/!CSAD" x="2.54" y="7.62" length="middle" direction="in" rot="R180"/>
<text x="0" y="15.24" size="1.778" layer="94">&gt;NAME</text>
</symbol>
<symbol name="OPAMP_SEPARATE">
<pin name="VIN+" x="-10.16" y="-2.54" visible="off" length="middle" direction="in"/>
<pin name="VIN-" x="-10.16" y="2.54" visible="off" length="middle" direction="in"/>
<pin name="VOUT" x="12.7" y="0" visible="off" length="middle" direction="out" rot="R180"/>
<wire x1="-5.08" y1="7.62" x2="-5.08" y2="-7.62" width="0.4064" layer="94"/>
<text x="0.508" y="4.6482" size="2.0828" layer="95" ratio="10" rot="SR0">&gt;NAME</text>
<text x="0.9398" y="-6.0706" size="2.0828" layer="96" ratio="10" rot="SR0">&gt;VALUE</text>
<wire x1="-5.08" y1="-7.62" x2="7.62" y2="0" width="0.254" layer="94"/>
<wire x1="7.62" y1="0" x2="-5.08" y2="7.62" width="0.254" layer="94"/>
<wire x1="-5.08" y1="7.62" x2="-5.08" y2="-7.62" width="0.254" layer="94"/>
<wire x1="-3.81" y1="2.54" x2="-1.27" y2="2.54" width="0.254" layer="94"/>
<wire x1="-3.81" y1="-2.54" x2="-1.27" y2="-2.54" width="0.254" layer="94"/>
<wire x1="-2.54" y1="-1.27" x2="-2.54" y2="-3.81" width="0.254" layer="94"/>
</symbol>
<symbol name="PWR_SEPARATE">
<wire x1="-5.08" y1="5.08" x2="2.54" y2="5.08" width="0.254" layer="94"/>
<wire x1="2.54" y1="5.08" x2="2.54" y2="-7.62" width="0.254" layer="94"/>
<wire x1="2.54" y1="-7.62" x2="-5.08" y2="-7.62" width="0.254" layer="94"/>
<wire x1="-5.08" y1="-7.62" x2="-5.08" y2="5.08" width="0.254" layer="94"/>
<text x="0" y="-10.16" size="1.778" layer="94">&gt;VALUE</text>
<text x="0" y="5.08" size="1.778" layer="94">&gt;NAME</text>
<pin name="VSS" x="-10.16" y="-5.08" length="middle"/>
<pin name="VDD" x="-10.16" y="2.54" length="middle"/>
</symbol>
<symbol name="MCP6292-E_MS">
<wire x1="5.08" y1="2.54" x2="25.4" y2="2.54" width="0.254" layer="94"/>
<wire x1="25.4" y1="-10.16" x2="25.4" y2="2.54" width="0.254" layer="94"/>
<wire x1="25.4" y1="-10.16" x2="5.08" y2="-10.16" width="0.254" layer="94"/>
<wire x1="5.08" y1="2.54" x2="5.08" y2="-10.16" width="0.254" layer="94"/>
<text x="26.67" y="7.62" size="1.778" layer="95" align="center-left">&gt;NAME</text>
<text x="26.67" y="5.08" size="1.778" layer="96" align="center-left">&gt;VALUE</text>
<pin name="VOUTA" x="0" y="0" length="middle" direction="out"/>
<pin name="VINA-" x="0" y="-2.54" length="middle" direction="in"/>
<pin name="VINA+" x="0" y="-5.08" length="middle" direction="in"/>
<pin name="VSS" x="0" y="-7.62" length="middle" direction="pwr"/>
<pin name="VDD" x="30.48" y="0" length="middle" direction="pwr" rot="R180"/>
<pin name="VOUTB" x="30.48" y="-2.54" length="middle" direction="out" rot="R180"/>
<pin name="VINB-" x="30.48" y="-5.08" length="middle" direction="in" rot="R180"/>
<pin name="VINB+" x="30.48" y="-7.62" length="middle" direction="in" rot="R180"/>
</symbol>
<symbol name="OPA343_D_8">
<pin name="NC_2" x="5.08" y="0" visible="off" length="point" direction="pas"/>
<pin name="IN-" x="-10.16" y="2.54" visible="off" length="middle" direction="in"/>
<pin name="IN+" x="-10.16" y="-2.54" visible="off" length="middle" direction="in"/>
<pin name="V-" x="0" y="-10.16" visible="off" length="middle" direction="pwr" rot="R90"/>
<pin name="NC_3" x="0" y="0" visible="off" length="point" direction="pas" rot="R180"/>
<pin name="OUTPUT" x="12.7" y="0" visible="off" length="middle" direction="out" rot="R180"/>
<pin name="V+" x="0" y="10.16" visible="off" length="middle" direction="pwr" rot="R270"/>
<pin name="NC" x="-2.54" y="0" visible="off" length="point" direction="pas" rot="R180"/>
<text x="5.4356" y="6.5786" size="2.0828" layer="95" ratio="6" rot="SR0">&gt;Name</text>
<text x="4.8006" y="4.0386" size="2.0828" layer="96" ratio="6" rot="SR0">&gt;Value</text>
<wire x1="-5.08" y1="7.62" x2="-5.08" y2="-7.62" width="0.254" layer="94"/>
<wire x1="-5.08" y1="-7.62" x2="7.62" y2="0" width="0.254" layer="94"/>
<wire x1="7.62" y1="0" x2="-5.08" y2="7.62" width="0.254" layer="94"/>
<text x="2.54" y="10.16" size="2.0828" layer="94" ratio="6">V+</text>
<text x="2.54" y="-12.7" size="2.0828" layer="94" ratio="6">V-</text>
<text x="-12.7" y="2.54" size="2.0828" layer="94" ratio="6">-</text>
<text x="-12.7" y="-2.54" size="2.0828" layer="94" ratio="6">+</text>
<wire x1="-2.54" y1="2.54" x2="0" y2="2.54" width="0.254" layer="94"/>
<wire x1="-2.54" y1="-2.54" x2="0" y2="-2.54" width="0.254" layer="94"/>
<wire x1="-1.27" y1="-1.524" x2="-1.27" y2="-4.064" width="0.254" layer="94"/>
</symbol>
<symbol name="OPAA">
<wire x1="17.78" y1="10.16" x2="0" y2="0" width="0.254" layer="94"/>
<wire x1="0" y1="20.32" x2="17.78" y2="10.16" width="0.254" layer="94"/>
<wire x1="0" y1="20.32" x2="0" y2="0" width="0.254" layer="94"/>
<pin name="-INA" x="-5.08" y="15.24" visible="pin" length="middle"/>
<pin name="+INA" x="-5.08" y="5.08" visible="pin" length="middle"/>
<pin name="OUTA" x="22.86" y="10.16" visible="pin" length="middle" rot="R180"/>
</symbol>
<symbol name="OPAB">
<wire x1="17.78" y1="10.16" x2="0" y2="0" width="0.254" layer="94"/>
<wire x1="0" y1="20.32" x2="17.78" y2="10.16" width="0.254" layer="94"/>
<wire x1="0" y1="20.32" x2="0" y2="0" width="0.254" layer="94"/>
<pin name="-INB" x="-5.08" y="15.24" visible="pin" length="middle"/>
<pin name="+INB" x="-5.08" y="5.08" visible="pin" length="middle"/>
<pin name="OUTB" x="22.86" y="10.16" visible="pin" length="middle" rot="R180"/>
</symbol>
<symbol name="OPA_POWER">
<wire x1="0" y1="10.16" x2="0" y2="0" width="0.254" layer="94"/>
<wire x1="0" y1="0" x2="12.7" y2="0" width="0.254" layer="94"/>
<wire x1="12.7" y1="0" x2="12.7" y2="10.16" width="0.254" layer="94"/>
<wire x1="12.7" y1="10.16" x2="0" y2="10.16" width="0.254" layer="94"/>
<pin name="V+" x="-5.08" y="5.08" visible="pin" length="middle"/>
<pin name="V-" x="17.78" y="5.08" visible="pin" length="middle" rot="R180"/>
</symbol>
</symbols>
<devicesets>
<deviceset name="MAX44260AYT+T" prefix="U">
<gates>
<gate name="A" symbol="MAX44260AYT+T" x="0" y="0"/>
</gates>
<devices>
<device name="" package="21-0190D">
<connects>
<connect gate="A" pin="!SHDN" pad="5"/>
<connect gate="A" pin="IN+" pad="1"/>
<connect gate="A" pin="IN-" pad="3"/>
<connect gate="A" pin="OUT" pad="4"/>
<connect gate="A" pin="VDD" pad="6"/>
<connect gate="A" pin="VSS" pad="2"/>
</connects>
<technologies>
<technology name="">
<attribute name="MANUFACTURER_PART_NUMBER" value="MAX44260AYT+T" constant="no"/>
<attribute name="VENDOR" value="Maxim Integrated Products" constant="no"/>
</technology>
</technologies>
</device>
<device name="21-0190D-M" package="21-0190D-M">
<connects>
<connect gate="A" pin="!SHDN" pad="5"/>
<connect gate="A" pin="IN+" pad="1"/>
<connect gate="A" pin="IN-" pad="3"/>
<connect gate="A" pin="OUT" pad="4"/>
<connect gate="A" pin="VDD" pad="6"/>
<connect gate="A" pin="VSS" pad="2"/>
</connects>
<technologies>
<technology name="">
<attribute name="MANUFACTURER_PART_NUMBER" value="MAX44260AYT+T" constant="no"/>
<attribute name="VENDOR" value="Maxim Integrated Products" constant="no"/>
</technology>
</technologies>
</device>
<device name="21-0190D-L" package="21-0190D-L">
<connects>
<connect gate="A" pin="!SHDN" pad="5"/>
<connect gate="A" pin="IN+" pad="1"/>
<connect gate="A" pin="IN-" pad="3"/>
<connect gate="A" pin="OUT" pad="4"/>
<connect gate="A" pin="VDD" pad="6"/>
<connect gate="A" pin="VSS" pad="2"/>
</connects>
<technologies>
<technology name="">
<attribute name="MANUFACTURER_PART_NUMBER" value="MAX44260AYT+T" constant="no"/>
<attribute name="VENDOR" value="Maxim Integrated Products" constant="no"/>
</technology>
</technologies>
</device>
</devices>
</deviceset>
<deviceset name="MAX44260AYT">
<gates>
<gate name="G$1" symbol="MAX44260AYT" x="15.24" y="-7.62"/>
</gates>
<devices>
<device name="" package="MAX44260AYTT">
<connects>
<connect gate="G$1" pin="!SHDN" pad="5"/>
<connect gate="G$1" pin="IN+" pad="1"/>
<connect gate="G$1" pin="IN-" pad="3"/>
<connect gate="G$1" pin="OUT" pad="4"/>
<connect gate="G$1" pin="VDD" pad="6"/>
<connect gate="G$1" pin="VSS" pad="2"/>
</connects>
<technologies>
<technology name=""/>
</technologies>
</device>
</devices>
</deviceset>
<deviceset name="MAX44260AYT+T-" prefix="IC">
<description>&lt;b&gt;Operational Amplifiers - Op Amps 1.8V, 15MHz Low-Offset, Low-Power, Rail-to-Rail&lt;/b&gt;&lt;p&gt;
Source: &lt;a href="https://datasheets.maximintegrated.com/en/ds/MAX44259-MAX44263.pdf"&gt; Datasheet &lt;/a&gt;</description>
<gates>
<gate name="G$1" symbol="MAX44260AYT+T-1" x="0" y="0"/>
</gates>
<devices>
<device name="" package="MAX44260AYTT">
<connects>
<connect gate="G$1" pin="!SHDN" pad="5"/>
<connect gate="G$1" pin="IN+" pad="1"/>
<connect gate="G$1" pin="IN-" pad="3"/>
<connect gate="G$1" pin="OUT" pad="4"/>
<connect gate="G$1" pin="VDD" pad="6"/>
<connect gate="G$1" pin="VSS" pad="2"/>
</connects>
<technologies>
<technology name="">
<attribute name="DESCRIPTION" value="Operational Amplifiers - Op Amps 1.8V, 15MHz Low-Offset, Low-Power, Rail-to-Rail" constant="no"/>
<attribute name="HEIGHT" value="0.55mm" constant="no"/>
<attribute name="MANUFACTURER_NAME" value="Maxim Integrated" constant="no"/>
<attribute name="MANUFACTURER_PART_NUMBER" value="MAX44260AYT+T" constant="no"/>
<attribute name="MOUSER_PART_NUMBER" value="700-MAX44260AYT+T" constant="no"/>
<attribute name="MOUSER_PRICE-STOCK" value="https://www.mouser.co.uk/ProductDetail/Maxim-Integrated/MAX44260AYT%2bT?qs=3sBZtWOgbifIk%252BsGPssMWg%3D%3D" constant="no"/>
<attribute name="RS_PART_NUMBER" value="1904342" constant="no"/>
<attribute name="RS_PRICE-STOCK" value="http://uk.rs-online.com/web/p/products/1904342" constant="no"/>
</technology>
</technologies>
</device>
</devices>
</deviceset>
<deviceset name="MAX44263AXA+T" prefix="IC">
<description>&lt;b&gt;Operational Amplifiers - Op Amps MAX44263AXA+T&lt;/b&gt;&lt;p&gt;
Source: &lt;a href="http://datasheets.maximintegrated.com/en/ds/MAX44259-MAX44263.pdf"&gt; Datasheet &lt;/a&gt;</description>
<gates>
<gate name="G$1" symbol="MAX44263AXA+T" x="0" y="0"/>
</gates>
<devices>
<device name="" package="SOP50P210X110-8N">
<connects>
<connect gate="G$1" pin="INA+" pad="3"/>
<connect gate="G$1" pin="INA-" pad="2"/>
<connect gate="G$1" pin="INB+" pad="5"/>
<connect gate="G$1" pin="INB-" pad="6"/>
<connect gate="G$1" pin="OUTA" pad="1"/>
<connect gate="G$1" pin="OUTB" pad="7"/>
<connect gate="G$1" pin="VDD" pad="8"/>
<connect gate="G$1" pin="VSS" pad="4"/>
</connects>
<technologies>
<technology name="">
<attribute name="DESCRIPTION" value="Operational Amplifiers - Op Amps MAX44263AXA+T" constant="no"/>
<attribute name="HEIGHT" value="1.1mm" constant="no"/>
<attribute name="MANUFACTURER_NAME" value="Maxim Integrated" constant="no"/>
<attribute name="MANUFACTURER_PART_NUMBER" value="MAX44263AXA+T" constant="no"/>
<attribute name="MOUSER_PART_NUMBER" value="700-MAX44263AXA+T" constant="no"/>
<attribute name="MOUSER_PRICE-STOCK" value="https://www.mouser.co.uk/ProductDetail/Maxim-Integrated/MAX44263AXA%2bT?qs=cGzGxPGNmH2ntOyeyIWP%2FQ%3D%3D" constant="no"/>
<attribute name="RS_PART_NUMBER" value="" constant="no"/>
<attribute name="RS_PRICE-STOCK" value="" constant="no"/>
</technology>
</technologies>
</device>
</devices>
</deviceset>
<deviceset name="MAX44263AXA-SEPARATE">
<gates>
<gate name="G$1" symbol="MAX44263AXA-POW" x="-17.78" y="10.16"/>
<gate name="G$2" symbol="MAX44263AXA-AMP1" x="10.16" y="22.86"/>
<gate name="G$3" symbol="MAX44263AXA-AMP2" x="10.16" y="0"/>
</gates>
<devices>
<device name="" package="SOP50P210X110-8N">
<connects>
<connect gate="G$1" pin="VDD" pad="8"/>
<connect gate="G$1" pin="VSS" pad="4"/>
<connect gate="G$2" pin="INA+" pad="3"/>
<connect gate="G$2" pin="INA-" pad="2"/>
<connect gate="G$2" pin="OUTA" pad="1"/>
<connect gate="G$3" pin="INB+" pad="5"/>
<connect gate="G$3" pin="INB-" pad="6"/>
<connect gate="G$3" pin="OUTB" pad="7"/>
</connects>
<technologies>
<technology name=""/>
</technologies>
</device>
</devices>
</deviceset>
<deviceset name="MCP629T-E_ML" prefix="IC">
<description>&lt;b&gt;Operational Amplifiers - Op Amps Quad 20MHz OP Dual mCal E temp (QFN-16)&lt;/b&gt;&lt;p&gt;
Source: &lt;a href="https://componentsearchengine.com/Datasheets/1/MCP629T-E_ML.pdf"&gt; Datasheet &lt;/a&gt;</description>
<gates>
<gate name="G$1" symbol="MCP629T-E_ML" x="0" y="0"/>
</gates>
<devices>
<device name="" package="QFN65P400X400X100-17N">
<connects>
<connect gate="G$1" pin="CALAD/!CSAD" pad="15"/>
<connect gate="G$1" pin="CALBC/!CSBC" pad="7"/>
<connect gate="G$1" pin="VDD" pad="3"/>
<connect gate="G$1" pin="VINA+" pad="2"/>
<connect gate="G$1" pin="VINA-" pad="1"/>
<connect gate="G$1" pin="VINB+" pad="4"/>
<connect gate="G$1" pin="VINB-" pad="5"/>
<connect gate="G$1" pin="VINC+" pad="10"/>
<connect gate="G$1" pin="VINC-" pad="9"/>
<connect gate="G$1" pin="VIND+" pad="12"/>
<connect gate="G$1" pin="VIND-" pad="13"/>
<connect gate="G$1" pin="VOUTA" pad="16"/>
<connect gate="G$1" pin="VOUTB" pad="6"/>
<connect gate="G$1" pin="VOUTC" pad="8"/>
<connect gate="G$1" pin="VOUTD" pad="14"/>
<connect gate="G$1" pin="VSS1" pad="11"/>
<connect gate="G$1" pin="VSS2" pad="17"/>
</connects>
<technologies>
<technology name="">
<attribute name="ARROW_PART_NUMBER" value="MCP629T-E/ML" constant="no"/>
<attribute name="ARROW_PRICE/STOCK" value="" constant="no"/>
<attribute name="DESCRIPTION" value="Operational Amplifiers - Op Amps Quad 20MHz OP Dual mCal E temp (QFN-16)" constant="no"/>
<attribute name="HEIGHT" value="1mm" constant="no"/>
<attribute name="MANUFACTURER_NAME" value="Microchip" constant="no"/>
<attribute name="MANUFACTURER_PART_NUMBER" value="MCP629T-E/ML" constant="no"/>
<attribute name="RS_PART_NUMBER" value="" constant="no"/>
<attribute name="RS_PRICE/STOCK" value="" constant="no"/>
</technology>
</technologies>
</device>
</devices>
</deviceset>
<deviceset name="MCP629T-E_ML-SEPARATE" prefix="IC">
<description>&lt;b&gt;Operational Amplifiers - Op Amps Quad 20MHz OP Dual mCal E temp (QFN-16)&lt;/b&gt;&lt;p&gt;
Source: &lt;a href="https://componentsearchengine.com/Datasheets/1/MCP629T-E_ML.pdf"&gt; Datasheet &lt;/a&gt;</description>
<gates>
<gate name="A" symbol="MCP629-E_ML-A" x="-12.7" y="43.18"/>
<gate name="B" symbol="MCP629-E_ML-B" x="10.16" y="43.18"/>
<gate name="C" symbol="MCP629-E_ML-C" x="33.02" y="43.18"/>
<gate name="D" symbol="MCP629-E_ML-D" x="55.88" y="43.18"/>
<gate name="E" symbol="MCP629-E_ML-COM" x="22.86" y="15.24"/>
</gates>
<devices>
<device name="" package="QFN65P400X400X100-17N">
<connects>
<connect gate="A" pin="VINA+" pad="2"/>
<connect gate="A" pin="VINA-" pad="1"/>
<connect gate="A" pin="VOUTA" pad="16"/>
<connect gate="B" pin="VINB+" pad="4"/>
<connect gate="B" pin="VINB-" pad="5"/>
<connect gate="B" pin="VOUTB" pad="6"/>
<connect gate="C" pin="VINC+" pad="10"/>
<connect gate="C" pin="VINC-" pad="9"/>
<connect gate="C" pin="VOUTC" pad="8"/>
<connect gate="D" pin="VIND+" pad="12"/>
<connect gate="D" pin="VIND-" pad="13"/>
<connect gate="D" pin="VOUTD" pad="14"/>
<connect gate="E" pin="CALAD/!CSAD" pad="15"/>
<connect gate="E" pin="CALBC/!CSBC" pad="7"/>
<connect gate="E" pin="VDD" pad="3"/>
<connect gate="E" pin="VSS1" pad="11"/>
<connect gate="E" pin="VSS2" pad="17"/>
</connects>
<technologies>
<technology name="">
<attribute name="ARROW_PART_NUMBER" value="MCP629T-E/ML" constant="no"/>
<attribute name="ARROW_PRICE/STOCK" value="" constant="no"/>
<attribute name="DESCRIPTION" value="Operational Amplifiers - Op Amps Quad 20MHz OP Dual mCal E temp (QFN-16)" constant="no"/>
<attribute name="HEIGHT" value="1mm" constant="no"/>
<attribute name="MANUFACTURER_NAME" value="Microchip" constant="no"/>
<attribute name="MANUFACTURER_PART_NUMBER" value="MCP629T-E/ML" constant="no"/>
<attribute name="RS_PART_NUMBER" value="" constant="no"/>
<attribute name="RS_PRICE/STOCK" value="" constant="no"/>
</technology>
</technologies>
</device>
</devices>
</deviceset>
<deviceset name="MCP6292-E/MS-SEPARATE">
<gates>
<gate name="A" symbol="OPAMP_SEPARATE" x="-99.06" y="25.4"/>
<gate name="B" symbol="OPAMP_SEPARATE" x="-99.06" y="2.54"/>
<gate name="C" symbol="PWR_SEPARATE" x="-5.08" y="20.32"/>
</gates>
<devices>
<device name="" package="SOP65P490X110-8N">
<connects>
<connect gate="A" pin="VIN+" pad="3"/>
<connect gate="A" pin="VIN-" pad="2"/>
<connect gate="A" pin="VOUT" pad="1"/>
<connect gate="B" pin="VIN+" pad="5"/>
<connect gate="B" pin="VIN-" pad="6"/>
<connect gate="B" pin="VOUT" pad="7"/>
<connect gate="C" pin="VDD" pad="8"/>
<connect gate="C" pin="VSS" pad="4"/>
</connects>
<technologies>
<technology name=""/>
</technologies>
</device>
</devices>
</deviceset>
<deviceset name="MCP6292-E_MS" prefix="IC">
<description>&lt;b&gt;Dual 10MHz OpAmp,MCP6292-E/MS&lt;/b&gt;&lt;p&gt;
Source: &lt;a href="http://docs-europe.electrocomponents.com/webdocs/1381/0900766b813813f3.pdf"&gt; Datasheet &lt;/a&gt;</description>
<gates>
<gate name="G$1" symbol="MCP6292-E_MS" x="0" y="0"/>
</gates>
<devices>
<device name="" package="SOP65P490X110-8N">
<connects>
<connect gate="G$1" pin="VDD" pad="8"/>
<connect gate="G$1" pin="VINA+" pad="3"/>
<connect gate="G$1" pin="VINA-" pad="2"/>
<connect gate="G$1" pin="VINB+" pad="5"/>
<connect gate="G$1" pin="VINB-" pad="6"/>
<connect gate="G$1" pin="VOUTA" pad="1"/>
<connect gate="G$1" pin="VOUTB" pad="7"/>
<connect gate="G$1" pin="VSS" pad="4"/>
</connects>
<technologies>
<technology name="">
<attribute name="ALLIED_NUMBER" value="70414242" constant="no"/>
<attribute name="ALLIED_PRICE/STOCK" value="http://www.alliedelec.com/microchip-technology-inc-mcp6292-e-ms/70414242/" constant="no"/>
<attribute name="ARROW_PART_NUMBER" value="MCP6292-E/MS" constant="no"/>
<attribute name="ARROW_PRICE/STOCK" value="https://www.arrow.com/en/products/mcp6292-ems/microchip-technology" constant="no"/>
<attribute name="DESCRIPTION" value="Dual 10MHz OpAmp,MCP6292-E/MS" constant="no"/>
<attribute name="HEIGHT" value="1.1mm" constant="no"/>
<attribute name="MANUFACTURER_NAME" value="Microchip" constant="no"/>
<attribute name="MANUFACTURER_PART_NUMBER" value="MCP6292-E/MS" constant="no"/>
<attribute name="RS_PART_NUMBER" value="1654790" constant="no"/>
<attribute name="RS_PRICE/STOCK" value="http://uk.rs-online.com/web/p/products/1654790" constant="no"/>
</technology>
</technologies>
</device>
</devices>
</deviceset>
<deviceset name="OPA343UA/2K5" prefix="U">
<gates>
<gate name="A" symbol="OPA343_D_8" x="0" y="0"/>
</gates>
<devices>
<device name="" package="D8">
<connects>
<connect gate="A" pin="IN+" pad="3"/>
<connect gate="A" pin="IN-" pad="2"/>
<connect gate="A" pin="NC" pad="8"/>
<connect gate="A" pin="NC_2" pad="1"/>
<connect gate="A" pin="NC_3" pad="5"/>
<connect gate="A" pin="OUTPUT" pad="6"/>
<connect gate="A" pin="V+" pad="7"/>
<connect gate="A" pin="V-" pad="4"/>
</connects>
<technologies>
<technology name="">
<attribute name="MANUFACTURER_PART_NUMBER" value="OPA343UA2K5" constant="no"/>
<attribute name="VENDOR" value="Texas Instruments" constant="no"/>
</technology>
</technologies>
</device>
<device name="D8-M" package="D8-M">
<connects>
<connect gate="A" pin="IN+" pad="3"/>
<connect gate="A" pin="IN-" pad="2"/>
<connect gate="A" pin="NC" pad="8"/>
<connect gate="A" pin="NC_2" pad="1"/>
<connect gate="A" pin="NC_3" pad="5"/>
<connect gate="A" pin="OUTPUT" pad="6"/>
<connect gate="A" pin="V+" pad="7"/>
<connect gate="A" pin="V-" pad="4"/>
</connects>
<technologies>
<technology name="">
<attribute name="MANUFACTURER_PART_NUMBER" value="OPA343UA2K5" constant="no"/>
<attribute name="VENDOR" value="Texas Instruments" constant="no"/>
</technology>
</technologies>
</device>
<device name="D8-L" package="D8-L">
<connects>
<connect gate="A" pin="IN+" pad="3"/>
<connect gate="A" pin="IN-" pad="2"/>
<connect gate="A" pin="NC" pad="8"/>
<connect gate="A" pin="NC_2" pad="1"/>
<connect gate="A" pin="NC_3" pad="5"/>
<connect gate="A" pin="OUTPUT" pad="6"/>
<connect gate="A" pin="V+" pad="7"/>
<connect gate="A" pin="V-" pad="4"/>
</connects>
<technologies>
<technology name="">
<attribute name="MANUFACTURER_PART_NUMBER" value="OPA343UA2K5" constant="no"/>
<attribute name="VENDOR" value="Texas Instruments" constant="no"/>
</technology>
</technologies>
</device>
</devices>
</deviceset>
<deviceset name="MCP6292IDGKT">
<gates>
<gate name="G$1" symbol="OPAA" x="0" y="7.62"/>
<gate name="G$2" symbol="OPAB" x="0" y="-20.32"/>
<gate name="G$3" symbol="OPA_POWER" x="40.64" y="-2.54"/>
</gates>
<devices>
<device name="" package="MCP6292IDGKT">
<connects>
<connect gate="G$1" pin="+INA" pad="3"/>
<connect gate="G$1" pin="-INA" pad="2"/>
<connect gate="G$1" pin="OUTA" pad="1"/>
<connect gate="G$2" pin="+INB" pad="5"/>
<connect gate="G$2" pin="-INB" pad="6"/>
<connect gate="G$2" pin="OUTB" pad="7"/>
<connect gate="G$3" pin="V+" pad="8"/>
<connect gate="G$3" pin="V-" pad="4"/>
</connects>
<technologies>
<technology name=""/>
</technologies>
</device>
</devices>
</deviceset>
</devicesets>
</library>
</drawing>
</eagle>
