<?xml version="1.0" encoding="utf-8"?>
<!DOCTYPE eagle SYSTEM "eagle.dtd">
<eagle version="9.4.2">
<drawing>
<settings>
<setting alwaysvectorfont="no"/>
<setting verticaltext="up"/>
</settings>
<grid distance="0.1" unitdist="inch" unit="inch" style="lines" multiple="1" display="no" altdistance="0.01" altunitdist="inch" altunit="inch"/>
<layers>
<layer number="1" name="Top" color="4" fill="1" visible="yes" active="yes"/>
<layer number="2" name="Route2" color="16" fill="1" visible="no" active="yes"/>
<layer number="3" name="Route3" color="17" fill="1" visible="no" active="yes"/>
<layer number="4" name="Route4" color="18" fill="1" visible="no" active="yes"/>
<layer number="5" name="Route5" color="19" fill="1" visible="no" active="yes"/>
<layer number="6" name="Route6" color="25" fill="1" visible="no" active="yes"/>
<layer number="7" name="Route7" color="26" fill="1" visible="no" active="yes"/>
<layer number="8" name="Route8" color="27" fill="1" visible="no" active="yes"/>
<layer number="9" name="Route9" color="28" fill="1" visible="no" active="yes"/>
<layer number="10" name="Route10" color="29" fill="1" visible="no" active="yes"/>
<layer number="11" name="Route11" color="30" fill="1" visible="no" active="yes"/>
<layer number="12" name="Route12" color="20" fill="1" visible="no" active="yes"/>
<layer number="13" name="Route13" color="21" fill="1" visible="no" active="yes"/>
<layer number="14" name="Route14" color="22" fill="1" visible="no" active="yes"/>
<layer number="15" name="Route15" color="23" fill="1" visible="no" active="yes"/>
<layer number="16" name="Bottom" color="1" fill="1" visible="yes" active="yes"/>
<layer number="17" name="Pads" color="2" fill="1" visible="yes" active="yes"/>
<layer number="18" name="Vias" color="2" fill="1" visible="yes" active="yes"/>
<layer number="19" name="Unrouted" color="6" fill="1" visible="yes" active="yes"/>
<layer number="20" name="Dimension" color="24" fill="1" visible="yes" active="yes"/>
<layer number="21" name="tPlace" color="7" fill="1" visible="yes" active="yes"/>
<layer number="22" name="bPlace" color="7" fill="1" visible="yes" active="yes"/>
<layer number="23" name="tOrigins" color="15" fill="1" visible="yes" active="yes"/>
<layer number="24" name="bOrigins" color="15" fill="1" visible="yes" active="yes"/>
<layer number="25" name="tNames" color="7" fill="1" visible="yes" active="yes"/>
<layer number="26" name="bNames" color="7" fill="1" visible="yes" active="yes"/>
<layer number="27" name="tValues" color="7" fill="1" visible="yes" active="yes"/>
<layer number="28" name="bValues" color="7" fill="1" visible="yes" active="yes"/>
<layer number="29" name="tStop" color="7" fill="3" visible="no" active="yes"/>
<layer number="30" name="bStop" color="7" fill="6" visible="no" active="yes"/>
<layer number="31" name="tCream" color="7" fill="4" visible="no" active="yes"/>
<layer number="32" name="bCream" color="7" fill="5" visible="no" active="yes"/>
<layer number="33" name="tFinish" color="6" fill="3" visible="no" active="yes"/>
<layer number="34" name="bFinish" color="6" fill="6" visible="no" active="yes"/>
<layer number="35" name="tGlue" color="7" fill="4" visible="no" active="yes"/>
<layer number="36" name="bGlue" color="7" fill="5" visible="no" active="yes"/>
<layer number="37" name="tTest" color="7" fill="1" visible="no" active="yes"/>
<layer number="38" name="bTest" color="7" fill="1" visible="no" active="yes"/>
<layer number="39" name="tKeepout" color="4" fill="11" visible="yes" active="yes"/>
<layer number="40" name="bKeepout" color="1" fill="11" visible="yes" active="yes"/>
<layer number="41" name="tRestrict" color="4" fill="10" visible="yes" active="yes"/>
<layer number="42" name="bRestrict" color="1" fill="10" visible="yes" active="yes"/>
<layer number="43" name="vRestrict" color="2" fill="10" visible="yes" active="yes"/>
<layer number="44" name="Drills" color="7" fill="1" visible="no" active="yes"/>
<layer number="45" name="Holes" color="7" fill="1" visible="no" active="yes"/>
<layer number="46" name="Milling" color="3" fill="1" visible="no" active="yes"/>
<layer number="47" name="Measures" color="7" fill="1" visible="no" active="yes"/>
<layer number="48" name="Document" color="7" fill="1" visible="yes" active="yes"/>
<layer number="49" name="Reference" color="7" fill="1" visible="yes" active="yes"/>
<layer number="50" name="dxf" color="7" fill="1" visible="no" active="no"/>
<layer number="51" name="tDocu" color="7" fill="1" visible="yes" active="yes"/>
<layer number="52" name="bDocu" color="7" fill="1" visible="yes" active="yes"/>
<layer number="53" name="tGND_GNDA" color="7" fill="9" visible="no" active="no"/>
<layer number="54" name="bGND_GNDA" color="1" fill="9" visible="no" active="no"/>
<layer number="56" name="wert" color="7" fill="1" visible="no" active="no"/>
<layer number="88" name="SimResults" color="9" fill="1" visible="yes" active="yes"/>
<layer number="89" name="SimProbes" color="9" fill="1" visible="yes" active="yes"/>
<layer number="90" name="Modules" color="5" fill="1" visible="yes" active="yes"/>
<layer number="91" name="Nets" color="2" fill="1" visible="yes" active="yes"/>
<layer number="92" name="Busses" color="1" fill="1" visible="yes" active="yes"/>
<layer number="93" name="Pins" color="2" fill="1" visible="no" active="yes"/>
<layer number="94" name="Symbols" color="4" fill="1" visible="yes" active="yes"/>
<layer number="95" name="Names" color="7" fill="1" visible="yes" active="yes"/>
<layer number="96" name="Values" color="7" fill="1" visible="yes" active="yes"/>
<layer number="97" name="Info" color="7" fill="1" visible="yes" active="yes"/>
<layer number="98" name="Guide" color="6" fill="1" visible="yes" active="yes"/>
<layer number="100" name="Muster" color="7" fill="1" visible="no" active="no"/>
<layer number="101" name="Patch_Top" color="12" fill="4" visible="yes" active="yes"/>
<layer number="102" name="Vscore" color="7" fill="1" visible="yes" active="yes"/>
<layer number="104" name="Name" color="7" fill="1" visible="yes" active="yes"/>
<layer number="116" name="Patch_BOT" color="9" fill="4" visible="yes" active="yes"/>
<layer number="121" name="_tsilk" color="7" fill="1" visible="yes" active="yes"/>
<layer number="122" name="_bsilk" color="7" fill="1" visible="yes" active="yes"/>
<layer number="151" name="HeatSink" color="7" fill="1" visible="yes" active="yes"/>
<layer number="200" name="200bmp" color="1" fill="10" visible="yes" active="yes"/>
<layer number="201" name="201bmp" color="2" fill="10" visible="yes" active="yes"/>
<layer number="202" name="202bmp" color="3" fill="10" visible="yes" active="yes"/>
<layer number="203" name="203bmp" color="4" fill="10" visible="yes" active="yes"/>
<layer number="204" name="204bmp" color="5" fill="10" visible="yes" active="yes"/>
<layer number="205" name="205bmp" color="6" fill="10" visible="yes" active="yes"/>
<layer number="206" name="206bmp" color="7" fill="10" visible="yes" active="yes"/>
<layer number="207" name="207bmp" color="8" fill="10" visible="yes" active="yes"/>
<layer number="208" name="208bmp" color="9" fill="10" visible="yes" active="yes"/>
<layer number="250" name="Descript" color="3" fill="1" visible="no" active="no"/>
<layer number="251" name="SMDround" color="12" fill="11" visible="no" active="no"/>
<layer number="254" name="cooling" color="7" fill="1" visible="yes" active="yes"/>
</layers>
<library>
<packages>
<package name="ZX62M-B-5P(30)">
<description>&lt;b&gt;ZX62M-B-5P(30)&lt;/b&gt;&lt;br&gt;
</description>
<smd name="1" x="1.3" y="-0.075" dx="1.35" dy="0.4" layer="1" rot="R90"/>
<smd name="2" x="0.65" y="-0.075" dx="1.35" dy="0.4" layer="1" rot="R90"/>
<smd name="3" x="0" y="-0.075" dx="1.35" dy="0.4" layer="1" rot="R90"/>
<smd name="4" x="-0.65" y="-0.075" dx="1.35" dy="0.4" layer="1" rot="R90"/>
<smd name="5" x="-1.3" y="-0.075" dx="1.35" dy="0.4" layer="1" rot="R90"/>
<smd name="6" x="-3.3" y="-0.4" dx="2.1" dy="2" layer="1"/>
<smd name="7" x="3.3" y="-0.4" dx="2.1" dy="2" layer="1"/>
<smd name="8" x="-4.1" y="-2.75" dx="1.9" dy="1.6" layer="1" rot="R90"/>
<smd name="9" x="4.1" y="-2.75" dx="1.9" dy="1.6" layer="1" rot="R90"/>
<smd name="10" x="-0.85" y="-2.75" dx="1.9" dy="1.2" layer="1" rot="R90"/>
<smd name="11" x="0.85" y="-2.75" dx="1.9" dy="1.2" layer="1" rot="R90"/>
<text x="-0.354" y="-1.225" size="1.27" layer="25" align="center">&gt;NAME</text>
<text x="-0.354" y="-1.225" size="1.27" layer="27" align="center">&gt;VALUE</text>
<wire x1="-3.75" y1="0" x2="3.75" y2="0" width="0.2" layer="51"/>
<wire x1="3.75" y1="0" x2="3.75" y2="-5" width="0.2" layer="51"/>
<wire x1="3.75" y1="-5" x2="-3.75" y2="-5" width="0.2" layer="51"/>
<wire x1="-3.75" y1="-5" x2="-3.75" y2="0" width="0.2" layer="51"/>
<wire x1="-3.75" y1="-5" x2="3.75" y2="-5" width="0.2" layer="21"/>
<circle x="1.251" y="0.871" radius="0.050640625" width="0.2" layer="25"/>
<wire x1="-3.75" y1="-5" x2="-3.75" y2="-4.054" width="0.2" layer="21"/>
<wire x1="3.75" y1="-5" x2="3.75" y2="-4.054" width="0.2" layer="21"/>
</package>
<package name="ZX62-B-5PA(33)">
<description>&lt;b&gt;ZX62-B-5PA(33)&lt;/b&gt;&lt;br&gt;
</description>
<smd name="1" x="-5.05" y="6.327" dx="1.35" dy="0.4" layer="1" rot="R90"/>
<smd name="2" x="-4.4" y="6.327" dx="1.35" dy="0.4" layer="1" rot="R90"/>
<smd name="3" x="-3.75" y="6.327" dx="1.35" dy="0.4" layer="1" rot="R90"/>
<smd name="4" x="-3.1" y="6.327" dx="1.35" dy="0.4" layer="1" rot="R90"/>
<smd name="5" x="-2.45" y="6.327" dx="1.35" dy="0.4" layer="1" rot="R90"/>
<smd name="6" x="-6.85" y="6.177" dx="2.1" dy="1.6" layer="1"/>
<smd name="7" x="-0.65" y="6.177" dx="2.1" dy="1.6" layer="1"/>
<smd name="8" x="-4.9" y="2.75" dx="1.9" dy="1.8" layer="1"/>
<smd name="9" x="-2.6" y="2.75" dx="1.9" dy="1.8" layer="1"/>
<smd name="10" x="-7.75" y="2.75" dx="1.9" dy="1.8" layer="1"/>
<smd name="11" x="0.25" y="2.75" dx="1.9" dy="1.8" layer="1"/>
<text x="-4.077" y="5.231" size="1.27" layer="25" align="center">&gt;NAME</text>
<text x="-4.077" y="5.231" size="1.27" layer="27" align="center">&gt;VALUE</text>
<wire x1="-7.5" y1="5.6" x2="0" y2="5.6" width="0.254" layer="51"/>
<wire x1="0" y1="5.6" x2="0" y2="0" width="0.254" layer="51"/>
<wire x1="0" y1="0" x2="-7.5" y2="0" width="0.254" layer="51"/>
<wire x1="-7.5" y1="0" x2="-7.5" y2="5.6" width="0.254" layer="51"/>
<wire x1="-7.5" y1="0" x2="0" y2="0" width="0.254" layer="21"/>
<wire x1="0" y1="0" x2="0" y2="1.444" width="0.254" layer="21"/>
<wire x1="-7.5" y1="0" x2="-7.5" y2="1.422" width="0.254" layer="21"/>
<wire x1="-7.5" y1="5.112" x2="-7.5" y2="3.978" width="0.254" layer="21"/>
<wire x1="0" y1="4.995" x2="0" y2="3.861" width="0.254" layer="21"/>
<circle x="-5.278" y="7.424" radius="0.1194" width="0.254" layer="25"/>
</package>
</packages>
<symbols>
<symbol name="ZX62M-B-5P(30)">
<wire x1="5.08" y1="2.54" x2="15.24" y2="2.54" width="0.254" layer="94"/>
<wire x1="15.24" y1="-7.62" x2="15.24" y2="2.54" width="0.254" layer="94"/>
<wire x1="15.24" y1="-7.62" x2="5.08" y2="-7.62" width="0.254" layer="94"/>
<wire x1="5.08" y1="2.54" x2="5.08" y2="-7.62" width="0.254" layer="94"/>
<text x="16.51" y="7.62" size="1.778" layer="95" align="center-left">&gt;NAME</text>
<text x="16.51" y="5.08" size="1.778" layer="96" align="center-left">&gt;VALUE</text>
<pin name="1" x="0" y="0" length="middle"/>
<pin name="3" x="0" y="-2.54" length="middle"/>
<pin name="5" x="0" y="-5.08" length="middle"/>
<pin name="2" x="20.32" y="0" length="middle" rot="R180"/>
<pin name="4" x="20.32" y="-2.54" length="middle" rot="R180"/>
</symbol>
<symbol name="MINI-USB">
<wire x1="-2.54" y1="6.35" x2="-2.54" y2="-6.35" width="0.254" layer="94"/>
<wire x1="-2.54" y1="-6.35" x2="-1.27" y2="-7.62" width="0.254" layer="94" curve="90"/>
<wire x1="-1.27" y1="-7.62" x2="0" y2="-7.62" width="0.254" layer="94"/>
<wire x1="0" y1="-7.62" x2="1.016" y2="-8.128" width="0.254" layer="94" curve="-53.130102"/>
<wire x1="1.016" y1="-8.128" x2="2.54" y2="-8.89" width="0.254" layer="94" curve="53.130102"/>
<wire x1="2.54" y1="-8.89" x2="5.08" y2="-8.89" width="0.254" layer="94"/>
<wire x1="5.08" y1="-8.89" x2="6.35" y2="-7.62" width="0.254" layer="94" curve="90"/>
<wire x1="6.35" y1="-7.62" x2="6.35" y2="7.62" width="0.254" layer="94"/>
<wire x1="-2.54" y1="6.35" x2="-1.27" y2="7.62" width="0.254" layer="94" curve="-90"/>
<wire x1="-1.27" y1="7.62" x2="0" y2="7.62" width="0.254" layer="94"/>
<wire x1="0" y1="7.62" x2="1.016" y2="8.128" width="0.254" layer="94" curve="53.130102"/>
<wire x1="1.016" y1="8.128" x2="2.54" y2="8.89" width="0.254" layer="94" curve="-53.130102"/>
<wire x1="2.54" y1="8.89" x2="5.08" y2="8.89" width="0.254" layer="94"/>
<wire x1="5.08" y1="8.89" x2="6.35" y2="7.62" width="0.254" layer="94" curve="-90"/>
<wire x1="0" y1="5.08" x2="0" y2="-5.08" width="0.254" layer="94"/>
<wire x1="0" y1="-5.08" x2="1.27" y2="-6.35" width="0.254" layer="94"/>
<wire x1="1.27" y1="-6.35" x2="3.81" y2="-6.35" width="0.254" layer="94"/>
<wire x1="3.81" y1="-6.35" x2="3.81" y2="6.35" width="0.254" layer="94"/>
<wire x1="3.81" y1="6.35" x2="1.27" y2="6.35" width="0.254" layer="94"/>
<wire x1="1.27" y1="6.35" x2="0" y2="5.08" width="0.254" layer="94"/>
<text x="-2.54" y="11.43" size="1.778" layer="95" font="vector">&gt;NAME</text>
<text x="10.16" y="-7.62" size="1.778" layer="96" font="vector" rot="R90">&gt;VALUE</text>
<pin name="1" x="-5.08" y="5.08" visible="pin" direction="in"/>
<pin name="2" x="-5.08" y="2.54" visible="pin" direction="in"/>
<pin name="3" x="-5.08" y="0" visible="pin" direction="in"/>
<pin name="4" x="-5.08" y="-2.54" visible="pin" direction="in"/>
<pin name="5" x="-5.08" y="-5.08" visible="pin" direction="in"/>
</symbol>
<symbol name="USB-SHIELD">
<wire x1="-7.62" y1="0" x2="1.27" y2="0" width="0.254" layer="94" style="shortdash"/>
<wire x1="1.27" y1="0" x2="2.54" y2="1.27" width="0.254" layer="94" style="shortdash" curve="90"/>
<wire x1="2.54" y1="1.27" x2="2.54" y2="19.05" width="0.254" layer="94" style="shortdash"/>
<wire x1="-7.62" y1="20.32" x2="1.27" y2="20.32" width="0.254" layer="94" style="shortdash"/>
<wire x1="1.27" y1="20.32" x2="2.54" y2="19.05" width="0.254" layer="94" style="shortdash" curve="-90"/>
<text x="3.81" y="-2.54" size="1.778" layer="95" font="vector">&gt;NAME</text>
<pin name="S1" x="-7.62" y="-2.54" visible="off" length="short" direction="pas" rot="R90"/>
<pin name="S2" x="-5.08" y="-2.54" visible="off" length="short" direction="pas" rot="R90"/>
<pin name="S3" x="-2.54" y="-2.54" visible="off" length="short" direction="pas" rot="R90"/>
<pin name="S4" x="0" y="-2.54" visible="off" length="short" direction="pas" rot="R90"/>
</symbol>
<symbol name="ZX62-B-5PA(33)">
<wire x1="5.08" y1="2.54" x2="15.24" y2="2.54" width="0.254" layer="94"/>
<wire x1="15.24" y1="-7.62" x2="15.24" y2="2.54" width="0.254" layer="94"/>
<wire x1="15.24" y1="-7.62" x2="5.08" y2="-7.62" width="0.254" layer="94"/>
<wire x1="5.08" y1="2.54" x2="5.08" y2="-7.62" width="0.254" layer="94"/>
<text x="16.51" y="7.62" size="1.778" layer="95" align="center-left">&gt;NAME</text>
<text x="16.51" y="5.08" size="1.778" layer="96" align="center-left">&gt;VALUE</text>
<pin name="1" x="0" y="0" length="middle"/>
<pin name="3" x="0" y="-2.54" length="middle"/>
<pin name="5" x="0" y="-5.08" length="middle"/>
<pin name="2" x="20.32" y="0" length="middle" rot="R180"/>
<pin name="4" x="20.32" y="-2.54" length="middle" rot="R180"/>
</symbol>
</symbols>
<devicesets>
<deviceset name="ZX62M-B-5P(30)" prefix="J">
<description>&lt;b&gt;HIROSE(HRS) - ZX62M-B-5P(30) - MICRO USB, 2.0 TYPE B, RCPT, SMT&lt;/b&gt;&lt;p&gt;
Source: &lt;a href="https://www.hirose.com/product/en/download_file/key_name/ZX62R-B-5P(30)/category/Drawing (2D)/doc_file_id/55204/?file_category_id=6&amp;item_id=02420028830&amp;is_series="&gt; Datasheet &lt;/a&gt;</description>
<gates>
<gate name="G$1" symbol="ZX62M-B-5P(30)" x="0" y="0"/>
</gates>
<devices>
<device name="" package="ZX62M-B-5P(30)">
<connects>
<connect gate="G$1" pin="1" pad="1"/>
<connect gate="G$1" pin="2" pad="2"/>
<connect gate="G$1" pin="3" pad="3"/>
<connect gate="G$1" pin="4" pad="4"/>
<connect gate="G$1" pin="5" pad="5"/>
</connects>
<technologies>
<technology name="">
<attribute name="ARROW_PART_NUMBER" value="ZX62M-B-5P(30)" constant="no"/>
<attribute name="ARROW_PRICE-STOCK" value="https://www.arrow.com/en/products/zx62m-b-5p-30/hirose-electric" constant="no"/>
<attribute name="DESCRIPTION" value="HIROSE(HRS) - ZX62M-B-5P(30) - MICRO USB, 2.0 TYPE B, RCPT, SMT" constant="no"/>
<attribute name="HEIGHT" value="mm" constant="no"/>
<attribute name="MANUFACTURER_NAME" value="Hirose" constant="no"/>
<attribute name="MANUFACTURER_PART_NUMBER" value="ZX62M-B-5P(30)" constant="no"/>
<attribute name="RS_PART_NUMBER" value="7726778P" constant="no"/>
<attribute name="RS_PRICE-STOCK" value="http://uk.rs-online.com/web/p/products/7726778P" constant="no"/>
</technology>
</technologies>
</device>
</devices>
</deviceset>
<deviceset name="ZX62-B-5PA(33)-SHIELD" prefix="J">
<description>&lt;b&gt;USB Connectors MICRO B RECEPT RA SMT BTTM MNT&lt;/b&gt;&lt;p&gt;
Source: &lt;a href="http://www.mouser.com/ds/2/185/ZX_catalog-939768.pdf"&gt; Datasheet &lt;/a&gt;</description>
<gates>
<gate name="G$1" symbol="MINI-USB" x="10.16" y="2.54"/>
<gate name="G$2" symbol="USB-SHIELD" x="15.24" y="-7.62"/>
</gates>
<devices>
<device name="" package="ZX62-B-5PA(33)">
<connects>
<connect gate="G$1" pin="1" pad="1"/>
<connect gate="G$1" pin="2" pad="2"/>
<connect gate="G$1" pin="3" pad="3"/>
<connect gate="G$1" pin="4" pad="4"/>
<connect gate="G$1" pin="5" pad="5"/>
<connect gate="G$2" pin="S1" pad="6 8 9"/>
<connect gate="G$2" pin="S2" pad="7"/>
<connect gate="G$2" pin="S3" pad="10"/>
<connect gate="G$2" pin="S4" pad="11"/>
</connects>
<technologies>
<technology name="">
<attribute name="ARROW_PART_NUMBER" value="ZX62-B-5PA(33)" constant="no"/>
<attribute name="ARROW_PRICE/STOCK" value="http://uk.rs-online.com/web/p/products/1362267" constant="no"/>
<attribute name="DESCRIPTION" value="USB Connectors MICRO B RECEPT RA SMT BTTM MNT" constant="no"/>
<attribute name="HEIGHT" value="mm" constant="no"/>
<attribute name="MANUFACTURER_NAME" value="Hirose" constant="no"/>
<attribute name="MANUFACTURER_PART_NUMBER" value="ZX62-B-5PA(33)" constant="no"/>
<attribute name="RS_PART_NUMBER" value="1362267" constant="no"/>
<attribute name="RS_PRICE/STOCK" value="http://uk.rs-online.com/web/p/products/1362267" constant="no"/>
</technology>
</technologies>
</device>
</devices>
</deviceset>
<deviceset name="ZX62-B-5PA(33)" prefix="J">
<description>&lt;b&gt;USB Connectors MICRO B RECEPT RA SMT BTTM MNT&lt;/b&gt;&lt;p&gt;
Source: &lt;a href="http://www.mouser.com/ds/2/185/ZX_catalog-939768.pdf"&gt; Datasheet &lt;/a&gt;</description>
<gates>
<gate name="G$1" symbol="ZX62-B-5PA(33)" x="0" y="0"/>
</gates>
<devices>
<device name="" package="ZX62-B-5PA(33)">
<connects>
<connect gate="G$1" pin="1" pad="1"/>
<connect gate="G$1" pin="2" pad="2"/>
<connect gate="G$1" pin="3" pad="3"/>
<connect gate="G$1" pin="4" pad="4"/>
<connect gate="G$1" pin="5" pad="5"/>
</connects>
<technologies>
<technology name="">
<attribute name="ARROW_PART_NUMBER" value="ZX62-B-5PA(33)" constant="no"/>
<attribute name="ARROW_PRICE/STOCK" value="http://uk.rs-online.com/web/p/products/1362267" constant="no"/>
<attribute name="DESCRIPTION" value="USB Connectors MICRO B RECEPT RA SMT BTTM MNT" constant="no"/>
<attribute name="HEIGHT" value="mm" constant="no"/>
<attribute name="MANUFACTURER_NAME" value="Hirose" constant="no"/>
<attribute name="MANUFACTURER_PART_NUMBER" value="ZX62-B-5PA(33)" constant="no"/>
<attribute name="RS_PART_NUMBER" value="1362267" constant="no"/>
<attribute name="RS_PRICE/STOCK" value="http://uk.rs-online.com/web/p/products/1362267" constant="no"/>
</technology>
</technologies>
</device>
</devices>
</deviceset>
</devicesets>
</library>
</drawing>
</eagle>
