<?xml version="1.0" encoding="utf-8"?>
<!DOCTYPE eagle SYSTEM "eagle.dtd">
<eagle version="9.6.2">
<drawing>
<settings>
<setting alwaysvectorfont="no"/>
<setting keepoldvectorfont="yes"/>
<setting verticaltext="up"/>
</settings>
<grid distance="0.1" unitdist="inch" unit="inch" style="lines" multiple="1" display="yes" altdistance="0.01" altunitdist="inch" altunit="inch"/>
<layers>
<layer number="1" name="Top" color="4" fill="1" visible="yes" active="yes"/>
<layer number="2" name="Route2" color="1" fill="3" visible="no" active="yes"/>
<layer number="3" name="Route3" color="4" fill="3" visible="no" active="yes"/>
<layer number="4" name="Route4" color="1" fill="4" visible="no" active="yes"/>
<layer number="5" name="Route5" color="4" fill="4" visible="no" active="yes"/>
<layer number="6" name="Route6" color="1" fill="8" visible="no" active="yes"/>
<layer number="7" name="Route7" color="4" fill="8" visible="no" active="yes"/>
<layer number="8" name="Route8" color="1" fill="2" visible="no" active="yes"/>
<layer number="9" name="Route9" color="4" fill="2" visible="no" active="yes"/>
<layer number="10" name="Route10" color="1" fill="7" visible="no" active="yes"/>
<layer number="11" name="Route11" color="4" fill="7" visible="no" active="yes"/>
<layer number="12" name="Route12" color="1" fill="5" visible="no" active="yes"/>
<layer number="13" name="Route13" color="4" fill="5" visible="no" active="yes"/>
<layer number="14" name="Route14" color="1" fill="6" visible="no" active="yes"/>
<layer number="15" name="Route15" color="4" fill="6" visible="no" active="yes"/>
<layer number="16" name="Bottom" color="1" fill="1" visible="yes" active="yes"/>
<layer number="17" name="Pads" color="2" fill="1" visible="yes" active="yes"/>
<layer number="18" name="Vias" color="2" fill="1" visible="yes" active="yes"/>
<layer number="19" name="Unrouted" color="6" fill="1" visible="yes" active="yes"/>
<layer number="20" name="Dimension" color="15" fill="1" visible="yes" active="yes"/>
<layer number="21" name="tPlace" color="7" fill="1" visible="yes" active="yes"/>
<layer number="22" name="bPlace" color="7" fill="1" visible="yes" active="yes"/>
<layer number="23" name="tOrigins" color="15" fill="1" visible="yes" active="yes"/>
<layer number="24" name="bOrigins" color="15" fill="1" visible="yes" active="yes"/>
<layer number="25" name="tNames" color="7" fill="1" visible="yes" active="yes"/>
<layer number="26" name="bNames" color="7" fill="1" visible="yes" active="yes"/>
<layer number="27" name="tValues" color="7" fill="1" visible="yes" active="yes"/>
<layer number="28" name="bValues" color="7" fill="1" visible="yes" active="yes"/>
<layer number="29" name="tStop" color="7" fill="3" visible="no" active="yes"/>
<layer number="30" name="bStop" color="7" fill="6" visible="no" active="yes"/>
<layer number="31" name="tCream" color="7" fill="4" visible="no" active="yes"/>
<layer number="32" name="bCream" color="7" fill="5" visible="no" active="yes"/>
<layer number="33" name="tFinish" color="6" fill="3" visible="no" active="yes"/>
<layer number="34" name="bFinish" color="6" fill="6" visible="no" active="yes"/>
<layer number="35" name="tGlue" color="7" fill="4" visible="no" active="yes"/>
<layer number="36" name="bGlue" color="7" fill="5" visible="no" active="yes"/>
<layer number="37" name="tTest" color="7" fill="1" visible="no" active="yes"/>
<layer number="38" name="bTest" color="7" fill="1" visible="no" active="yes"/>
<layer number="39" name="tKeepout" color="4" fill="11" visible="yes" active="yes"/>
<layer number="40" name="bKeepout" color="1" fill="11" visible="yes" active="yes"/>
<layer number="41" name="tRestrict" color="4" fill="10" visible="yes" active="yes"/>
<layer number="42" name="bRestrict" color="1" fill="10" visible="yes" active="yes"/>
<layer number="43" name="vRestrict" color="2" fill="10" visible="yes" active="yes"/>
<layer number="44" name="Drills" color="7" fill="1" visible="no" active="yes"/>
<layer number="45" name="Holes" color="7" fill="1" visible="no" active="yes"/>
<layer number="46" name="Milling" color="3" fill="1" visible="no" active="yes"/>
<layer number="47" name="Measures" color="7" fill="1" visible="no" active="yes"/>
<layer number="48" name="Document" color="7" fill="1" visible="yes" active="yes"/>
<layer number="49" name="Reference" color="7" fill="1" visible="yes" active="yes"/>
<layer number="50" name="dxf" color="7" fill="1" visible="no" active="no"/>
<layer number="51" name="tDocu" color="7" fill="1" visible="yes" active="yes"/>
<layer number="52" name="bDocu" color="7" fill="1" visible="yes" active="yes"/>
<layer number="53" name="tGND_GNDA" color="7" fill="9" visible="no" active="no"/>
<layer number="54" name="bGND_GNDA" color="1" fill="9" visible="no" active="no"/>
<layer number="56" name="wert" color="7" fill="1" visible="no" active="no"/>
<layer number="57" name="tCAD" color="7" fill="1" visible="no" active="no"/>
<layer number="59" name="tCarbon" color="7" fill="1" visible="no" active="no"/>
<layer number="60" name="bCarbon" color="7" fill="1" visible="no" active="no"/>
<layer number="88" name="SimResults" color="7" fill="1" visible="yes" active="yes"/>
<layer number="89" name="SimProbes" color="7" fill="1" visible="yes" active="yes"/>
<layer number="90" name="Modules" color="5" fill="1" visible="yes" active="yes"/>
<layer number="91" name="Nets" color="2" fill="1" visible="yes" active="yes"/>
<layer number="92" name="Busses" color="1" fill="1" visible="yes" active="yes"/>
<layer number="93" name="Pins" color="2" fill="1" visible="no" active="yes"/>
<layer number="94" name="Symbols" color="4" fill="1" visible="yes" active="yes"/>
<layer number="95" name="Names" color="7" fill="1" visible="yes" active="yes"/>
<layer number="96" name="Values" color="7" fill="1" visible="yes" active="yes"/>
<layer number="97" name="Info" color="7" fill="1" visible="yes" active="yes"/>
<layer number="98" name="Guide" color="6" fill="1" visible="yes" active="yes"/>
<layer number="99" name="SpiceOrder" color="7" fill="1" visible="yes" active="yes"/>
<layer number="100" name="Muster" color="7" fill="1" visible="no" active="no"/>
<layer number="101" name="Patch_Top" color="7" fill="1" visible="no" active="no"/>
<layer number="102" name="Vscore" color="7" fill="1" visible="no" active="no"/>
<layer number="103" name="tMap" color="7" fill="1" visible="no" active="no"/>
<layer number="104" name="Name" color="7" fill="1" visible="no" active="no"/>
<layer number="105" name="tPlate" color="7" fill="1" visible="no" active="no"/>
<layer number="106" name="bPlate" color="7" fill="1" visible="no" active="no"/>
<layer number="107" name="Crop" color="7" fill="1" visible="no" active="no"/>
<layer number="108" name="fp8" color="7" fill="1" visible="no" active="no"/>
<layer number="109" name="fp9" color="7" fill="1" visible="no" active="no"/>
<layer number="110" name="110" color="7" fill="1" visible="no" active="no"/>
<layer number="111" name="111" color="7" fill="1" visible="no" active="no"/>
<layer number="112" name="tSilk" color="7" fill="1" visible="no" active="no"/>
<layer number="113" name="IDFDebug" color="7" fill="1" visible="no" active="no"/>
<layer number="114" name="FRNTMAAT1" color="7" fill="1" visible="no" active="no"/>
<layer number="115" name="FRNTMAAT2" color="7" fill="1" visible="no" active="no"/>
<layer number="116" name="Patch_BOT" color="7" fill="1" visible="no" active="no"/>
<layer number="117" name="BACKMAAT1" color="7" fill="1" visible="no" active="no"/>
<layer number="118" name="Rect_Pads" color="7" fill="1" visible="no" active="no"/>
<layer number="119" name="KAP_TEKEN" color="7" fill="1" visible="no" active="no"/>
<layer number="120" name="KAP_MAAT1" color="7" fill="1" visible="no" active="no"/>
<layer number="121" name="_tsilk" color="7" fill="1" visible="no" active="no"/>
<layer number="122" name="_bsilk" color="7" fill="1" visible="no" active="no"/>
<layer number="123" name="tTestmark" color="7" fill="1" visible="no" active="no"/>
<layer number="124" name="bTestmark" color="7" fill="1" visible="no" active="no"/>
<layer number="125" name="_tNames" color="7" fill="1" visible="no" active="no"/>
<layer number="126" name="_bNames" color="7" fill="1" visible="no" active="no"/>
<layer number="127" name="_tValues" color="7" fill="1" visible="no" active="no"/>
<layer number="128" name="_bValues" color="7" fill="1" visible="no" active="no"/>
<layer number="129" name="top_silk" color="7" fill="1" visible="no" active="no"/>
<layer number="130" name="SMDSTROOK" color="7" fill="1" visible="no" active="no"/>
<layer number="131" name="tAdjust" color="7" fill="1" visible="no" active="no"/>
<layer number="132" name="bAdjust" color="7" fill="1" visible="no" active="no"/>
<layer number="133" name="bottom_silk" color="7" fill="1" visible="no" active="no"/>
<layer number="134" name="silk_top" color="5" fill="1" visible="no" active="no"/>
<layer number="135" name="silk_bottom" color="7" fill="1" visible="no" active="no"/>
<layer number="136" name="silktop" color="7" fill="1" visible="no" active="no"/>
<layer number="137" name="silkbottom" color="7" fill="1" visible="no" active="no"/>
<layer number="138" name="NEw" color="7" fill="1" visible="no" active="no"/>
<layer number="139" name="mtKeepout" color="7" fill="1" visible="no" active="no"/>
<layer number="140" name="mbKeepout" color="7" fill="1" visible="no" active="no"/>
<layer number="141" name="mtRestrict" color="7" fill="1" visible="no" active="no"/>
<layer number="142" name="mbRestrict" color="7" fill="1" visible="no" active="no"/>
<layer number="143" name="mvRestrict" color="7" fill="1" visible="no" active="no"/>
<layer number="144" name="DrillLegend" color="7" fill="1" visible="no" active="no"/>
<layer number="145" name="DrillLegend_01-16" color="7" fill="1" visible="no" active="no"/>
<layer number="146" name="DrillLegend_01-20" color="7" fill="1" visible="no" active="no"/>
<layer number="147" name="mMeasures" color="7" fill="1" visible="no" active="no"/>
<layer number="148" name="mDocument" color="7" fill="1" visible="no" active="no"/>
<layer number="149" name="mReference" color="7" fill="1" visible="no" active="no"/>
<layer number="150" name="Notes" color="7" fill="1" visible="no" active="no"/>
<layer number="151" name="HeatSink" color="14" fill="1" visible="no" active="no"/>
<layer number="152" name="_bDocu" color="7" fill="1" visible="no" active="no"/>
<layer number="153" name="FabDoc1" color="6" fill="1" visible="no" active="no"/>
<layer number="154" name="FabDoc2" color="2" fill="1" visible="no" active="no"/>
<layer number="155" name="FabDoc3" color="7" fill="15" visible="no" active="no"/>
<layer number="156" name="DXF0409-TOP" color="7" fill="1" visible="no" active="no"/>
<layer number="157" name="DXF0409-BOTTOM" color="7" fill="1" visible="no" active="no"/>
<layer number="166" name="AntennaArea" color="7" fill="1" visible="no" active="no"/>
<layer number="168" name="4mmHeightArea" color="7" fill="1" visible="no" active="no"/>
<layer number="191" name="mNets" color="7" fill="1" visible="no" active="no"/>
<layer number="192" name="mBusses" color="7" fill="1" visible="no" active="no"/>
<layer number="193" name="mPins" color="7" fill="1" visible="no" active="no"/>
<layer number="194" name="mSymbols" color="7" fill="1" visible="no" active="no"/>
<layer number="195" name="mNames" color="7" fill="1" visible="no" active="no"/>
<layer number="196" name="mValues" color="7" fill="1" visible="no" active="no"/>
<layer number="199" name="Contour" color="7" fill="1" visible="no" active="no"/>
<layer number="200" name="200bmp" color="1" fill="10" visible="no" active="no"/>
<layer number="201" name="201bmp" color="2" fill="1" visible="no" active="no"/>
<layer number="202" name="202bmp" color="3" fill="1" visible="no" active="no"/>
<layer number="203" name="203bmp" color="4" fill="10" visible="no" active="no"/>
<layer number="204" name="204bmp" color="5" fill="10" visible="no" active="no"/>
<layer number="205" name="205bmp" color="6" fill="10" visible="no" active="no"/>
<layer number="206" name="206bmp" color="7" fill="10" visible="no" active="no"/>
<layer number="207" name="207bmp" color="15" fill="10" visible="no" active="no"/>
<layer number="208" name="208bmp" color="7" fill="1" visible="no" active="no"/>
<layer number="209" name="209bmp" color="7" fill="1" visible="no" active="no"/>
<layer number="210" name="210bmp" color="7" fill="1" visible="no" active="no"/>
<layer number="211" name="211bmp" color="7" fill="1" visible="no" active="no"/>
<layer number="212" name="212bmp" color="7" fill="1" visible="no" active="no"/>
<layer number="213" name="213bmp" color="7" fill="1" visible="no" active="no"/>
<layer number="214" name="214bmp" color="7" fill="1" visible="no" active="no"/>
<layer number="215" name="215bmp" color="7" fill="1" visible="no" active="no"/>
<layer number="216" name="216bmp" color="7" fill="1" visible="no" active="no"/>
<layer number="217" name="217bmp" color="18" fill="1" visible="no" active="no"/>
<layer number="218" name="218bmp" color="19" fill="1" visible="no" active="no"/>
<layer number="219" name="219bmp" color="20" fill="1" visible="no" active="no"/>
<layer number="220" name="220bmp" color="21" fill="1" visible="no" active="no"/>
<layer number="221" name="221bmp" color="22" fill="1" visible="no" active="no"/>
<layer number="222" name="222bmp" color="23" fill="1" visible="no" active="no"/>
<layer number="223" name="223bmp" color="24" fill="1" visible="no" active="no"/>
<layer number="224" name="224bmp" color="25" fill="1" visible="no" active="no"/>
<layer number="225" name="225bmp" color="7" fill="1" visible="no" active="no"/>
<layer number="226" name="226bmp" color="7" fill="1" visible="no" active="no"/>
<layer number="227" name="227bmp" color="7" fill="1" visible="no" active="no"/>
<layer number="228" name="228bmp" color="7" fill="1" visible="no" active="no"/>
<layer number="229" name="229bmp" color="7" fill="1" visible="no" active="no"/>
<layer number="230" name="230bmp" color="7" fill="1" visible="no" active="no"/>
<layer number="231" name="Eagle3D_PG1" color="7" fill="1" visible="no" active="no"/>
<layer number="232" name="Eagle3D_PG2" color="7" fill="1" visible="no" active="no"/>
<layer number="233" name="Eagle3D_PG3" color="7" fill="1" visible="no" active="no"/>
<layer number="248" name="Housing" color="7" fill="1" visible="no" active="no"/>
<layer number="249" name="Edge" color="7" fill="1" visible="no" active="no"/>
<layer number="250" name="Descript" color="3" fill="1" visible="no" active="no"/>
<layer number="251" name="SMDround" color="12" fill="11" visible="no" active="no"/>
<layer number="254" name="OrgLBR" color="13" fill="1" visible="no" active="no"/>
<layer number="255" name="Accent" color="7" fill="1" visible="no" active="no"/>
</layers>
<library>
<packages>
<package name="MOUDLE14P-2.54-21X17.8MM">
<smd name="7" x="0.835" y="2.88" dx="2.75" dy="2" layer="1" roundness="50"/>
<wire x1="0" y1="0" x2="17.8" y2="0" width="0.127" layer="21"/>
<wire x1="17.8" y1="0" x2="17.8" y2="21" width="0.127" layer="21"/>
<wire x1="17.8" y1="21" x2="0.671540625" y2="21" width="0.127" layer="21"/>
<wire x1="0.671540625" y1="21" x2="0" y2="20.328459375" width="0.127" layer="21"/>
<wire x1="0" y1="20.328459375" x2="0" y2="0" width="0.127" layer="21"/>
<smd name="6" x="0.835" y="5.42" dx="2.75" dy="2" layer="1" roundness="50"/>
<smd name="5" x="0.835" y="7.96" dx="2.75" dy="2" layer="1" roundness="50"/>
<smd name="4" x="0.835" y="10.5" dx="2.75" dy="2" layer="1" roundness="50"/>
<smd name="3" x="0.835" y="13.04" dx="2.75" dy="2" layer="1" roundness="50"/>
<smd name="2" x="0.835" y="15.58" dx="2.75" dy="2" layer="1" roundness="50"/>
<smd name="1" x="0.835" y="18.12" dx="2.75" dy="2" layer="1" roundness="50"/>
<smd name="8" x="17" y="2.88" dx="2.75" dy="2" layer="1" roundness="50"/>
<smd name="9" x="17" y="5.42" dx="2.75" dy="2" layer="1" roundness="50"/>
<smd name="10" x="17" y="7.96" dx="2.75" dy="2" layer="1" roundness="50"/>
<smd name="11" x="17" y="10.5" dx="2.75" dy="2" layer="1" roundness="50"/>
<smd name="12" x="17" y="13.04" dx="2.75" dy="2" layer="1" roundness="50"/>
<smd name="13" x="17" y="15.58" dx="2.75" dy="2" layer="1" roundness="50"/>
<smd name="14" x="17" y="18.12" dx="2.75" dy="2" layer="1" roundness="50"/>
<rectangle x1="6.35" y1="17.78" x2="11.43" y2="20.32" layer="41"/>
<rectangle x1="6.35" y1="0.635" x2="12.065" y2="3.175" layer="41"/>
<rectangle x1="3.683" y1="18.415" x2="5.461" y2="21.082" layer="41"/>
<rectangle x1="3.683" y1="14.351" x2="5.461" y2="17.018" layer="41"/>
<rectangle x1="12.319" y1="14.351" x2="14.097" y2="17.018" layer="41"/>
<rectangle x1="12.319" y1="18.415" x2="14.097" y2="21.082" layer="41"/>
<rectangle x1="0" y1="0" x2="17.653" y2="20.955" layer="39"/>
<wire x1="4.4" y1="22.424" x2="13.395" y2="22.424" width="0.127" layer="21"/>
<wire x1="13.395" y1="22.424" x2="13.395" y2="15.072" width="0.127" layer="21"/>
<wire x1="13.395" y1="15.072" x2="4.396" y2="15.072" width="0.127" layer="21"/>
<wire x1="4.396" y1="15.072" x2="4.396" y2="22.425" width="0.127" layer="21"/>
<text x="7.112" y="21.336" size="0.889" layer="25" ratio="12">&gt;NAME</text>
<text x="8.89" y="10.795" size="0.6096" layer="27" ratio="12" align="center">&gt;VALUE</text>
<circle x="-0.889" y="18.161" radius="0.254" width="0" layer="25"/>
</package>
</packages>
<symbols>
<symbol name="MOUDLE-SEEEDUINO-XIAO">
<pin name="PA02_A0_D0" x="-25.4" y="7.62" length="short"/>
<pin name="PA4_A1_D1" x="-25.4" y="5.08" length="short"/>
<pin name="PA10_A2_D2" x="-25.4" y="2.54" length="short"/>
<pin name="PA11_A3_D3" x="-25.4" y="0" length="short"/>
<pin name="PA8_A4_D4_SDA" x="20.32" y="0" length="short" rot="R180"/>
<pin name="PA9_A5_D5_SCL" x="20.32" y="-2.54" length="short" rot="R180"/>
<pin name="PB08_A6_D6_TX" x="-25.4" y="-2.54" length="short"/>
<pin name="PB09_A7_D7_RX" x="20.32" y="2.54" length="short" rot="R180"/>
<pin name="PA7_A8_D8_SCK" x="20.32" y="5.08" length="short" rot="R180"/>
<pin name="PA5_A9_D9_MISO" x="20.32" y="7.62" length="short" rot="R180"/>
<pin name="PA6_A10_D10_MOSI" x="-25.4" y="-5.08" length="short"/>
<pin name="3V3" x="0" y="17.78" length="short" rot="R270"/>
<pin name="GND" x="0" y="-15.24" length="short" rot="R90"/>
<pin name="5V" x="-2.54" y="17.78" length="short" rot="R270"/>
<wire x1="-22.86" y1="15.24" x2="17.78" y2="15.24" width="0.1524" layer="94"/>
<wire x1="17.78" y1="15.24" x2="17.78" y2="-12.7" width="0.1524" layer="94"/>
<wire x1="17.78" y1="-12.7" x2="-22.86" y2="-12.7" width="0.1524" layer="94"/>
<wire x1="-22.86" y1="-12.7" x2="-22.86" y2="15.24" width="0.1524" layer="94"/>
<text x="-21.59" y="17.78" size="1.27" layer="95" ratio="12">&gt;NAME</text>
<text x="-21.59" y="16.51" size="1.27" layer="96" ratio="12">&gt;VALUE</text>
</symbol>
</symbols>
<devicesets>
<deviceset name="MOUDLE-SEEEDUINO-XIAO" prefix="U" uservalue="yes">
<gates>
<gate name="G$1" symbol="MOUDLE-SEEEDUINO-XIAO" x="0" y="0"/>
</gates>
<devices>
<device name="" package="MOUDLE14P-2.54-21X17.8MM">
<connects>
<connect gate="G$1" pin="3V3" pad="12"/>
<connect gate="G$1" pin="5V" pad="14"/>
<connect gate="G$1" pin="GND" pad="13"/>
<connect gate="G$1" pin="PA02_A0_D0" pad="1"/>
<connect gate="G$1" pin="PA10_A2_D2" pad="3"/>
<connect gate="G$1" pin="PA11_A3_D3" pad="4"/>
<connect gate="G$1" pin="PA4_A1_D1" pad="2"/>
<connect gate="G$1" pin="PA5_A9_D9_MISO" pad="10"/>
<connect gate="G$1" pin="PA6_A10_D10_MOSI" pad="11"/>
<connect gate="G$1" pin="PA7_A8_D8_SCK" pad="9"/>
<connect gate="G$1" pin="PA8_A4_D4_SDA" pad="5"/>
<connect gate="G$1" pin="PA9_A5_D5_SCL" pad="6"/>
<connect gate="G$1" pin="PB08_A6_D6_TX" pad="7"/>
<connect gate="G$1" pin="PB09_A7_D7_RX" pad="8"/>
</connects>
<technologies>
<technology name=""/>
</technologies>
</device>
</devices>
</deviceset>
</devicesets>
</library>
</drawing>
</eagle>
