<?xml version="1.0" encoding="utf-8"?>
<!DOCTYPE eagle SYSTEM "eagle.dtd">
<eagle version="9.4.2">
<drawing>
<settings>
<setting alwaysvectorfont="no"/>
<setting verticaltext="up"/>
</settings>
<grid distance="0.1" unitdist="inch" unit="inch" style="lines" multiple="1" display="no" altdistance="0.01" altunitdist="inch" altunit="inch"/>
<layers>
<layer number="1" name="Top" color="4" fill="1" visible="yes" active="yes"/>
<layer number="2" name="Route2" color="16" fill="1" visible="no" active="yes"/>
<layer number="3" name="Route3" color="17" fill="1" visible="no" active="yes"/>
<layer number="4" name="Route4" color="18" fill="1" visible="no" active="yes"/>
<layer number="5" name="Route5" color="19" fill="1" visible="no" active="yes"/>
<layer number="6" name="Route6" color="25" fill="1" visible="no" active="yes"/>
<layer number="7" name="Route7" color="26" fill="1" visible="no" active="yes"/>
<layer number="8" name="Route8" color="27" fill="1" visible="no" active="yes"/>
<layer number="9" name="Route9" color="28" fill="1" visible="no" active="yes"/>
<layer number="10" name="Route10" color="29" fill="1" visible="no" active="yes"/>
<layer number="11" name="Route11" color="30" fill="1" visible="no" active="yes"/>
<layer number="12" name="Route12" color="20" fill="1" visible="no" active="yes"/>
<layer number="13" name="Route13" color="21" fill="1" visible="no" active="yes"/>
<layer number="14" name="Route14" color="22" fill="1" visible="no" active="yes"/>
<layer number="15" name="Route15" color="23" fill="1" visible="no" active="yes"/>
<layer number="16" name="Bottom" color="1" fill="1" visible="yes" active="yes"/>
<layer number="17" name="Pads" color="2" fill="1" visible="yes" active="yes"/>
<layer number="18" name="Vias" color="2" fill="1" visible="yes" active="yes"/>
<layer number="19" name="Unrouted" color="6" fill="1" visible="yes" active="yes"/>
<layer number="20" name="Dimension" color="24" fill="1" visible="yes" active="yes"/>
<layer number="21" name="tPlace" color="7" fill="1" visible="yes" active="yes"/>
<layer number="22" name="bPlace" color="7" fill="1" visible="yes" active="yes"/>
<layer number="23" name="tOrigins" color="15" fill="1" visible="yes" active="yes"/>
<layer number="24" name="bOrigins" color="15" fill="1" visible="yes" active="yes"/>
<layer number="25" name="tNames" color="7" fill="1" visible="yes" active="yes"/>
<layer number="26" name="bNames" color="7" fill="1" visible="yes" active="yes"/>
<layer number="27" name="tValues" color="7" fill="1" visible="yes" active="yes"/>
<layer number="28" name="bValues" color="7" fill="1" visible="yes" active="yes"/>
<layer number="29" name="tStop" color="7" fill="3" visible="no" active="yes"/>
<layer number="30" name="bStop" color="7" fill="6" visible="no" active="yes"/>
<layer number="31" name="tCream" color="7" fill="4" visible="no" active="yes"/>
<layer number="32" name="bCream" color="7" fill="5" visible="no" active="yes"/>
<layer number="33" name="tFinish" color="6" fill="3" visible="no" active="yes"/>
<layer number="34" name="bFinish" color="6" fill="6" visible="no" active="yes"/>
<layer number="35" name="tGlue" color="7" fill="4" visible="no" active="yes"/>
<layer number="36" name="bGlue" color="7" fill="5" visible="no" active="yes"/>
<layer number="37" name="tTest" color="7" fill="1" visible="no" active="yes"/>
<layer number="38" name="bTest" color="7" fill="1" visible="no" active="yes"/>
<layer number="39" name="tKeepout" color="4" fill="11" visible="yes" active="yes"/>
<layer number="40" name="bKeepout" color="1" fill="11" visible="yes" active="yes"/>
<layer number="41" name="tRestrict" color="4" fill="10" visible="yes" active="yes"/>
<layer number="42" name="bRestrict" color="1" fill="10" visible="yes" active="yes"/>
<layer number="43" name="vRestrict" color="2" fill="10" visible="yes" active="yes"/>
<layer number="44" name="Drills" color="7" fill="1" visible="no" active="yes"/>
<layer number="45" name="Holes" color="7" fill="1" visible="no" active="yes"/>
<layer number="46" name="Milling" color="3" fill="1" visible="no" active="yes"/>
<layer number="47" name="Measures" color="7" fill="1" visible="no" active="yes"/>
<layer number="48" name="Document" color="7" fill="1" visible="yes" active="yes"/>
<layer number="49" name="Reference" color="7" fill="1" visible="yes" active="yes"/>
<layer number="51" name="tDocu" color="7" fill="1" visible="yes" active="yes"/>
<layer number="52" name="bDocu" color="7" fill="1" visible="yes" active="yes"/>
<layer number="88" name="SimResults" color="9" fill="1" visible="yes" active="yes"/>
<layer number="89" name="SimProbes" color="9" fill="1" visible="yes" active="yes"/>
<layer number="90" name="Modules" color="5" fill="1" visible="yes" active="yes"/>
<layer number="91" name="Nets" color="2" fill="1" visible="yes" active="yes"/>
<layer number="92" name="Busses" color="1" fill="1" visible="yes" active="yes"/>
<layer number="93" name="Pins" color="2" fill="1" visible="no" active="yes"/>
<layer number="94" name="Symbols" color="4" fill="1" visible="yes" active="yes"/>
<layer number="95" name="Names" color="7" fill="1" visible="yes" active="yes"/>
<layer number="96" name="Values" color="7" fill="1" visible="yes" active="yes"/>
<layer number="97" name="Info" color="7" fill="1" visible="yes" active="yes"/>
<layer number="98" name="Guide" color="6" fill="1" visible="yes" active="yes"/>
</layers>
<library>
<packages>
<package name="21-0136I_T1633F-3">
<smd name="1" x="-1.4478" y="0.75" dx="0.3048" dy="0.8128" layer="1" rot="R270"/>
<smd name="2" x="-1.4478" y="0.25" dx="0.3048" dy="0.8128" layer="1" rot="R270"/>
<smd name="3" x="-1.4478" y="-0.25" dx="0.3048" dy="0.8128" layer="1" rot="R270"/>
<smd name="4" x="-1.4478" y="-0.75" dx="0.3048" dy="0.8128" layer="1" rot="R270"/>
<smd name="5" x="-0.75" y="-1.4478" dx="0.3048" dy="0.8128" layer="1" rot="R180"/>
<smd name="6" x="-0.25" y="-1.4478" dx="0.3048" dy="0.8128" layer="1" rot="R180"/>
<smd name="7" x="0.25" y="-1.4478" dx="0.3048" dy="0.8128" layer="1" rot="R180"/>
<smd name="8" x="0.75" y="-1.4478" dx="0.3048" dy="0.8128" layer="1" rot="R180"/>
<smd name="9" x="1.4478" y="-0.75" dx="0.3048" dy="0.8128" layer="1" rot="R270"/>
<smd name="10" x="1.4478" y="-0.25" dx="0.3048" dy="0.8128" layer="1" rot="R270"/>
<smd name="11" x="1.4478" y="0.25" dx="0.3048" dy="0.8128" layer="1" rot="R270"/>
<smd name="12" x="1.4478" y="0.75" dx="0.3048" dy="0.8128" layer="1" rot="R270"/>
<smd name="13" x="0.75" y="1.4478" dx="0.3048" dy="0.8128" layer="1" rot="R180"/>
<smd name="14" x="0.25" y="1.4478" dx="0.3048" dy="0.8128" layer="1" rot="R180"/>
<smd name="15" x="-0.25" y="1.4478" dx="0.3048" dy="0.8128" layer="1" rot="R180"/>
<smd name="16" x="-0.75" y="1.4478" dx="0.3048" dy="0.8128" layer="1" rot="R180"/>
<smd name="17" x="0" y="0" dx="0.9398" dy="0.9398" layer="1" cream="no"/>
<wire x1="-1.6764" y1="-1.6764" x2="-1.2446" y2="-1.6764" width="0.1524" layer="21"/>
<wire x1="1.6764" y1="-1.6764" x2="1.6764" y2="-1.2446" width="0.1524" layer="21"/>
<wire x1="1.6764" y1="1.6764" x2="1.2446" y2="1.6764" width="0.1524" layer="21"/>
<wire x1="-1.6764" y1="1.6764" x2="-1.6764" y2="1.2446" width="0.1524" layer="21"/>
<wire x1="-1.6764" y1="-1.2446" x2="-1.6764" y2="-1.6764" width="0.1524" layer="21"/>
<wire x1="1.2446" y1="-1.6764" x2="1.6764" y2="-1.6764" width="0.1524" layer="21"/>
<wire x1="1.6764" y1="1.2446" x2="1.6764" y2="1.6764" width="0.1524" layer="21"/>
<wire x1="-1.2446" y1="1.6764" x2="-1.6764" y2="1.6764" width="0.1524" layer="21"/>
<polygon width="0.0254" layer="21">
<vertex x="2.3622" y="-0.0595"/>
<vertex x="2.3622" y="-0.4405"/>
<vertex x="2.1082" y="-0.4405"/>
<vertex x="2.1082" y="-0.0595"/>
</polygon>
<text x="-3.0734" y="0.3556" size="1.27" layer="21" ratio="6" rot="SR0">*</text>
<polygon width="0.0254" layer="31">
<vertex x="-0.4699" y="0.4699"/>
<vertex x="-0.4699" y="-0.4699"/>
<vertex x="0.4699" y="-0.4699"/>
<vertex x="0.4699" y="0.4699"/>
</polygon>
<wire x1="-1.5494" y1="0.2794" x2="-0.2794" y2="1.5494" width="0.1524" layer="51"/>
<wire x1="0.9144" y1="1.5494" x2="0.6096" y2="1.5494" width="0.1524" layer="51"/>
<wire x1="0.4064" y1="1.5494" x2="0.1016" y2="1.5494" width="0.1524" layer="51"/>
<wire x1="-0.1016" y1="1.5494" x2="-0.4064" y2="1.5494" width="0.1524" layer="51"/>
<wire x1="-0.6096" y1="1.5494" x2="-0.9144" y2="1.5494" width="0.1524" layer="51"/>
<wire x1="-1.5494" y1="0.9144" x2="-1.5494" y2="0.6096" width="0.1524" layer="51"/>
<wire x1="-1.5494" y1="0.4064" x2="-1.5494" y2="0.1016" width="0.1524" layer="51"/>
<wire x1="-1.5494" y1="-0.1016" x2="-1.5494" y2="-0.4064" width="0.1524" layer="51"/>
<wire x1="-1.5494" y1="-0.6096" x2="-1.5494" y2="-0.9144" width="0.1524" layer="51"/>
<wire x1="-0.9144" y1="-1.5494" x2="-0.6096" y2="-1.5494" width="0.1524" layer="51"/>
<wire x1="-0.4064" y1="-1.5494" x2="-0.1016" y2="-1.5494" width="0.1524" layer="51"/>
<wire x1="0.1016" y1="-1.5494" x2="0.4064" y2="-1.5494" width="0.1524" layer="51"/>
<wire x1="0.6096" y1="-1.5494" x2="0.9144" y2="-1.5494" width="0.1524" layer="51"/>
<wire x1="1.5494" y1="-0.9144" x2="1.5494" y2="-0.6096" width="0.1524" layer="51"/>
<wire x1="1.5494" y1="-0.4064" x2="1.5494" y2="-0.1016" width="0.1524" layer="51"/>
<wire x1="1.5494" y1="0.1016" x2="1.5494" y2="0.4064" width="0.1524" layer="51"/>
<wire x1="1.5494" y1="0.6096" x2="1.5494" y2="0.9144" width="0.1524" layer="51"/>
<wire x1="-1.5494" y1="-1.5494" x2="1.5494" y2="-1.5494" width="0.1524" layer="51"/>
<wire x1="1.5494" y1="-1.5494" x2="1.5494" y2="1.5494" width="0.1524" layer="51"/>
<wire x1="1.5494" y1="1.5494" x2="-1.5494" y2="1.5494" width="0.1524" layer="51"/>
<wire x1="-1.5494" y1="1.5494" x2="-1.5494" y2="-1.5494" width="0.1524" layer="51"/>
<text x="-1.6256" y="0.3556" size="1.27" layer="51" ratio="6" rot="SR0">*</text>
<text x="-3.2766" y="-0.635" size="1.27" layer="25" ratio="6" rot="SR0">&gt;Name</text>
</package>
<package name="21-0136I_T1633F-3-M">
<smd name="1" x="-1.4986" y="0.75" dx="0.3048" dy="0.9144" layer="1" rot="R270"/>
<smd name="2" x="-1.4986" y="0.25" dx="0.3048" dy="0.9144" layer="1" rot="R270"/>
<smd name="3" x="-1.4986" y="-0.25" dx="0.3048" dy="0.9144" layer="1" rot="R270"/>
<smd name="4" x="-1.4986" y="-0.75" dx="0.3048" dy="0.9144" layer="1" rot="R270"/>
<smd name="5" x="-0.75" y="-1.4986" dx="0.3048" dy="0.9144" layer="1" rot="R180"/>
<smd name="6" x="-0.25" y="-1.4986" dx="0.3048" dy="0.9144" layer="1" rot="R180"/>
<smd name="7" x="0.25" y="-1.4986" dx="0.3048" dy="0.9144" layer="1" rot="R180"/>
<smd name="8" x="0.75" y="-1.4986" dx="0.3048" dy="0.9144" layer="1" rot="R180"/>
<smd name="9" x="1.4986" y="-0.75" dx="0.3048" dy="0.9144" layer="1" rot="R270"/>
<smd name="10" x="1.4986" y="-0.25" dx="0.3048" dy="0.9144" layer="1" rot="R270"/>
<smd name="11" x="1.4986" y="0.25" dx="0.3048" dy="0.9144" layer="1" rot="R270"/>
<smd name="12" x="1.4986" y="0.75" dx="0.3048" dy="0.9144" layer="1" rot="R270"/>
<smd name="13" x="0.75" y="1.4986" dx="0.3048" dy="0.9144" layer="1" rot="R180"/>
<smd name="14" x="0.25" y="1.4986" dx="0.3048" dy="0.9144" layer="1" rot="R180"/>
<smd name="15" x="-0.25" y="1.4986" dx="0.3048" dy="0.9144" layer="1" rot="R180"/>
<smd name="16" x="-0.75" y="1.4986" dx="0.3048" dy="0.9144" layer="1" rot="R180"/>
<smd name="17" x="0" y="0" dx="0.9398" dy="0.9398" layer="1" cream="no"/>
<wire x1="-1.6764" y1="-1.6764" x2="-1.2446" y2="-1.6764" width="0.1524" layer="21"/>
<wire x1="1.6764" y1="-1.6764" x2="1.6764" y2="-1.2446" width="0.1524" layer="21"/>
<wire x1="1.6764" y1="1.6764" x2="1.2446" y2="1.6764" width="0.1524" layer="21"/>
<wire x1="-1.6764" y1="1.6764" x2="-1.6764" y2="1.2446" width="0.1524" layer="21"/>
<wire x1="-1.6764" y1="-1.2446" x2="-1.6764" y2="-1.6764" width="0.1524" layer="21"/>
<wire x1="1.2446" y1="-1.6764" x2="1.6764" y2="-1.6764" width="0.1524" layer="21"/>
<wire x1="1.6764" y1="1.2446" x2="1.6764" y2="1.6764" width="0.1524" layer="21"/>
<wire x1="-1.2446" y1="1.6764" x2="-1.6764" y2="1.6764" width="0.1524" layer="21"/>
<polygon width="0.0254" layer="21">
<vertex x="2.4638" y="-0.0595"/>
<vertex x="2.4638" y="-0.4405"/>
<vertex x="2.2098" y="-0.4405"/>
<vertex x="2.2098" y="-0.0595"/>
</polygon>
<text x="-3.175" y="0.3556" size="1.27" layer="21" ratio="6" rot="SR0">*</text>
<polygon width="0.0254" layer="31">
<vertex x="-0.4699" y="0.4699"/>
<vertex x="-0.4699" y="-0.4699"/>
<vertex x="0.4699" y="-0.4699"/>
<vertex x="0.4699" y="0.4699"/>
</polygon>
<wire x1="-1.5494" y1="0.2794" x2="-0.2794" y2="1.5494" width="0.1524" layer="51"/>
<wire x1="0.9144" y1="1.5494" x2="0.6096" y2="1.5494" width="0.1524" layer="51"/>
<wire x1="0.4064" y1="1.5494" x2="0.1016" y2="1.5494" width="0.1524" layer="51"/>
<wire x1="-0.1016" y1="1.5494" x2="-0.4064" y2="1.5494" width="0.1524" layer="51"/>
<wire x1="-0.6096" y1="1.5494" x2="-0.9144" y2="1.5494" width="0.1524" layer="51"/>
<wire x1="-1.5494" y1="0.9144" x2="-1.5494" y2="0.6096" width="0.1524" layer="51"/>
<wire x1="-1.5494" y1="0.4064" x2="-1.5494" y2="0.1016" width="0.1524" layer="51"/>
<wire x1="-1.5494" y1="-0.1016" x2="-1.5494" y2="-0.4064" width="0.1524" layer="51"/>
<wire x1="-1.5494" y1="-0.6096" x2="-1.5494" y2="-0.9144" width="0.1524" layer="51"/>
<wire x1="-0.9144" y1="-1.5494" x2="-0.6096" y2="-1.5494" width="0.1524" layer="51"/>
<wire x1="-0.4064" y1="-1.5494" x2="-0.1016" y2="-1.5494" width="0.1524" layer="51"/>
<wire x1="0.1016" y1="-1.5494" x2="0.4064" y2="-1.5494" width="0.1524" layer="51"/>
<wire x1="0.6096" y1="-1.5494" x2="0.9144" y2="-1.5494" width="0.1524" layer="51"/>
<wire x1="1.5494" y1="-0.9144" x2="1.5494" y2="-0.6096" width="0.1524" layer="51"/>
<wire x1="1.5494" y1="-0.4064" x2="1.5494" y2="-0.1016" width="0.1524" layer="51"/>
<wire x1="1.5494" y1="0.1016" x2="1.5494" y2="0.4064" width="0.1524" layer="51"/>
<wire x1="1.5494" y1="0.6096" x2="1.5494" y2="0.9144" width="0.1524" layer="51"/>
<wire x1="-1.5494" y1="-1.5494" x2="1.5494" y2="-1.5494" width="0.1524" layer="51"/>
<wire x1="1.5494" y1="-1.5494" x2="1.5494" y2="1.5494" width="0.1524" layer="51"/>
<wire x1="1.5494" y1="1.5494" x2="-1.5494" y2="1.5494" width="0.1524" layer="51"/>
<wire x1="-1.5494" y1="1.5494" x2="-1.5494" y2="-1.5494" width="0.1524" layer="51"/>
<text x="-1.6256" y="0.3556" size="1.27" layer="51" ratio="6" rot="SR0">*</text>
<text x="-3.2766" y="-0.635" size="1.27" layer="25" ratio="6" rot="SR0">&gt;Name</text>
</package>
<package name="21-0136I_T1633F-3-L">
<smd name="1" x="-1.397" y="0.75" dx="0.3048" dy="0.7112" layer="1" rot="R270"/>
<smd name="2" x="-1.397" y="0.25" dx="0.3048" dy="0.7112" layer="1" rot="R270"/>
<smd name="3" x="-1.397" y="-0.25" dx="0.3048" dy="0.7112" layer="1" rot="R270"/>
<smd name="4" x="-1.397" y="-0.75" dx="0.3048" dy="0.7112" layer="1" rot="R270"/>
<smd name="5" x="-0.75" y="-1.397" dx="0.3048" dy="0.7112" layer="1" rot="R180"/>
<smd name="6" x="-0.25" y="-1.397" dx="0.3048" dy="0.7112" layer="1" rot="R180"/>
<smd name="7" x="0.25" y="-1.397" dx="0.3048" dy="0.7112" layer="1" rot="R180"/>
<smd name="8" x="0.75" y="-1.397" dx="0.3048" dy="0.7112" layer="1" rot="R180"/>
<smd name="9" x="1.397" y="-0.75" dx="0.3048" dy="0.7112" layer="1" rot="R270"/>
<smd name="10" x="1.397" y="-0.25" dx="0.3048" dy="0.7112" layer="1" rot="R270"/>
<smd name="11" x="1.397" y="0.25" dx="0.3048" dy="0.7112" layer="1" rot="R270"/>
<smd name="12" x="1.397" y="0.75" dx="0.3048" dy="0.7112" layer="1" rot="R270"/>
<smd name="13" x="0.75" y="1.397" dx="0.3048" dy="0.7112" layer="1" rot="R180"/>
<smd name="14" x="0.25" y="1.397" dx="0.3048" dy="0.7112" layer="1" rot="R180"/>
<smd name="15" x="-0.25" y="1.397" dx="0.3048" dy="0.7112" layer="1" rot="R180"/>
<smd name="16" x="-0.75" y="1.397" dx="0.3048" dy="0.7112" layer="1" rot="R180"/>
<smd name="17" x="0" y="0" dx="0.9398" dy="0.9398" layer="1" cream="no"/>
<wire x1="-1.6764" y1="-1.6764" x2="-1.2446" y2="-1.6764" width="0.1524" layer="21"/>
<wire x1="1.6764" y1="-1.6764" x2="1.6764" y2="-1.2446" width="0.1524" layer="21"/>
<wire x1="1.6764" y1="1.6764" x2="1.2446" y2="1.6764" width="0.1524" layer="21"/>
<wire x1="-1.6764" y1="1.6764" x2="-1.6764" y2="1.2446" width="0.1524" layer="21"/>
<wire x1="-1.6764" y1="-1.2446" x2="-1.6764" y2="-1.6764" width="0.1524" layer="21"/>
<wire x1="1.2446" y1="-1.6764" x2="1.6764" y2="-1.6764" width="0.1524" layer="21"/>
<wire x1="1.6764" y1="1.2446" x2="1.6764" y2="1.6764" width="0.1524" layer="21"/>
<wire x1="-1.2446" y1="1.6764" x2="-1.6764" y2="1.6764" width="0.1524" layer="21"/>
<polygon width="0.0254" layer="21">
<vertex x="2.2606" y="-0.0595"/>
<vertex x="2.2606" y="-0.4405"/>
<vertex x="2.0066" y="-0.4405"/>
<vertex x="2.0066" y="-0.0595"/>
</polygon>
<text x="-2.9718" y="0.3556" size="1.27" layer="21" ratio="6" rot="SR0">*</text>
<polygon width="0.0254" layer="31">
<vertex x="-0.4699" y="0.4699"/>
<vertex x="-0.4699" y="-0.4699"/>
<vertex x="0.4699" y="-0.4699"/>
<vertex x="0.4699" y="0.4699"/>
</polygon>
<wire x1="-1.5494" y1="0.2794" x2="-0.2794" y2="1.5494" width="0.1524" layer="51"/>
<wire x1="0.9144" y1="1.5494" x2="0.6096" y2="1.5494" width="0.1524" layer="51"/>
<wire x1="0.4064" y1="1.5494" x2="0.1016" y2="1.5494" width="0.1524" layer="51"/>
<wire x1="-0.1016" y1="1.5494" x2="-0.4064" y2="1.5494" width="0.1524" layer="51"/>
<wire x1="-0.6096" y1="1.5494" x2="-0.9144" y2="1.5494" width="0.1524" layer="51"/>
<wire x1="-1.5494" y1="0.9144" x2="-1.5494" y2="0.6096" width="0.1524" layer="51"/>
<wire x1="-1.5494" y1="0.4064" x2="-1.5494" y2="0.1016" width="0.1524" layer="51"/>
<wire x1="-1.5494" y1="-0.1016" x2="-1.5494" y2="-0.4064" width="0.1524" layer="51"/>
<wire x1="-1.5494" y1="-0.6096" x2="-1.5494" y2="-0.9144" width="0.1524" layer="51"/>
<wire x1="-0.9144" y1="-1.5494" x2="-0.6096" y2="-1.5494" width="0.1524" layer="51"/>
<wire x1="-0.4064" y1="-1.5494" x2="-0.1016" y2="-1.5494" width="0.1524" layer="51"/>
<wire x1="0.1016" y1="-1.5494" x2="0.4064" y2="-1.5494" width="0.1524" layer="51"/>
<wire x1="0.6096" y1="-1.5494" x2="0.9144" y2="-1.5494" width="0.1524" layer="51"/>
<wire x1="1.5494" y1="-0.9144" x2="1.5494" y2="-0.6096" width="0.1524" layer="51"/>
<wire x1="1.5494" y1="-0.4064" x2="1.5494" y2="-0.1016" width="0.1524" layer="51"/>
<wire x1="1.5494" y1="0.1016" x2="1.5494" y2="0.4064" width="0.1524" layer="51"/>
<wire x1="1.5494" y1="0.6096" x2="1.5494" y2="0.9144" width="0.1524" layer="51"/>
<wire x1="-1.5494" y1="-1.5494" x2="1.5494" y2="-1.5494" width="0.1524" layer="51"/>
<wire x1="1.5494" y1="-1.5494" x2="1.5494" y2="1.5494" width="0.1524" layer="51"/>
<wire x1="1.5494" y1="1.5494" x2="-1.5494" y2="1.5494" width="0.1524" layer="51"/>
<wire x1="-1.5494" y1="1.5494" x2="-1.5494" y2="-1.5494" width="0.1524" layer="51"/>
<text x="-1.6256" y="0.3556" size="1.27" layer="51" ratio="6" rot="SR0">*</text>
<text x="-3.2766" y="-0.635" size="1.27" layer="25" ratio="6" rot="SR0">&gt;Name</text>
</package>
<package name="SOP50P490X110-10N">
<description>&lt;b&gt;AD9833BRMZ-REEL7&lt;/b&gt;&lt;br&gt;
</description>
<smd name="1" x="-2.225" y="1" dx="1.45" dy="0.3" layer="1"/>
<smd name="2" x="-2.225" y="0.5" dx="1.45" dy="0.3" layer="1"/>
<smd name="3" x="-2.225" y="0" dx="1.45" dy="0.3" layer="1"/>
<smd name="4" x="-2.225" y="-0.5" dx="1.45" dy="0.3" layer="1"/>
<smd name="5" x="-2.225" y="-1" dx="1.45" dy="0.3" layer="1"/>
<smd name="6" x="2.225" y="-1" dx="1.45" dy="0.3" layer="1"/>
<smd name="7" x="2.225" y="-0.5" dx="1.45" dy="0.3" layer="1"/>
<smd name="8" x="2.225" y="0" dx="1.45" dy="0.3" layer="1"/>
<smd name="9" x="2.225" y="0.5" dx="1.45" dy="0.3" layer="1"/>
<smd name="10" x="2.225" y="1" dx="1.45" dy="0.3" layer="1"/>
<text x="0" y="0" size="1.27" layer="25" align="center">&gt;NAME</text>
<text x="0" y="0" size="1.27" layer="27" align="center">&gt;VALUE</text>
<wire x1="-3.2" y1="1.8" x2="3.2" y2="1.8" width="0.05" layer="51"/>
<wire x1="3.2" y1="1.8" x2="3.2" y2="-1.8" width="0.05" layer="51"/>
<wire x1="3.2" y1="-1.8" x2="-3.2" y2="-1.8" width="0.05" layer="51"/>
<wire x1="-3.2" y1="-1.8" x2="-3.2" y2="1.8" width="0.05" layer="51"/>
<wire x1="-1.5" y1="1.5" x2="1.5" y2="1.5" width="0.1" layer="51"/>
<wire x1="1.5" y1="1.5" x2="1.5" y2="-1.5" width="0.1" layer="51"/>
<wire x1="1.5" y1="-1.5" x2="-1.5" y2="-1.5" width="0.1" layer="51"/>
<wire x1="-1.5" y1="-1.5" x2="-1.5" y2="1.5" width="0.1" layer="51"/>
<wire x1="-1.5" y1="1" x2="-1" y2="1.5" width="0.1" layer="51"/>
<wire x1="-1.15" y1="1.5" x2="1.15" y2="1.5" width="0.2" layer="21"/>
<wire x1="1.15" y1="1.5" x2="1.15" y2="-1.5" width="0.2" layer="21"/>
<wire x1="1.15" y1="-1.5" x2="-1.15" y2="-1.5" width="0.2" layer="21"/>
<wire x1="-1.15" y1="-1.5" x2="-1.15" y2="1.5" width="0.2" layer="21"/>
<wire x1="-2.95" y1="1.5" x2="-1.5" y2="1.5" width="0.2" layer="21"/>
</package>
</packages>
<symbols>
<symbol name="MAX5550ETE+">
<pin name="SCLK/SCL" x="2.54" y="0" length="middle" direction="in"/>
<pin name="DIN/SDA" x="2.54" y="-2.54" length="middle" direction="in"/>
<pin name="!CS/A0" x="2.54" y="-5.08" length="middle" direction="in"/>
<pin name="SPI/!I2C" x="2.54" y="-7.62" length="middle" direction="in"/>
<pin name="DOUT/A1" x="2.54" y="-10.16" length="middle" direction="out"/>
<pin name="NC_2" x="2.54" y="-12.7" length="middle" direction="nc"/>
<pin name="REFIN" x="2.54" y="-15.24" length="middle" direction="in"/>
<pin name="GND_2" x="2.54" y="-17.78" length="middle" direction="pwr"/>
<pin name="OUTB" x="48.26" y="-20.32" length="middle" direction="out" rot="R180"/>
<pin name="FSADJB" x="48.26" y="-17.78" length="middle" direction="in" rot="R180"/>
<pin name="FSADJA" x="48.26" y="-15.24" length="middle" direction="in" rot="R180"/>
<pin name="OUTA" x="48.26" y="-12.7" length="middle" direction="out" rot="R180"/>
<pin name="NC_3" x="48.26" y="-10.16" length="middle" direction="nc" rot="R180"/>
<pin name="VDD" x="48.26" y="-7.62" length="middle" direction="pwr" rot="R180"/>
<pin name="NC" x="48.26" y="-5.08" length="middle" direction="nc" rot="R180"/>
<pin name="GND" x="48.26" y="-2.54" length="middle" direction="pwr" rot="R180"/>
<pin name="17" x="48.26" y="0" length="middle" direction="pas" rot="R180"/>
<wire x1="7.62" y1="5.08" x2="7.62" y2="-25.4" width="0.1524" layer="94"/>
<wire x1="7.62" y1="-25.4" x2="43.18" y2="-25.4" width="0.1524" layer="94"/>
<wire x1="43.18" y1="-25.4" x2="43.18" y2="5.08" width="0.1524" layer="94"/>
<wire x1="43.18" y1="5.08" x2="7.62" y2="5.08" width="0.1524" layer="94"/>
<text x="20.0406" y="9.1186" size="2.0828" layer="95" ratio="6" rot="SR0">&gt;Name</text>
<text x="21.6154" y="6.5786" size="2.0828" layer="96" ratio="6" rot="SR0">&gt;Value</text>
</symbol>
<symbol name="AD9833BRMZ">
<wire x1="5.08" y1="2.54" x2="30.48" y2="2.54" width="0.254" layer="94"/>
<wire x1="30.48" y1="-12.7" x2="30.48" y2="2.54" width="0.254" layer="94"/>
<wire x1="30.48" y1="-12.7" x2="5.08" y2="-12.7" width="0.254" layer="94"/>
<wire x1="5.08" y1="2.54" x2="5.08" y2="-12.7" width="0.254" layer="94"/>
<text x="31.75" y="7.62" size="1.778" layer="95" align="center-left">&gt;NAME</text>
<text x="31.75" y="5.08" size="1.778" layer="96" align="center-left">&gt;VALUE</text>
<pin name="COMP" x="0" y="0" length="middle"/>
<pin name="VDD" x="0" y="-2.54" length="middle" direction="pwr"/>
<pin name="CAP/2.5V" x="0" y="-5.08" length="middle"/>
<pin name="DGND" x="0" y="-7.62" length="middle" direction="pwr"/>
<pin name="MCLK" x="0" y="-10.16" length="middle" direction="in"/>
<pin name="VOUT" x="35.56" y="0" length="middle" direction="out" rot="R180"/>
<pin name="AGND" x="35.56" y="-2.54" length="middle" direction="pwr" rot="R180"/>
<pin name="FSYNC" x="35.56" y="-5.08" length="middle" direction="in" rot="R180"/>
<pin name="SCLK" x="35.56" y="-7.62" length="middle" direction="in" rot="R180"/>
<pin name="SDATA" x="35.56" y="-10.16" length="middle" direction="in" rot="R180"/>
</symbol>
<symbol name="AD9833BRMZ-REEL7">
<wire x1="5.08" y1="2.54" x2="30.48" y2="2.54" width="0.254" layer="94"/>
<wire x1="30.48" y1="-12.7" x2="30.48" y2="2.54" width="0.254" layer="94"/>
<wire x1="30.48" y1="-12.7" x2="5.08" y2="-12.7" width="0.254" layer="94"/>
<wire x1="5.08" y1="2.54" x2="5.08" y2="-12.7" width="0.254" layer="94"/>
<text x="31.75" y="7.62" size="1.778" layer="95" align="center-left">&gt;NAME</text>
<text x="31.75" y="5.08" size="1.778" layer="96" align="center-left">&gt;VALUE</text>
<pin name="COMP" x="0" y="0" length="middle"/>
<pin name="VDD" x="0" y="-2.54" length="middle"/>
<pin name="CAP/2.5V" x="0" y="-5.08" length="middle"/>
<pin name="DGND" x="0" y="-7.62" length="middle"/>
<pin name="MCLK" x="0" y="-10.16" length="middle"/>
<pin name="VOUT" x="35.56" y="0" length="middle" rot="R180"/>
<pin name="AGND" x="35.56" y="-2.54" length="middle" rot="R180"/>
<pin name="FSYNC" x="35.56" y="-5.08" length="middle" rot="R180"/>
<pin name="SCLK" x="35.56" y="-7.62" length="middle" rot="R180"/>
<pin name="SDATA" x="35.56" y="-10.16" length="middle" rot="R180"/>
</symbol>
</symbols>
<devicesets>
<deviceset name="MAX5550ETE+" prefix="U">
<gates>
<gate name="A" symbol="MAX5550ETE+" x="0" y="0"/>
</gates>
<devices>
<device name="" package="21-0136I_T1633F-3">
<connects>
<connect gate="A" pin="!CS/A0" pad="3"/>
<connect gate="A" pin="17" pad="17"/>
<connect gate="A" pin="DIN/SDA" pad="2"/>
<connect gate="A" pin="DOUT/A1" pad="5"/>
<connect gate="A" pin="FSADJA" pad="11"/>
<connect gate="A" pin="FSADJB" pad="10"/>
<connect gate="A" pin="GND" pad="16"/>
<connect gate="A" pin="GND_2" pad="8"/>
<connect gate="A" pin="NC" pad="15"/>
<connect gate="A" pin="NC_2" pad="6"/>
<connect gate="A" pin="NC_3" pad="13"/>
<connect gate="A" pin="OUTA" pad="12"/>
<connect gate="A" pin="OUTB" pad="9"/>
<connect gate="A" pin="REFIN" pad="7"/>
<connect gate="A" pin="SCLK/SCL" pad="1"/>
<connect gate="A" pin="SPI/!I2C" pad="4"/>
<connect gate="A" pin="VDD" pad="14"/>
</connects>
<technologies>
<technology name="">
<attribute name="MANUFACTURER_PART_NUMBER" value="MAX5550ETE+" constant="no"/>
<attribute name="VENDOR" value="Maxim Integrated Products" constant="no"/>
</technology>
</technologies>
</device>
<device name="21-0136I_T1633F-3-M" package="21-0136I_T1633F-3-M">
<connects>
<connect gate="A" pin="!CS/A0" pad="3"/>
<connect gate="A" pin="17" pad="17"/>
<connect gate="A" pin="DIN/SDA" pad="2"/>
<connect gate="A" pin="DOUT/A1" pad="5"/>
<connect gate="A" pin="FSADJA" pad="11"/>
<connect gate="A" pin="FSADJB" pad="10"/>
<connect gate="A" pin="GND" pad="16"/>
<connect gate="A" pin="GND_2" pad="8"/>
<connect gate="A" pin="NC" pad="15"/>
<connect gate="A" pin="NC_2" pad="6"/>
<connect gate="A" pin="NC_3" pad="13"/>
<connect gate="A" pin="OUTA" pad="12"/>
<connect gate="A" pin="OUTB" pad="9"/>
<connect gate="A" pin="REFIN" pad="7"/>
<connect gate="A" pin="SCLK/SCL" pad="1"/>
<connect gate="A" pin="SPI/!I2C" pad="4"/>
<connect gate="A" pin="VDD" pad="14"/>
</connects>
<technologies>
<technology name="">
<attribute name="MANUFACTURER_PART_NUMBER" value="MAX5550ETE+" constant="no"/>
<attribute name="VENDOR" value="Maxim Integrated Products" constant="no"/>
</technology>
</technologies>
</device>
<device name="21-0136I_T1633F-3-L" package="21-0136I_T1633F-3-L">
<connects>
<connect gate="A" pin="!CS/A0" pad="3"/>
<connect gate="A" pin="17" pad="17"/>
<connect gate="A" pin="DIN/SDA" pad="2"/>
<connect gate="A" pin="DOUT/A1" pad="5"/>
<connect gate="A" pin="FSADJA" pad="11"/>
<connect gate="A" pin="FSADJB" pad="10"/>
<connect gate="A" pin="GND" pad="16"/>
<connect gate="A" pin="GND_2" pad="8"/>
<connect gate="A" pin="NC" pad="15"/>
<connect gate="A" pin="NC_2" pad="6"/>
<connect gate="A" pin="NC_3" pad="13"/>
<connect gate="A" pin="OUTA" pad="12"/>
<connect gate="A" pin="OUTB" pad="9"/>
<connect gate="A" pin="REFIN" pad="7"/>
<connect gate="A" pin="SCLK/SCL" pad="1"/>
<connect gate="A" pin="SPI/!I2C" pad="4"/>
<connect gate="A" pin="VDD" pad="14"/>
</connects>
<technologies>
<technology name="">
<attribute name="MANUFACTURER_PART_NUMBER" value="MAX5550ETE+" constant="no"/>
<attribute name="VENDOR" value="Maxim Integrated Products" constant="no"/>
</technology>
</technologies>
</device>
</devices>
</deviceset>
<deviceset name="AD9833BRMZ" prefix="IC">
<description>&lt;b&gt;Data Acquisition ADCs/DACs - Specialized 12.65mW 2.3-5.5V Prog Waveform Gen&lt;/b&gt;&lt;p&gt;
Source: &lt;a href="https://componentsearchengine.com/Datasheets/1/AD9833BRMZ.pdf"&gt; Datasheet &lt;/a&gt;</description>
<gates>
<gate name="G$1" symbol="AD9833BRMZ" x="0" y="0"/>
</gates>
<devices>
<device name="" package="SOP50P490X110-10N">
<connects>
<connect gate="G$1" pin="AGND" pad="9"/>
<connect gate="G$1" pin="CAP/2.5V" pad="3"/>
<connect gate="G$1" pin="COMP" pad="1"/>
<connect gate="G$1" pin="DGND" pad="4"/>
<connect gate="G$1" pin="FSYNC" pad="8"/>
<connect gate="G$1" pin="MCLK" pad="5"/>
<connect gate="G$1" pin="SCLK" pad="7"/>
<connect gate="G$1" pin="SDATA" pad="6"/>
<connect gate="G$1" pin="VDD" pad="2"/>
<connect gate="G$1" pin="VOUT" pad="10"/>
</connects>
<technologies>
<technology name="">
<attribute name="DESCRIPTION" value="Data Acquisition ADCs/DACs - Specialized 12.65mW 2.3-5.5V Prog Waveform Gen" constant="no"/>
<attribute name="HEIGHT" value="1.1mm" constant="no"/>
<attribute name="MANUFACTURER_NAME" value="Analog Devices" constant="no"/>
<attribute name="MANUFACTURER_PART_NUMBER" value="AD9833BRMZ" constant="no"/>
<attribute name="MOUSER_PART_NUMBER" value="584-AD9833BRMZ" constant="no"/>
<attribute name="MOUSER_PRICE-STOCK" value="https://www.mouser.com/Search/Refine.aspx?Keyword=584-AD9833BRMZ" constant="no"/>
</technology>
</technologies>
</device>
</devices>
</deviceset>
<deviceset name="AD9833BRMZ-REEL7" prefix="IC">
<description>&lt;b&gt;Data Acquisition ADCs/DACs - Specialized 12.65mW 2.3-5.5V Prog Waveform Gen&lt;/b&gt;&lt;p&gt;
Source: &lt;a href="https://www.analog.com/media/en/technical-documentation/data-sheets/ad9833.pdf"&gt; Datasheet &lt;/a&gt;</description>
<gates>
<gate name="G$1" symbol="AD9833BRMZ-REEL7" x="0" y="0"/>
</gates>
<devices>
<device name="" package="SOP50P490X110-10N">
<connects>
<connect gate="G$1" pin="AGND" pad="9"/>
<connect gate="G$1" pin="CAP/2.5V" pad="3"/>
<connect gate="G$1" pin="COMP" pad="1"/>
<connect gate="G$1" pin="DGND" pad="4"/>
<connect gate="G$1" pin="FSYNC" pad="8"/>
<connect gate="G$1" pin="MCLK" pad="5"/>
<connect gate="G$1" pin="SCLK" pad="7"/>
<connect gate="G$1" pin="SDATA" pad="6"/>
<connect gate="G$1" pin="VDD" pad="2"/>
<connect gate="G$1" pin="VOUT" pad="10"/>
</connects>
<technologies>
<technology name="">
<attribute name="ARROW_PART_NUMBER" value="AD9833BRMZ-REEL7" constant="no"/>
<attribute name="ARROW_PRICE-STOCK" value="https://www.arrow.com/en/products/ad9833brmz-reel7/analog-devices" constant="no"/>
<attribute name="DESCRIPTION" value="Data Acquisition ADCs/DACs - Specialized 12.65mW 2.3-5.5V Prog Waveform Gen" constant="no"/>
<attribute name="HEIGHT" value="1.1mm" constant="no"/>
<attribute name="MANUFACTURER_NAME" value="Analog Devices" constant="no"/>
<attribute name="MANUFACTURER_PART_NUMBER" value="AD9833BRMZ-REEL7" constant="no"/>
<attribute name="MOUSER_PART_NUMBER" value="584-AD9833BRMZ-R7" constant="no"/>
<attribute name="MOUSER_PRICE-STOCK" value="https://www.mouser.co.uk/ProductDetail/Analog-Devices/AD9833BRMZ-REEL7?qs=BpaRKvA4VqGlyZCX2gCZvQ%3D%3D" constant="no"/>
</technology>
</technologies>
</device>
</devices>
</deviceset>
</devicesets>
</library>
</drawing>
</eagle>
