<?xml version="1.0" encoding="utf-8"?>
<!DOCTYPE eagle SYSTEM "eagle.dtd">
<eagle version="9.6.2">
<drawing>
<settings>
<setting alwaysvectorfont="no"/>
<setting verticaltext="up"/>
</settings>
<grid distance="0.1" unitdist="inch" unit="inch" style="lines" multiple="1" display="no" altdistance="0.01" altunitdist="inch" altunit="inch"/>
<layers>
<layer number="1" name="Top" color="4" fill="1" visible="yes" active="yes"/>
<layer number="2" name="Route2" color="16" fill="1" visible="no" active="yes"/>
<layer number="3" name="Route3" color="17" fill="1" visible="no" active="yes"/>
<layer number="4" name="Route4" color="18" fill="1" visible="no" active="yes"/>
<layer number="5" name="Route5" color="19" fill="1" visible="no" active="yes"/>
<layer number="6" name="Route6" color="25" fill="1" visible="no" active="yes"/>
<layer number="7" name="Route7" color="26" fill="1" visible="no" active="yes"/>
<layer number="8" name="Route8" color="27" fill="1" visible="no" active="yes"/>
<layer number="9" name="Route9" color="28" fill="1" visible="no" active="yes"/>
<layer number="10" name="Route10" color="29" fill="1" visible="no" active="yes"/>
<layer number="11" name="Route11" color="30" fill="1" visible="no" active="yes"/>
<layer number="12" name="Route12" color="20" fill="1" visible="no" active="yes"/>
<layer number="13" name="Route13" color="21" fill="1" visible="no" active="yes"/>
<layer number="14" name="Route14" color="22" fill="1" visible="no" active="yes"/>
<layer number="15" name="Route15" color="23" fill="1" visible="no" active="yes"/>
<layer number="16" name="Bottom" color="1" fill="1" visible="yes" active="yes"/>
<layer number="17" name="Pads" color="2" fill="1" visible="yes" active="yes"/>
<layer number="18" name="Vias" color="2" fill="1" visible="yes" active="yes"/>
<layer number="19" name="Unrouted" color="6" fill="1" visible="yes" active="yes"/>
<layer number="20" name="Dimension" color="24" fill="1" visible="yes" active="yes"/>
<layer number="21" name="tPlace" color="7" fill="1" visible="yes" active="yes"/>
<layer number="22" name="bPlace" color="7" fill="1" visible="yes" active="yes"/>
<layer number="23" name="tOrigins" color="15" fill="1" visible="yes" active="yes"/>
<layer number="24" name="bOrigins" color="15" fill="1" visible="yes" active="yes"/>
<layer number="25" name="tNames" color="7" fill="1" visible="yes" active="yes"/>
<layer number="26" name="bNames" color="7" fill="1" visible="yes" active="yes"/>
<layer number="27" name="tValues" color="7" fill="1" visible="yes" active="yes"/>
<layer number="28" name="bValues" color="7" fill="1" visible="yes" active="yes"/>
<layer number="29" name="tStop" color="7" fill="3" visible="no" active="yes"/>
<layer number="30" name="bStop" color="7" fill="6" visible="no" active="yes"/>
<layer number="31" name="tCream" color="7" fill="4" visible="no" active="yes"/>
<layer number="32" name="bCream" color="7" fill="5" visible="no" active="yes"/>
<layer number="33" name="tFinish" color="6" fill="3" visible="no" active="yes"/>
<layer number="34" name="bFinish" color="6" fill="6" visible="no" active="yes"/>
<layer number="35" name="tGlue" color="7" fill="4" visible="no" active="yes"/>
<layer number="36" name="bGlue" color="7" fill="5" visible="no" active="yes"/>
<layer number="37" name="tTest" color="7" fill="1" visible="no" active="yes"/>
<layer number="38" name="bTest" color="7" fill="1" visible="no" active="yes"/>
<layer number="39" name="tKeepout" color="4" fill="11" visible="yes" active="yes"/>
<layer number="40" name="bKeepout" color="1" fill="11" visible="yes" active="yes"/>
<layer number="41" name="tRestrict" color="4" fill="10" visible="yes" active="yes"/>
<layer number="42" name="bRestrict" color="1" fill="10" visible="yes" active="yes"/>
<layer number="43" name="vRestrict" color="2" fill="10" visible="yes" active="yes"/>
<layer number="44" name="Drills" color="7" fill="1" visible="no" active="yes"/>
<layer number="45" name="Holes" color="7" fill="1" visible="no" active="yes"/>
<layer number="46" name="Milling" color="3" fill="1" visible="no" active="yes"/>
<layer number="47" name="Measures" color="7" fill="1" visible="no" active="yes"/>
<layer number="48" name="Document" color="7" fill="1" visible="yes" active="yes"/>
<layer number="49" name="Reference" color="7" fill="1" visible="yes" active="yes"/>
<layer number="51" name="tDocu" color="7" fill="1" visible="yes" active="yes"/>
<layer number="52" name="bDocu" color="7" fill="1" visible="yes" active="yes"/>
<layer number="88" name="SimResults" color="9" fill="1" visible="yes" active="yes"/>
<layer number="89" name="SimProbes" color="9" fill="1" visible="yes" active="yes"/>
<layer number="90" name="Modules" color="5" fill="1" visible="yes" active="yes"/>
<layer number="91" name="Nets" color="2" fill="1" visible="yes" active="yes"/>
<layer number="92" name="Busses" color="1" fill="1" visible="yes" active="yes"/>
<layer number="93" name="Pins" color="2" fill="1" visible="no" active="yes"/>
<layer number="94" name="Symbols" color="4" fill="1" visible="yes" active="yes"/>
<layer number="95" name="Names" color="7" fill="1" visible="yes" active="yes"/>
<layer number="96" name="Values" color="7" fill="1" visible="yes" active="yes"/>
<layer number="97" name="Info" color="7" fill="1" visible="yes" active="yes"/>
<layer number="98" name="Guide" color="6" fill="1" visible="yes" active="yes"/>
</layers>
<library>
<packages>
<package name="INDPM8080X420N">
<description>&lt;b&gt;BWVS00808040&lt;/b&gt;&lt;br&gt;
</description>
<smd name="1" x="-3" y="0" dx="8.1" dy="3.25" layer="1" rot="R90"/>
<smd name="2" x="3" y="0" dx="8.1" dy="3.25" layer="1" rot="R90"/>
<text x="0" y="0" size="1.27" layer="25" align="center">&gt;NAME</text>
<text x="0" y="0" size="1.27" layer="27" align="center">&gt;VALUE</text>
<wire x1="-4.875" y1="4.35" x2="4.875" y2="4.35" width="0.05" layer="51"/>
<wire x1="4.875" y1="4.35" x2="4.875" y2="-4.35" width="0.05" layer="51"/>
<wire x1="4.875" y1="-4.35" x2="-4.875" y2="-4.35" width="0.05" layer="51"/>
<wire x1="-4.875" y1="-4.35" x2="-4.875" y2="4.35" width="0.05" layer="51"/>
<wire x1="-4" y1="4" x2="4" y2="4" width="0.1" layer="51"/>
<wire x1="4" y1="4" x2="4" y2="-4" width="0.1" layer="51"/>
<wire x1="4" y1="-4" x2="-4" y2="-4" width="0.1" layer="51"/>
<wire x1="-4" y1="-4" x2="-4" y2="4" width="0.1" layer="51"/>
<wire x1="4" y1="4" x2="-4" y2="4" width="0.2" layer="21"/>
<wire x1="-4" y1="-4" x2="4" y2="-4" width="0.2" layer="21"/>
</package>
<package name="INDPM122122X800N">
<description>&lt;b&gt;P1173&lt;/b&gt;&lt;br&gt;
</description>
<smd name="1" x="-5.3" y="0" dx="3.05" dy="2.8" layer="1" rot="R90"/>
<smd name="2" x="5.3" y="0" dx="3.05" dy="2.8" layer="1" rot="R90"/>
<text x="0" y="0" size="1.27" layer="25" align="center">&gt;NAME</text>
<text x="0" y="0" size="1.27" layer="27" align="center">&gt;VALUE</text>
<wire x1="-6.95" y1="6.37" x2="6.95" y2="6.37" width="0.05" layer="51"/>
<wire x1="6.95" y1="6.37" x2="6.95" y2="-6.37" width="0.05" layer="51"/>
<wire x1="6.95" y1="-6.37" x2="-6.95" y2="-6.37" width="0.05" layer="51"/>
<wire x1="-6.95" y1="-6.37" x2="-6.95" y2="6.37" width="0.05" layer="51"/>
<wire x1="-6.12" y1="6.12" x2="6.12" y2="6.12" width="0.1" layer="51"/>
<wire x1="6.12" y1="6.12" x2="6.12" y2="-6.12" width="0.1" layer="51"/>
<wire x1="6.12" y1="-6.12" x2="-6.12" y2="-6.12" width="0.1" layer="51"/>
<wire x1="-6.12" y1="-6.12" x2="-6.12" y2="6.12" width="0.1" layer="51"/>
<wire x1="6.12" y1="6.12" x2="-6.12" y2="6.12" width="0.2" layer="21"/>
<wire x1="-6.12" y1="-6.12" x2="6.12" y2="-6.12" width="0.2" layer="21"/>
</package>
<package name="INDPM120120X820N">
<description>&lt;b&gt;CDRH127&lt;/b&gt;&lt;br&gt;
</description>
<smd name="1" x="-5.05" y="0" dx="5.05" dy="3.2" layer="1" rot="R90"/>
<smd name="2" x="5.05" y="0" dx="5.05" dy="3.2" layer="1" rot="R90"/>
<text x="0" y="0" size="1.27" layer="25" align="center">&gt;NAME</text>
<text x="0" y="0" size="1.27" layer="27" align="center">&gt;VALUE</text>
<wire x1="-6.9" y1="6.4" x2="6.9" y2="6.4" width="0.05" layer="51"/>
<wire x1="6.9" y1="6.4" x2="6.9" y2="-6.4" width="0.05" layer="51"/>
<wire x1="6.9" y1="-6.4" x2="-6.9" y2="-6.4" width="0.05" layer="51"/>
<wire x1="-6.9" y1="-6.4" x2="-6.9" y2="6.4" width="0.05" layer="51"/>
<wire x1="-6" y1="6" x2="6" y2="6" width="0.1" layer="51"/>
<wire x1="6" y1="6" x2="6" y2="-6" width="0.1" layer="51"/>
<wire x1="6" y1="-6" x2="-6" y2="-6" width="0.1" layer="51"/>
<wire x1="-6" y1="-6" x2="-6" y2="6" width="0.1" layer="51"/>
<wire x1="6" y1="6" x2="-6" y2="6" width="0.2" layer="21"/>
<wire x1="-6" y1="-6" x2="6" y2="-6" width="0.2" layer="21"/>
</package>
<package name="06CZ">
<smd name="P$1" x="-2.77" y="0" dx="3.43" dy="1.83" layer="1" rot="R90"/>
<smd name="P$2" x="2.77" y="0" dx="3.43" dy="1.83" layer="1" rot="R90"/>
<wire x1="-4" y1="3.75" x2="-4" y2="-3.75" width="0.127" layer="39"/>
<wire x1="-4" y1="-3.75" x2="4" y2="-3.75" width="0.127" layer="39"/>
<wire x1="4" y1="-3.75" x2="4" y2="3.75" width="0.127" layer="39"/>
<wire x1="4" y1="3.75" x2="-4" y2="3.75" width="0.127" layer="39"/>
</package>
<package name="RFS1317473KL">
<description>&lt;b&gt;RFS1317-473KL-1&lt;/b&gt;&lt;br&gt;
</description>
<pad name="1" x="0" y="0" drill="1.37" diameter="2.055"/>
<pad name="2" x="5" y="0" drill="1.37" diameter="2.055"/>
<text x="2.5" y="0" size="1.27" layer="25" align="center">&gt;NAME</text>
<text x="2.5" y="0" size="1.27" layer="27" align="center">&gt;VALUE</text>
<wire x1="-4.65" y1="7.15" x2="9.65" y2="7.15" width="0.1" layer="51"/>
<wire x1="9.65" y1="7.15" x2="9.65" y2="-7.15" width="0.1" layer="51"/>
<wire x1="9.65" y1="-7.15" x2="-4.65" y2="-7.15" width="0.1" layer="51"/>
<wire x1="-4.65" y1="-7.15" x2="-4.65" y2="7.15" width="0.1" layer="51"/>
<wire x1="-4.15" y1="0" x2="-4.15" y2="0" width="0.2" layer="51"/>
<wire x1="-4.15" y1="0" x2="9.15" y2="0" width="0.2" layer="51" curve="180"/>
<wire x1="9.15" y1="0" x2="9.15" y2="0" width="0.2" layer="51"/>
<wire x1="9.15" y1="0" x2="-4.15" y2="0" width="0.2" layer="51" curve="180"/>
<wire x1="-4.15" y1="0" x2="-4.15" y2="0" width="0.1" layer="21"/>
<wire x1="-4.15" y1="0" x2="9.15" y2="0" width="0.1" layer="21" curve="180"/>
<wire x1="9.15" y1="0" x2="9.15" y2="0" width="0.1" layer="21"/>
<wire x1="9.15" y1="0" x2="-4.15" y2="0" width="0.1" layer="21" curve="180"/>
</package>
<package name="INDPM183140X690N">
<description>&lt;b&gt;PM5022S-330M-RC&lt;/b&gt;&lt;br&gt;
</description>
<smd name="1" x="-8.05" y="0" dx="3.5" dy="2.7" layer="1"/>
<smd name="2" x="8.05" y="0" dx="3.5" dy="2.7" layer="1"/>
<text x="0" y="0" size="1.27" layer="25" align="center">&gt;NAME</text>
<text x="0" y="0" size="1.27" layer="27" align="center">&gt;VALUE</text>
<wire x1="-10.05" y1="7.4" x2="10.05" y2="7.4" width="0.05" layer="51"/>
<wire x1="10.05" y1="7.4" x2="10.05" y2="-7.4" width="0.05" layer="51"/>
<wire x1="10.05" y1="-7.4" x2="-10.05" y2="-7.4" width="0.05" layer="51"/>
<wire x1="-10.05" y1="-7.4" x2="-10.05" y2="7.4" width="0.05" layer="51"/>
<wire x1="-9.15" y1="7" x2="9.15" y2="7" width="0.1" layer="51"/>
<wire x1="9.15" y1="7" x2="9.15" y2="-7" width="0.1" layer="51"/>
<wire x1="9.15" y1="-7" x2="-9.15" y2="-7" width="0.1" layer="51"/>
<wire x1="-9.15" y1="-7" x2="-9.15" y2="7" width="0.1" layer="51"/>
<wire x1="9.15" y1="7" x2="-9.15" y2="7" width="0.2" layer="21"/>
<wire x1="-9.15" y1="-7" x2="9.15" y2="-7" width="0.2" layer="21"/>
</package>
<package name="PG1096NL">
<smd name="P$3" x="2.5" y="2.75" dx="5" dy="5.5" layer="1"/>
<smd name="P$1" x="11" y="24" dx="5" dy="5" layer="1"/>
<smd name="P$2" x="19.5" y="2.75" dx="5" dy="5.5" layer="1"/>
<wire x1="-2" y1="28" x2="-2" y2="-2" width="0.127" layer="39"/>
<wire x1="-2" y1="-2" x2="24" y2="-2" width="0.127" layer="39"/>
<wire x1="24" y1="-2" x2="24" y2="28" width="0.127" layer="39"/>
<wire x1="24" y1="28" x2="-2" y2="28" width="0.127" layer="39"/>
</package>
<package name="INDPM225220X1240N">
<description>&lt;b&gt;2212&lt;/b&gt;&lt;br&gt;
</description>
<smd name="1" x="-9.5" y="0" dx="5.5" dy="4.4" layer="1"/>
<smd name="2" x="9.5" y="0" dx="5.5" dy="4.4" layer="1"/>
<text x="0" y="0" size="1.27" layer="25" align="center">&gt;NAME</text>
<text x="0" y="0" size="1.27" layer="27" align="center">&gt;VALUE</text>
<wire x1="-12.5" y1="11.75" x2="12.5" y2="11.75" width="0.05" layer="51"/>
<wire x1="12.5" y1="11.75" x2="12.5" y2="-11.75" width="0.05" layer="51"/>
<wire x1="12.5" y1="-11.75" x2="-12.5" y2="-11.75" width="0.05" layer="51"/>
<wire x1="-12.5" y1="-11.75" x2="-12.5" y2="11.75" width="0.05" layer="51"/>
<wire x1="-11.25" y1="11" x2="11.25" y2="11" width="0.1" layer="51"/>
<wire x1="11.25" y1="11" x2="11.25" y2="-11" width="0.1" layer="51"/>
<wire x1="11.25" y1="-11" x2="-11.25" y2="-11" width="0.1" layer="51"/>
<wire x1="-11.25" y1="-11" x2="-11.25" y2="11" width="0.1" layer="51"/>
<wire x1="11.25" y1="11" x2="-11.25" y2="11" width="0.2" layer="21"/>
<wire x1="-11.25" y1="-11" x2="11.25" y2="-11" width="0.2" layer="21"/>
</package>
</packages>
<symbols>
<symbol name="INDUCTOR">
<wire x1="2.54" y1="0" x2="3.81" y2="1.27" width="0.254" layer="94" curve="-90" cap="flat"/>
<wire x1="5.08" y1="0" x2="3.81" y2="1.27" width="0.254" layer="94" curve="90" cap="flat"/>
<wire x1="5.08" y1="0" x2="6.35" y2="1.27" width="0.254" layer="94" curve="-90" cap="flat"/>
<wire x1="7.62" y1="0" x2="6.35" y2="1.27" width="0.254" layer="94" curve="90" cap="flat"/>
<wire x1="7.62" y1="0" x2="8.89" y2="1.27" width="0.254" layer="94" curve="-90" cap="flat"/>
<wire x1="10.16" y1="0" x2="8.89" y2="1.27" width="0.254" layer="94" curve="90" cap="flat"/>
<wire x1="10.16" y1="0" x2="11.43" y2="1.27" width="0.254" layer="94" curve="-90" cap="flat"/>
<wire x1="12.7" y1="0" x2="11.43" y2="1.27" width="0.254" layer="94" curve="90" cap="flat"/>
<text x="12.7" y="2.54" size="1.778" layer="95">&gt;NAME</text>
<text x="12.7" y="5.08" size="1.778" layer="96">&gt;VALUE</text>
<pin name="1" x="0" y="0" visible="off" length="short" direction="pas" swaplevel="1"/>
<pin name="2" x="15.24" y="0" visible="off" length="short" direction="pas" swaplevel="1" rot="R180"/>
</symbol>
<symbol name="RFS1317-473KL">
<wire x1="5.08" y1="0" x2="7.62" y2="0" width="0.254" layer="94" curve="-175.4"/>
<wire x1="7.62" y1="0" x2="10.16" y2="0" width="0.254" layer="94" curve="-175.4"/>
<wire x1="10.16" y1="0" x2="12.7" y2="0" width="0.254" layer="94" curve="-175.4"/>
<wire x1="12.7" y1="0" x2="15.24" y2="0" width="0.254" layer="94" curve="-175.4"/>
<text x="16.51" y="6.35" size="1.778" layer="95" align="center-left">&gt;NAME</text>
<text x="16.51" y="3.81" size="1.778" layer="96" align="center-left">&gt;VALUE</text>
<pin name="1" x="0" y="0" visible="pad" length="middle"/>
<pin name="2" x="20.32" y="0" visible="pad" length="middle" rot="R180"/>
</symbol>
<symbol name="PM5022S-330M-RC">
<wire x1="5.08" y1="0" x2="7.62" y2="0" width="0.254" layer="94" curve="-175.4"/>
<wire x1="7.62" y1="0" x2="10.16" y2="0" width="0.254" layer="94" curve="-175.4"/>
<wire x1="10.16" y1="0" x2="12.7" y2="0" width="0.254" layer="94" curve="-175.4"/>
<wire x1="12.7" y1="0" x2="15.24" y2="0" width="0.254" layer="94" curve="-175.4"/>
<text x="16.51" y="6.35" size="1.778" layer="95" align="center-left">&gt;NAME</text>
<text x="16.51" y="3.81" size="1.778" layer="96" align="center-left">&gt;VALUE</text>
<pin name="1" x="0" y="0" visible="pad" length="middle"/>
<pin name="2" x="20.32" y="0" visible="pad" length="middle" rot="R180"/>
</symbol>
<symbol name="74435582200">
<wire x1="5.08" y1="0" x2="7.62" y2="0" width="0.254" layer="94" curve="-175.4"/>
<wire x1="7.62" y1="0" x2="10.16" y2="0" width="0.254" layer="94" curve="-175.4"/>
<wire x1="10.16" y1="0" x2="12.7" y2="0" width="0.254" layer="94" curve="-175.4"/>
<wire x1="12.7" y1="0" x2="15.24" y2="0" width="0.254" layer="94" curve="-175.4"/>
<text x="16.51" y="6.35" size="1.778" layer="95" align="center-left">&gt;NAME</text>
<text x="16.51" y="3.81" size="1.778" layer="96" align="center-left">&gt;VALUE</text>
<pin name="1" x="0" y="0" visible="pad" length="middle"/>
<pin name="2" x="20.32" y="0" visible="pad" length="middle" rot="R180"/>
</symbol>
</symbols>
<devicesets>
<deviceset name="BWVS008080402R2M00" prefix="L">
<description>&lt;b&gt;Fixed Inductor 808040 2.2uH&lt;/b&gt;&lt;p&gt;
Source: &lt;a href="https://www.mouser.com/datasheet/2/447/BWVS_Series-2089815.pdf"&gt; Datasheet &lt;/a&gt;</description>
<gates>
<gate name="G$1" symbol="INDUCTOR" x="10.16" y="5.08"/>
</gates>
<devices>
<device name="" package="INDPM8080X420N">
<connects>
<connect gate="G$1" pin="1" pad="1"/>
<connect gate="G$1" pin="2" pad="2"/>
</connects>
<technologies>
<technology name="">
<attribute name="ARROW_PART_NUMBER" value="" constant="no"/>
<attribute name="ARROW_PRICE-STOCK" value="" constant="no"/>
<attribute name="DESCRIPTION" value="Fixed Inductor 808040 2.2uH" constant="no"/>
<attribute name="HEIGHT" value="4.2mm" constant="no"/>
<attribute name="MANUFACTURER_NAME" value="Chilisin" constant="no"/>
<attribute name="MANUFACTURER_PART_NUMBER" value="BWVS008080402R2M00" constant="no"/>
<attribute name="MOUSER_PART_NUMBER" value="" constant="no"/>
<attribute name="MOUSER_PRICE-STOCK" value="" constant="no"/>
</technology>
</technologies>
</device>
</devices>
</deviceset>
<deviceset name="P1173.372NL" prefix="L">
<description>&lt;b&gt;FIXED IND 3.7UH 8.3A 8.5MOHM SMD&lt;/b&gt;&lt;p&gt;
Source: &lt;a href="https://datasheet.datasheetarchive.com/originals/dk/DKDS-10/182465.pdf"&gt; Datasheet &lt;/a&gt;</description>
<gates>
<gate name="G$1" symbol="INDUCTOR" x="7.62" y="7.62"/>
</gates>
<devices>
<device name="" package="INDPM122122X800N">
<connects>
<connect gate="G$1" pin="1" pad="1"/>
<connect gate="G$1" pin="2" pad="2"/>
</connects>
<technologies>
<technology name="">
<attribute name="ARROW_PART_NUMBER" value="" constant="no"/>
<attribute name="ARROW_PRICE-STOCK" value="" constant="no"/>
<attribute name="DESCRIPTION" value="FIXED IND 3.7UH 8.3A 8.5MOHM SMD" constant="no"/>
<attribute name="HEIGHT" value="8mm" constant="no"/>
<attribute name="MANUFACTURER_NAME" value="Pulse" constant="no"/>
<attribute name="MANUFACTURER_PART_NUMBER" value="P1173.372NL" constant="no"/>
<attribute name="MOUSER_PART_NUMBER" value="" constant="no"/>
<attribute name="MOUSER_PRICE-STOCK" value="" constant="no"/>
</technology>
</technologies>
</device>
</devices>
</deviceset>
<deviceset name="CDRH127L125NP-7R5NC" prefix="L">
<description>&lt;b&gt;FIXED IND 7.5UH 7A 16.3MOHM SMD&lt;/b&gt;&lt;p&gt;
Source: &lt;a href="https://4donline.ihs.com/images/VipMasterIC/IC/SMDC/SMDCS02341/SMDCS02341-1.pdf?hkey=EF798316E3902B6ED9A73243A3159BB0"&gt; Datasheet &lt;/a&gt;</description>
<gates>
<gate name="G$1" symbol="INDUCTOR" x="7.62" y="5.08"/>
</gates>
<devices>
<device name="" package="INDPM120120X820N">
<connects>
<connect gate="G$1" pin="1" pad="1"/>
<connect gate="G$1" pin="2" pad="2"/>
</connects>
<technologies>
<technology name="">
<attribute name="ARROW_PART_NUMBER" value="" constant="no"/>
<attribute name="ARROW_PRICE-STOCK" value="" constant="no"/>
<attribute name="DESCRIPTION" value="FIXED IND 7.5UH 7A 16.3MOHM SMD" constant="no"/>
<attribute name="HEIGHT" value="8.2mm" constant="no"/>
<attribute name="MANUFACTURER_NAME" value="Sumida" constant="no"/>
<attribute name="MANUFACTURER_PART_NUMBER" value="CDRH127L125NP-7R5NC" constant="no"/>
<attribute name="MOUSER_PART_NUMBER" value="" constant="no"/>
<attribute name="MOUSER_PRICE-STOCK" value="" constant="no"/>
</technology>
</technologies>
</device>
</devices>
</deviceset>
<deviceset name="MMD-06CZ-4R7M-V1-RU" prefix="L">
<gates>
<gate name="G$1" symbol="INDUCTOR" x="-20.32" y="12.7"/>
</gates>
<devices>
<device name="" package="06CZ">
<connects>
<connect gate="G$1" pin="1" pad="P$1"/>
<connect gate="G$1" pin="2" pad="P$2"/>
</connects>
<technologies>
<technology name=""/>
</technologies>
</device>
</devices>
</deviceset>
<deviceset name="RFS1317-473KL" prefix="L">
<description>&lt;b&gt;Fixed Inductors RFS1113 47uH 10% 0.055Ohms Radial&lt;/b&gt;&lt;p&gt;
Source: &lt;a href="https://componentsearchengine.com/Datasheets/1/RFS1317-473KL.pdf"&gt; Datasheet &lt;/a&gt;</description>
<gates>
<gate name="G$1" symbol="INDUCTOR" x="2.54" y="0"/>
</gates>
<devices>
<device name="" package="RFS1317473KL">
<connects>
<connect gate="G$1" pin="1" pad="1"/>
<connect gate="G$1" pin="2" pad="2"/>
</connects>
<technologies>
<technology name="">
<attribute name="DESCRIPTION" value="Fixed Inductors RFS1113 47uH 10% 0.055Ohms Radial" constant="no"/>
<attribute name="HEIGHT" value="16mm" constant="no"/>
<attribute name="MANUFACTURER_NAME" value="COILCRAFT" constant="no"/>
<attribute name="MANUFACTURER_PART_NUMBER" value="RFS1317-473KL" constant="no"/>
<attribute name="MOUSER_PART_NUMBER" value="994-RFS1317-473KL" constant="no"/>
<attribute name="MOUSER_PRICE-STOCK" value="https://www.mouser.co.uk/ProductDetail/Coilcraft/RFS1317-473KL?qs=W38ilblRkRl1f9z6X7EAZg%3D%3D" constant="no"/>
</technology>
</technologies>
</device>
</devices>
</deviceset>
<deviceset name="PM5022S-330M-RC" prefix="L">
<description>&lt;b&gt;Fixed Inductors 33uH 20%&lt;/b&gt;&lt;p&gt;
Source: &lt;a href="https://componentsearchengine.com/Datasheets/1/PM5022S-330M-RC.pdf"&gt; Datasheet &lt;/a&gt;</description>
<gates>
<gate name="G$1" symbol="PM5022S-330M-RC" x="0" y="0"/>
</gates>
<devices>
<device name="" package="INDPM183140X690N">
<connects>
<connect gate="G$1" pin="1" pad="1"/>
<connect gate="G$1" pin="2" pad="2"/>
</connects>
<technologies>
<technology name="">
<attribute name="DESCRIPTION" value="Fixed Inductors 33uH 20%" constant="no"/>
<attribute name="HEIGHT" value="6.9mm" constant="no"/>
<attribute name="MANUFACTURER_NAME" value="Bourns" constant="no"/>
<attribute name="MANUFACTURER_PART_NUMBER" value="PM5022S-330M-RC" constant="no"/>
<attribute name="MOUSER_PART_NUMBER" value="542-PM5022S-330M-RC" constant="no"/>
<attribute name="MOUSER_PRICE-STOCK" value="https://www.mouser.com/Search/Refine.aspx?Keyword=542-PM5022S-330M-RC" constant="no"/>
</technology>
</technologies>
</device>
</devices>
</deviceset>
<deviceset name="PG1096.223NLT" prefix="L">
<gates>
<gate name="G$1" symbol="INDUCTOR" x="0" y="0"/>
</gates>
<devices>
<device name="" package="PG1096NL">
<connects>
<connect gate="G$1" pin="1" pad="P$1"/>
<connect gate="G$1" pin="2" pad="P$2"/>
</connects>
<technologies>
<technology name=""/>
</technologies>
</device>
</devices>
</deviceset>
<deviceset name="74435582200" prefix="L">
<description>&lt;b&gt;WURTH ELEKTRONIK - 74435582200 - Power Inductor (SMD), 22 H, 15 A, Shielded, 18 A, WE-HCI Series, 22.5mm x 22mm x 12mm&lt;/b&gt;&lt;p&gt;
Source: &lt;a href="https://componentsearchengine.com/Datasheets/2/74435582200.pdf"&gt; Datasheet &lt;/a&gt;</description>
<gates>
<gate name="G$1" symbol="74435582200" x="0" y="0"/>
</gates>
<devices>
<device name="" package="INDPM225220X1240N">
<connects>
<connect gate="G$1" pin="1" pad="1"/>
<connect gate="G$1" pin="2" pad="2"/>
</connects>
<technologies>
<technology name="">
<attribute name="ARROW_PART_NUMBER" value="" constant="no"/>
<attribute name="ARROW_PRICE-STOCK" value="" constant="no"/>
<attribute name="DESCRIPTION" value="WURTH ELEKTRONIK - 74435582200 - Power Inductor (SMD), 22 H, 15 A, Shielded, 18 A, WE-HCI Series, 22.5mm x 22mm x 12mm" constant="no"/>
<attribute name="HEIGHT" value="12.4mm" constant="no"/>
<attribute name="MANUFACTURER_NAME" value="Wurth Elektronik" constant="no"/>
<attribute name="MANUFACTURER_PART_NUMBER" value="74435582200" constant="no"/>
<attribute name="MOUSER_PART_NUMBER" value="" constant="no"/>
<attribute name="MOUSER_PRICE-STOCK" value="" constant="no"/>
</technology>
</technologies>
</device>
</devices>
</deviceset>
</devicesets>
</library>
</drawing>
</eagle>
